<?xml version="1.0" encoding="utf-8"?>
<!-- Generator: Adobe Illustrator 24.2.1, SVG Export Plug-In . SVG Version: 6.00 Build 0)  -->
<svg version="1.1" xmlns="http://www.w3.org/2000/svg" xmlns:xlink="http://www.w3.org/1999/xlink" x="0px" y="0px"
	 viewBox="0 0 800 520" style="enable-background:new 0 0 800 520;" xml:space="preserve">
<style type="text/css">
	.st0{fill:#CBC6C5;}
	.st1{fill:#B8CEA7;}
	.st2{fill:#756865;}
	.st3{fill:#EDC86E;}
	.st4{fill:#DB9D2F;}
	.st5{fill:none;stroke:#A6DDE6;stroke-width:10;stroke-miterlimit:10;}
	.st6{fill:none;stroke:#A6DDE6;stroke-width:10;stroke-miterlimit:10;stroke-dasharray:19.3745,16.1454;}
	.st7{fill:#FAE7A8;}
	.st8{fill:none;stroke:#EDC86E;stroke-width:16.241;stroke-linejoin:round;stroke-miterlimit:10;}
	.st9{fill:none;stroke:#AEA7A5;stroke-miterlimit:10;}
	.st10{fill:#D5D1D4;}
	.st11{fill:#8F8F97;}
	.st12{fill:#AA3E38;}
	.st13{fill:#73B668;}
	.st14{fill:#609762;}
	.st15{fill:none;stroke:#8D5B5B;stroke-width:9;stroke-miterlimit:10;}
	.st16{fill:#D07E77;}
	.st17{fill:#F9B7AF;}
	.st18{fill:none;stroke:#B0CCB1;stroke-miterlimit:10;}
	.st19{fill:#9D93C8;}
	.st20{fill:#FFECDB;}
	.st21{fill:#B6BF65;}
	.st22{fill:#746765;}
	.st23{fill:#7088AE;}
	.st24{fill:#3F5250;}
	.st25{fill:#CAA07D;}
	.st26{fill:#5BC7D6;}
	.st27{fill:#F8F5EE;}
	.st28{fill:#784B2D;}
	.st29{opacity:0.39;fill:#AA3E38;}
	.st30{fill:#FEDAC0;}
	.st31{fill:#462E53;}
	.st32{fill:none;stroke:#462E53;stroke-width:4;stroke-miterlimit:10;}
	.st33{fill:none;}
	.st34{fill:#A36A74;}
	.st35{fill:none;stroke:#98C7D7;stroke-width:0;stroke-linecap:round;stroke-linejoin:round;}
	.st36{fill:#71B2C8;}
	.st37{opacity:0.71;}
	.st38{fill:none;stroke:#E5B868;stroke-width:0;stroke-linecap:round;stroke-linejoin:round;}
	.st39{fill:#FFFFFF;}
	.st40{fill:none;stroke:#462E53;stroke-width:40;stroke-miterlimit:10;}
</style>
<g id="Layer_3">
</g>
<g id="Layer_2">
	<path class="st30" d="M357.61,412.86c0,0,44.09-35.38,140.33-33.33c108.55,2.31,122,33.9,122,33.9l-25.85-60.71l-190.95-19.71
		L357.61,412.86z"/>
	<path class="st30" d="M365.63,217.9c0,0,99.27,129.7,235.49-1.82c6.6,125.1-97.46,123.03-97.46,123.03l-112.71-22.8L365.63,217.9z"
		/>
	<path class="st28" d="M293.31,398.36l-15.53-44.47c0,0,63.87-17.63,90.52-19.04l10.45,35.39
		C347.49,373.12,293.31,398.36,293.31,398.36z"/>
	<path class="st14" d="M365.32,352.68c-47.71,6.08-81.46-45.11-80.26-81.57c0.18-5.58,61.94,1.34,73.54,42.24
		C370.21,354.27,365.32,352.68,365.32,352.68z"/>
	<path class="st16" d="M471.75,294.73c-55.38,2.92-91.75-50.7-106.11-76.82c-10.44,15-16.45,35.66-14.98,63.43
		c1.32,25.05,9.45,45.99,14.2,69.97c-3.57,18.88-8.62,32.84-7.19,62.65c28.33-17.26,73.45-39.93,118.15-42.29
		c70.4-3.71,116.58,19.62,144.14,41.76c3.36-17.72,3.71-39.88,2.23-68.04c-3.35-63.58-5.71-104.4-21.06-129.3
		C585.4,248.68,550.07,290.6,471.75,294.73z"/>
	<g>
		<path class="st29" d="M359.78,412.67c-0.74,0.06-1.46,0.13-2.16,0.19c0.02,0.37,0.03,0.74,0.04,1.1
			C358.36,413.53,359.05,413.11,359.78,412.67z"/>
		<path class="st29" d="M542.94,276.61c2.41,16.15,3.43,32.72,2.17,48.92c-1.51,19.54-14.25,34.8-32.72,46.72
			c50.24,4.34,85.09,23.14,107.55,41.18c3.36-17.72,3.71-39.88,2.23-68.04c-3.35-63.58-5.71-104.4-21.06-129.3
			C591.3,236.46,573.8,260.46,542.94,276.61z"/>
	</g>
	<g>
		<g>
			<g>
				<g>
					<path class="st2" d="M240.43,235.15c-0.53,0.1-0.28,0.75,0.18,0.74l-0.06-0.25L240.43,235.15z"/>
					<path class="st2" d="M240.32,234.65c0.04,0,0.07,0.02,0.1,0.03C240.47,234.66,239.93,234.29,240.32,234.65z"/>
					<path class="st2" d="M240.41,234.68c-0.01,0-0.03,0-0.1-0.03c-0.77-0.71-1.02,0.8,0.29,0.19
						C240.6,234.76,240.52,234.71,240.41,234.68z"/>
					<path class="st2" d="M234.84,181.85C233.05,182.2,235.11,183,234.84,181.85L234.84,181.85z"/>
					<path class="st2" d="M232.04,168.67c-0.01-0.14-0.05-0.27-0.14-0.39c-0.23-0.1-0.33,0.6-0.31,0.66
						C231.62,169.11,232.08,168.85,232.04,168.67z"/>
					<path class="st2" d="M238.19,213.05c0.13-0.02,0.25-0.04,0.37-0.08C238.4,213,238.26,213.03,238.19,213.05z"/>
					<path class="st2" d="M244.84,235.58c0.35-0.38,0.09-0.56-0.27-0.79c-0.29-0.18,0.08-0.13,0.17-0.23
						c-0.04,0.05-1.77-0.05-1.35-0.36c0.46-0.34,1.12-0.37,1.72-0.49c0.45-0.09,1.05-0.63,0.51-0.88c-0.54,0.11-0.66,0.52-1.31,0.52
						c-0.15-0.62,0.94-0.55,0.85-0.94c-0.07-0.3-0.4-0.22-0.74-0.11c-0.13-0.54,0.86-0.51,0.83-0.95c-0.03-0.43-0.09-0.31,0.12-0.61
						c0.35-0.49-0.3-0.62-0.78-0.54c-0.54,0.09-0.67,0.03-0.77-0.37c0.45-0.09,0.89-0.13,1.33-0.19c0.61-0.08-0.27-0.48-0.42-0.51
						c-0.19-0.23-0.15-0.69-0.24-0.96c-0.03-0.1-0.61-0.59-0.62-0.49c0.03-0.3,2.19-1.08,0.54-1.33c-0.47,0.09-0.2-0.29-0.12-0.49
						c0.34-0.38,0.07-0.7-0.24-0.99c-0.61-0.8-0.08-0.58,0.29-1.31c0.41-0.82-0.98-0.62-1.59-0.51c0.26-0.05,0.32-0.32,0.77-0.41
						c0.22-0.04,0.35-0.19,0.41-0.34c0.25-0.63-0.08-1.42-0.09-2.05c0-0.56,0.18-1.46-0.09-1.96c-0.17-0.33-1.07,0.12-1.38,0.18
						c0.28-0.05,0.15-0.34,0.39-0.52c0.17-0.1,0.35-0.16,0.55-0.19c0.19-0.08-0.01-0.5-0.04-0.61c0.08,0.31-0.33-0.24-0.34-0.31
						c-0.1-0.43,0.12-0.9-0.06-1.31c-0.16-0.39-1.24-0.24-0.99-0.86c0.24-0.59,1.2-1.51,0.76-2.11c-0.19-0.26-1.52-0.57-0.3-0.81
						c-0.15-0.12-0.35-0.17-0.56-0.16c1.71-0.49,0.74-2.08,0.49-3.13c-0.06-0.27-0.28-2.08-0.83-1.97
						c-0.11-0.27,0.07-0.41,0.09-0.69c0.02-0.46-0.11-0.92-0.22-1.36c-0.17-0.72,0.04-1.33-0.13-2.05
						c-0.04-0.18-0.07-0.76-0.52-0.68c-0.31,0.19-0.54,0.01-0.59-0.21c-0.06-0.26,0.04-0.59,0.35-0.78
						c0.07-0.34-0.26-0.65-0.14-1.01c0.04-0.1,0.74-0.66,0.12-0.54c-0.35,0.07-0.74-0.11-0.8-0.36c0.18-0.07,0.91-0.07,0.93-0.1
						c0.25-0.27-0.77-1.17-0.89-1.4c-0.15-0.3,0.06-0.71,0.11-1.1c0.05-0.37,0.49-1.21-0.24-1.23c-0.45-0.01-0.75,0-1.2-0.07
						c0.29-0.32,0.86-0.68,1.08-0.99c0.38-0.55-1.15-0.01-1.31,0c-0.15-0.63,1.45-0.67,1.77-1.03c0.4-0.44-0.41-0.79-0.48-1.09
						c-0.08-0.31,0.13-1.27-0.29-1.19l-0.34,0.07c-0.07-0.18-0.22-0.3-0.46-0.35c-0.1-0.02-0.87,0.06-0.87,0.06
						c-0.06-0.26,1.79-0.69,1.96-1.14c0.21-0.54-0.24-1.38-0.36-1.89c-0.15-0.61,0.13-2.25-0.98-2.23c0.72-0.32,0.02-1.64,0-2.05
						c0-0.11,0.4-0.89,0.11-0.83c-0.45-0.25-0.83,0.52-1.09,0.5c-1-0.04,1.04-1.72,0.81-1.97c-0.01,0-0.58,0.08-1.11,0.15
						c-0.54,0.07-1.05,0.11-0.94-0.01c0.24-0.27,2.8-0.46,1.92-1.25c-0.49-0.44-0.21-1.24-0.94-1.56c-0.28-0.29-0.93-1.01-0.7-1.42
						c0.67-0.13,1.14-1.26,0.31-1.1c1.85-0.36,0.63-2.14-0.96-1.63c0.39-0.24,0.88-0.41,1.23-0.66c0.48-0.34,0.23-0.72,0.14-1.11
						c-0.09-0.38,0.06-1.58-0.64-1.27c0.33-0.38,0.3-0.9,0.2-1.32c-0.19-0.78-0.47-0.6-1.37-0.48c-0.11-0.45,1-0.64,1.19-1.01
						c-0.35,0.07-0.74-0.11-0.8-0.36c1.34-0.16,0.84-0.99,0.67-1.69c-0.1-0.43-1.67-0.66-2.14-0.71c-0.49-0.06-1.07,0.16-1.51,0.1
						c-0.4-0.06,0.05-0.33,0.22-0.37c0.61-0.15,1.31-0.1,1.92-0.11c-0.08,0,1.13,0.07,1.01-0.06c-0.09-0.1-0.26-0.28-0.27-0.5
						c0.15,0,0.26-0.04,0.31-0.14c0.01-0.13-0.03-0.55-0.3-0.55c-0.17,0-2.35,0.65-2.31,0.55c0.21-0.44,1.87-1.36,0.45-1.58
						c-0.41,0.48-1.24,0.26-1.71,0.66c-0.39,0.34,1.18,0.99,0.62,1.21c-0.38,0.15-0.83-0.05-1.23,0.39
						c-0.48,0.09,0.16,0.65,0.2,0.83c0.14,0.57,1.32,0.38,1.95,0.4c0.38,0.01,0.9-0.02,1.06,0.28c0.06,0.11,0.28,0.72-0.01,0.78
						c-0.26,0.05-0.78-0.55-1-0.64c-0.46-0.18-0.79-0.11-1.3-0.01c0.82-0.16,0.61,0.58,1.14,0.81c0.12,0.49-0.19,0.33-0.4,0.68
						c-0.18,0.3,0.03,0.69,0.08,0.98c0.05,0.31-0.34,0.23-0.6,0.41c-0.37,0.27-0.25,0.72-0.3,1.05c-0.03,0.18-0.32,1.52,0.19,1.31
						c0.84-0.34,1.17-0.17,1.09,0.56c-0.05,0.48-1.11,0.59-0.39,0.88c0.77,0.31-0.48,0.92,0.09,1c0.34,0.05,2.3-0.25,2.3-0.33
						c-0.01,0.33-1.14,0.47-1.43,0.65c-0.44,0.27-0.28,0.75-0.85,0.87c-0.05-0.2-0.35-0.01-0.34,0.07c0.06,0.27,0.32,0.08,0.4,0.18
						c0.45-0.09,0.51,0.47,0.52,0.68c0.04-0.01,0.98-0.76,0.9-0.17c-0.1,0.73-1.48,0.51-1.71,0.86c-0.36,0.57,0.51,0.85,1.1,0.79
						c0.59-0.06,0.42-0.01,0.52,0.43c0.03-0.08-0.2,0.7,0.09,0.6c0.49-0.17,0.79-0.45,0.49,0.32c-0.6,0.66-0.75-0.37-1.49-0.23
						c0.28,0.57-0.58,0.63,0.11,1.1c0.39,0.27,0.12,1.33,1.02,1.01c-0.46,0.06-0.55,0.46-0.17,0.62c0.4,0.17,0.82,0.08,1.25,0.14
						c0.82,0.13-0.39,0.61-0.64,0.71c-0.36,0.14-1.53,0.44-1.19,0.85c0.2,0.25,0.91,0.9-0.08,0.95c0.68-0.04,2.63-0.4,2,0.56
						c-0.33,0.5-1.96,0.5-1.24,1.11c0.12,0.1,1.04,0.41,0.88,0.61c-0.2,0.25-0.75,0.28-0.95,0.5c-0.19,0.21,0.34,0.35,0.4,0.63
						c0.09,0.4,0.73-0.02,1,0.14c0.42,0.24,0.21,0.76,0.79,0.98c0.12,0.04,1.09,0.39,0.39,0.53c-0.37,0.41-0.53,0.95-0.41,1.41
						c0.1,0.39,0.5,0.5,0.71,0.82c0.25,0.39-1.73,0.07-2.02,0.5c-0.26,0.39,0.92,0.28,1.07,0.29c0.22,0.02,0.61,0.35,0.26,0.42
						c0.17-0.03,1.3-0.41,1.29-0.29c-0.02,0.49-1.96,0.68-2.46,0.78c0.11,0.46,1.06-0.06,1.21,0.54c-1.21,0.02-0.13,0.77-0.38,1.05
						c-0.22,0.24-0.71,0.06-0.68,0.47c0.02,0.28,0.17,0.27,0.31,0.5c0.25,0.4-0.02,0.75,0.05,1.06l0.34,1.4
						c0.25-0.27,0.95-0.43,1.27-0.17c0.4,0.32-0.55,0.7-0.75,0.85c-0.54,0.11-0.71,0.78-0.41,1.04c0.35,0.3,0.72-0.48,0.92-0.64
						c0.26-0.23,0.97,1.13,0.25,1.27c-1.41,0.28,1.28,0.85,1.32,1.04c-0.29,0.05-1.16,0.09-1.11,0.45c0.01,0.11,0.71,1.36,0.04,1.06
						c-0.02,0.26,0.72,0.9,0.24,0.99c-0.22,0.04-0.84,0.68-0.51,0.67c0.55-0.02,1.39-0.98,1.45-1.28c0.02-0.1,0.6,0.22,0.63,0.31
						c0.11,0.28-0.53,0.56-0.77,0.67l-1.25,0.76c0.27,0.12,0.54,0.24,0.8,0.36c0.96,0.15,0.32,0.25-0.09,0.66
						c-1.01,0.98,1.16,1.91-0.11,2.5c-0.15,0.07,1.25,0.31,0.78,0.57c-0.1,0.05-1.46,0.45-0.86,0.65c0.32,0.11,1.08-0.28,1.18,0.14
						c0.04,0.16-0.42,0.72-0.51,0.68c0.01,0,0.45-0.61-0.07-0.45c-0.38,0.12-0.44,0.74-0.39,0.96c0.03,0.11,0.05,0.73,0.4,0.59
						c0.4-0.16,1.06-0.47,0.97-0.85c0.2-0.13,0.67-0.15,0.85-0.06c0.32,0.17-0.18,0.57-0.33,0.73c-0.4,0.45-0.99,0.91-1.68,1.1
						c0.31-0.04,0.68-0.04,0.72,0.12c0.04,0.16-0.6,0.41-0.75,0.57c-0.36,0.39,0.19,0.92,0.44,1.2c0.34,0.4,0.57,0.66,1.13,0.91
						c0.17,0.01,0.94,0.09,0.66,0.37c-0.19,0.19-1.7,0.28-1.74,0.21c0.14,0.24,1.1,0.27,1.13,0.41c-0.03-0.14-0.65,0.31-0.7,0.44
						c-0.08,0.21-0.04,0.77,0.43,0.68c0.2,0.22,0.6,1.18,0.98,1.1c0.5,0.87-0.35,0.64-0.8,1.32c-0.35,0.53,0.88,0.5,0.72-0.17
						c0.12,0.48,0.99,1.2,1.82,1.04c-0.53,0.1-0.97-0.05-1.54,0.14c-0.33,0.11-0.52,0.3-0.81,0.39c0.93-0.12,1.08,0.34,1.14,1.11
						c0.05,0.71-0.67,0.89-1.06,1.46c0.56-0.11,0.67,1.36,0.79,1.59c0.17,0.34,0.95,0.2,0.95,0.59c0,0.28-1.86,2.5-0.32,2.2
						c0.02,0.3-0.93,1.11-0.38,1.19c0.64,0.09,0.93,0.16,1.48,0.4c-0.63-0.03-1.22-0.07-1.83-0.16l2.01,0.9
						c-0.16-0.02-1.64-0.16-1.6-0.09c0.35,0.61,1.69,0.34,2.34,0.2c0.1,0.42-1.43,0.53-1.76,0.61c-0.68,0.17,0.1,0.34-0.17,0.72
						c-0.13,0.18-0.63,0.14-0.39,0.42c0.2,0.23,0.7,0.29,0.63,0.64c-0.05,0.23-0.05,0.57-0.15,0.82c-0.08,0.21-0.96,1.26-0.63,1.45
						c-0.05-0.03,1.08-0.04,1.11-0.04c0.9,0.01,1.1,0.02,0.95,0.62c-0.07,0.26,0.48,0.26,0.69,0.39
						C243.84,236.4,244.57,235.88,244.84,235.58z"/>
					<path class="st2" d="M240.26,221.72c-0.11,0.01-0.21,0.03-0.34,0.06C240.05,221.77,240.16,221.75,240.26,221.72z"/>
					<path class="st2" d="M231.33,159.3c0.07-0.32,0.09-0.81-0.47-0.45c-0.49,0.31-0.27,0.92-0.15,1.28l0.57-0.63
						C231.33,159.35,231.34,159.3,231.33,159.3z"/>
					<path class="st2" d="M235.04,161.06c0.49-0.63-0.5-0.5-0.04-1c0.31-0.77-0.87-1.21-1.16-1.85c0.7-0.14,0.73-0.46,0.42-0.86
						c-0.28-0.37-0.82-0.33-1.26-0.52c0.84,0.38,2.2-1.58,0.7-0.67c-0.49,0.54-0.53-0.39-0.15-0.67c0.51-0.37,0.98-0.35,0.82-1.01
						c0.36-0.9-1.55,0.17-1.73,0.25c-0.34,0.16-2.49-0.1-2.61,0.5c-0.08,0.38,0.74,0.29,0.39,0.8c-0.16,0.24-0.92,0.67-0.48,0.87
						c0.4-0.08,1-0.45,1.33-0.43c0.26,0.01,0.4,0.07,0.59,0.06c-0.53,0.16-1.34,0.57-0.69,0.77c0.32,0.1,1.45,0.11,1.74,0.05
						l-2.05,0.4c0.1,0.43,0.87-0.1,1.09,0.24c0.27,0.43-0.02,0.7,0,1.13c0.02,0.57,0.33,1.05-0.11,1.6
						c-0.11,0.14-0.66,0.58-0.62,0.74c-0.03-0.14,0.99-0.38,1.16-0.39c0.12,0.51-0.64,0.64-1.12,0.74c0.42-0.08,0.83,0.24,1,0.5
						c0.26,0.38,0.36,0.37,1.02,0.13C234.01,162.19,234.64,161.58,235.04,161.06z"/>
					<path class="st2" d="M234.37,154.49C234.49,154.98,234.6,153.92,234.37,154.49L234.37,154.49z"/>
					<path class="st2" d="M233.79,153.56c0.65-0.72-1.12-0.3-1.49-0.23c0.18-0.04,2.13-0.77,1.68-1.02
						c-0.38-0.21-1.03,0.35-1.22-0.13c-0.12-0.3-0.27-0.64-0.23-1.14c0.02-0.19,0.39-0.05,0.55-0.14c0.6-0.35,0.29-1.44-0.3-1.1
						c0.2-0.33-0.03-0.49-0.26-0.62c-0.23-0.14-0.45-0.24-0.27-0.71c0.22-0.6,0.83-0.61,1.07-0.4c-0.23-1.16-1.23-0.4-1.84,0.07
						c0.49-0.76,0.86-1.47,1.42-2.15c-0.28,0.14-0.94,0.5-1.43,0.79c-0.55,0.47-0.98,0.84-1.2,0.9c0.18-0.32,0.46-0.86,0.51-1.24
						c0.06-0.38-0.16-0.59-0.78-0.28c-0.36,0.18-0.11,0.42,0,0.7c0.13,0.28,0.11,0.62-0.34,0.92c-1.07,0.75,0.27-1.49-0.46-1.23
						c-0.36,0.13-0.68,1.08-1.01,0.59c0.02,0.02-0.14-0.5-0.12-0.52c-0.23,0.26-0.32,0.59-0.31,0.87c-0.01-0.88-0.33-1.07-1.22-1.35
						c-0.37-0.15-0.29,0.21-0.26,0.54c-0.17-0.42-0.57-0.66-0.91-0.62c-0.37,0.05-0.39,0.52-0.62,0.8
						c-0.21,0.26-0.48,0.57-0.78,0.64c-0.24,0.05-0.29-0.75-0.34-0.94c-0.27,0.18-0.44,0.53-0.58,0.88c0,0.16,0.01,0.24,0.02,0.29
						c0.08,1.15,0.64,1.6,0.94,2.73c0.31,1.16,0.78,0.39,1.4,0.33c0.46-0.05,1.51,0.3,1.74-0.35c0.07-0.37,0.04-0.63-0.06-0.86
						c-0.09-0.22-0.34-0.39-0.54-0.58c0.11-0.03,0.21-0.49,0.36-0.97c0.15-0.49,0.35-1,0.34-1.08c0.07,0.38-0.13,0.85-0.05,1.27
						c0.05,0.21,0.3,0.52,0.3,0.52c-0.04,0.34-0.28,1.52-0.01,1.43c0.15-0.05,0.45,0.13,0.67,0.15c0.23,0.02,0.5-0.15,0.96-0.98
						c-0.06,0.12,0.22,0.08,0.45,0.02c0.02,0.09,0.05,0.16,0.06,0.19c0.1,0.19-0.46,0.93-0.53,1.2c-0.07,0.32-0.05,0.52,0.32,0.58
						c0.38,0.08,0.28,0.24,0.1,0.35c-0.09,0.06-0.2,0.12-0.29,0.18c-0.08,0.08-0.15,0.06-0.11,0.25c0.18-0.05,0.32-0.12,0.43-0.19
						c0.11-0.05,0.21-0.1,0.3-0.15c0.19-0.09,0.39-0.19,0.83-0.14c0.29,0.03,1.43,0.42,0.98,0.84c-0.67,0.63-1.72,0.05-2.42,0.13
						c0.07,0.31,0.08,1.61,0.66,1.64c0.5,0.03,1.81-0.55,2.16-0.23C232.65,154.55,233.26,154.15,233.79,153.56z"/>
					<path class="st2" d="M222.98,150.39c-0.36,0.36,0.02,0.72,0.4,0.61C223.87,150.86,223.35,150.29,222.98,150.39z"/>
					<path class="st2" d="M220.88,148.07l-0.25,0.07C220.22,148.67,221.14,149.22,220.88,148.07z"/>
					<path class="st2" d="M220.78,149.91c-0.37-0.79-0.92-1.71-1.12-2.58c-0.34,0.15-0.9,0.89-0.91,1.43
						c-0.01,0.72,0.83-0.2,0.82-0.01c-0.02,0.43-0.66,0.85-0.98,0.46c-0.31-0.38-0.2-1.12-0.7-1.32c-1.7-0.67,0.16,1.35-0.17,1.57
						c-0.37,0.25-1.05-1.43-1.49-1.48c-0.75-0.09-0.91-0.14-0.67,0.85c-0.54,0.15-0.67-0.51-1.21-0.65
						c-0.36-0.09-1.08,0.06-0.85,0.77c-0.26-1.27-1.96,0.51-2.71,0.22c-0.01,0.01-0.05,0-0.12-0.07c0.09,0.41,0.58,1.54,1.04,2.24
						c0.14,0.61,0.55,0.4,0.66,0.65c0.06,0.14,0.45,1.27,0.62,0.7c0.1-0.33-0.23-0.55,0.09-0.64c0.19-0.05,0.38-0.1,0.57-0.17
						c0.35-0.16,0.09-1,0.28-1.39c0.52-1.06,0.33,1.75,0.31,1.71c0.08,0.16,0.48-1.07,0.83-0.67c0.39,0.44,0.55,1.24,1.16,0.94
						c0.14-0.07,0.94-0.84,0.53-1.13c-0.09-0.07-0.66,0.47-0.65,0.28c0.03-0.59,1.14-0.86,1.51-0.72c0.19,0.07,0.12,0.3,0.04,0.42
						c-0.22,0.38-0.14,0.35-0.01,0.9c0.23-0.45,0.31-1.04,0.42-1.56c0.05,0.23,0.35,1.74,0.59,1.39c0.21-0.3,0.06-0.92,0.34-1.15
						c0.1-0.09,0.32,0.29,0.44,0.35c0.66,0.31-0.05-1.84,0.83-0.11c0.55,0.67,0.95,0.86,1.3,0c0.37-0.9,0.89,0.94,1.04,0.14
						c0.17-0.87,0.15-2.22-0.01-3.14C222.28,146.1,221.03,149.3,220.78,149.91z"/>
					<path class="st2" d="M210.67,149.08c0.04,0.03,0.08,0.05,0.12,0.07C210.83,149.12,210.61,148.82,210.67,149.08z"/>
					<path class="st2" d="M197.66,154.85c-0.43,0.12-0.56,1.05-0.01,1.09C198.03,155.83,198.18,154.7,197.66,154.85z"/>
					<path class="st2" d="M193.4,156.37c0.78,0.13,0.95-0.61,0.09-0.37C193.38,156.1,193.35,156.23,193.4,156.37z"/>
					<path class="st2" d="M211.31,151.79c-0.07-0.2,0.01-0.66-0.12-0.77c-0.48-0.4-0.38,0.78-0.62-0.46
						c-0.08-0.43-0.91-1.25-1.08-0.68c-0.11,0.38-0.09,0.95-0.14,1.38c-0.09-0.43-0.22-1.41-0.67-1.4
						c-0.31,0.01-1.03,0.81-1.23-0.04c0.12,0.51,0.24,1.11-0.22,1.29c-0.05-0.23-0.24-1.56-0.6-1.46c-0.08,0.02-0.37,1.11-0.49,1.29
						c-0.73,1.06-0.43-0.87-0.8-0.9c-0.15-0.01-0.68,0.63-0.83,0.75c-0.23,0.19-0.05,0.79,0.03,1.07c-0.47,0.13-0.36-1.04-0.44-1.22
						c-0.06-0.14-0.67,0.01-0.87-0.24c-0.33-0.42-0.23-0.36-0.58,0.09c-0.23,0.29-0.55,0.31-0.86,0.14
						c-0.13-0.07-0.68-0.86-0.72-0.38c-0.02,0.22,0.29,0.97,0.1,1.09c-0.22,0.14-0.48-0.28-0.54-0.56c-0.26-1.11-0.61,0.5-0.44,0.65
						c-0.2-0.05-0.43-0.77-0.86-0.65c-0.51,0.14,0.08,0.45,0.01,0.76c-0.07,0.33-1.08-0.69-1.14-0.72
						c-0.25-0.13-0.31,0.52-0.55,0.72c-0.53,0.43-0.86,0.69-1.18,1.44c-0.12,0.29-0.33,0.86-0.67,0.58
						c-0.34-0.28-0.75-1.24-1.05-1.16c-0.49,0.13-0.51-0.38-0.83-0.65c-0.82-0.67-0.97,1.65-1.86,0.3c0.23,0.71,0.15,1.36-0.5,1.23
						c-0.54-0.11-0.99-1.18-1.29-1.1c-0.4,0.11,1.07,1.8,1.13,1.96c0.37,0.97-0.15,1.46-0.19,2.31c-0.03,0.7,1.28,0.18,1.46,0.12
						c0.7-0.24-0.65-1.1-0.47-1.54c-0.1,0.25-0.09,0.58-0.04,0.89c-0.11-0.42-0.2-0.9-0.07-1.25c0.2-0.54,0.59,0.05,0.68,0.43
						c0.24,0.55,0.9,1.24,0.79,0.15c-0.04-0.38-0.28-1.51,0.32-1.41c0.48,0.08,0.38,1.54,0.49,1.88c0.17,0.51,0.89,0.13,1.12,0.07
						c0.9-0.25,1.68,0.12,1.28-1.44c0.53,0.44,0.41-0.38,0.86-0.51c0.1-0.03,0.31,0.73,0.58,0.65c0.25-0.07-0.2-1.99,0.75-1.36
						c0.18,0.12,0.91,0.8,0.76,1.16c-0.16,0.39-0.56-0.25-0.74-0.32c-0.3-0.11-0.41,0.23-0.33,0.57c0.12,0.52-0.04,0.42-0.41,0.48
						c0.15,0.67,1.21,0.73,1.06,0.07c0.45-0.12,0.78,0.37,1.28,0.13c0.4-0.19,0.85-0.7,0.46-1.33c-0.18-0.3-0.56-0.62-0.54-0.88
						c0.02-0.23,0.69-1.47,0.74-1.13c0.08,0.56,0.29,1.02,0.58,1.53c0.31,0.53,0.47,0.81,0.92,0.75c0.42-0.05,0.7,0.55,1.06,0.56
						c-0.5-0.01-0.72-5.08,0.14-0.89c0.15,0.73,0.65,0.89,0.96,0.35c0.15-0.25,0.21-1.87,0.25-1.88c0.15-0.04,0.3,2.18,0.77,2.05
						c-0.12-0.54-0.76-2.24-0.18-2.48c0.62-0.25,0.54,1.57,0.91,1.83c0.19,0.13,0.48-0.07,0.66-0.08c0.31-0.03,0.24,0.36,0.46,0.41
						c0.35,0.09,1.23-1.5,1.23-1.5c0.1,0.21-0.19,0.78,0.19,0.95c0.19,0.09,0.38-0.12,0.48-0.29c0.13-0.21,0.41-1.58,0.64-1.54
						c0.42,0.07,0.56,1.22,0.89,1.5c0.45,0.38,0.62-0.35,0.53-0.77C211.58,151.89,211.46,152.25,211.31,151.79z"/>
					<path class="st2" d="M190.92,154.49c-0.12-0.54-0.7-1.28-1.01-0.86c-0.01,0-0.04,0.03-0.08,0.12l0.37,1.61
						c-0.06-0.29-0.03-0.55,0.07-0.8C190.13,154.93,191.25,155.89,190.92,154.49z"/>
					<path class="st2" d="M188.43,156.67c-0.1,0.23-0.19,1.1,0.24,1.02C188.99,157.6,188.83,156.56,188.43,156.67z"/>
					<path class="st2" d="M188.89,151.96c-0.02-0.04-0.28,0.65-0.36,0.69c-0.33,0.16-0.63-0.17-0.99-0.01
						c-0.31,0.13-0.59,0.4-0.79,0.73c-0.09,0.15,0,0.69,0,0.69c-0.06,0.02-0.54-0.88-0.61-0.7c-0.14,0.39,0.07,1.32,0.1,1.74
						l0.55,2.38c0.38-0.1,0.17-1.81,0.45-1.71c0.27,0.1,0,1.94,0.61,1.78c-0.49-1.34,0.37-0.63,0.45-1.3
						c0.07-0.64-0.78-1.66,0.18-1.74c0.71-0.06,0.22,0.86,0.12,1.25c-0.13,0.52,0.82,1.3,1.05,1.66c0.35-0.1,0.13-2.12,0.1-2.45
						c-0.05-0.67-0.44-2.16,0.25-2.35C189.37,152.8,189.25,152.68,188.89,151.96z"/>
					<path class="st2" d="M184.91,152.97c-0.41,0.01-0.97,0.23-1.19,0.7c-0.21,0.43,0.05,1.14-0.11,1.47
						c-0.08,0.13-0.42-0.24-0.89-0.64c-0.46-0.4-1.05-0.81-1.24-0.82c-0.54-0.05-1.12,0.25-1.5,0.4c-0.69,0.28-1.46,0.45-2.29,0.58
						c-0.38,0.06-0.79,0.06-1.16,0.08c0.02,0.55,0.14,1.18,1,2.15c0.07,0.08,0.88,0.53,1.6,0.95c0.71,0.43,1.32,0.78,1.04,0.94
						c-0.06,0.05-0.94-0.48-1.17-0.53c-0.35-0.06-0.59,0.1-0.73,0.35c-0.23,0.41-0.27,1.04-0.22,1.72c0.03,0.34,0.08,0.69,0.15,1.04
						l0.08,0.35l0.08,0.27c0.09,0.28,0.16,0.99,0.56,1.12c0.6,0.2,0.22-0.54,0.19-0.57c-0.1-0.1,1.03-0.02,1.14-0.04
						c0.55-0.1,1.34-0.18,1.85-0.35c0.51-0.17-0.08-0.54,0.22-0.68c0.5-0.24,0.67-0.31,0.41-0.74c-0.1-0.18-0.16-0.23-0.24-0.29
						c-0.08-0.06-0.17-0.12-0.28-0.17c-0.23-0.1-0.54-0.17-1.06-0.18c-0.34-0.01-1.05,0.1-0.67,0.5c0.44,0.21-0.65,0.23-0.72,0.21
						c-0.08-0.01-0.41-0.13-0.71-0.32c-0.29-0.19-0.55-0.46-0.45-0.62c0.07-0.1,0.82,0.29,0.96,0.28c0.48,0.02,0.93-0.18,1.25-0.34
						c0,0,0.18-0.33,0.43-0.48c0.25-0.16,0.57-0.14,0.77,0.11c0.07,0.07-0.26,0.22,0.03,0.37c0.25,0.06,0.64-0.69-0.72-0.97
						c-0.57-0.21-0.35-0.31-0.64-0.65c-0.44-0.55-0.27-0.23-0.75-0.51c0.11,0.06,0.63,0,1.02,0.07c0.29,0.11,0.52,0.2,0.59,0.23
						c0.85,0.33,0.94,0.11,1.28,0c0.55,0.22,0.35-0.09,0-0.54c-0.36-0.44-1.04-0.99-1.21-1.29c-0.09-0.16,0.28-0.2,0.4-0.2
						c0.23-0.01,0.47,0.5,0.52,0.59c0.35,0.5,0.87,1.18,1.08,0.68c0.23-0.47,0.28-1.31,0.59-1.86c0.54-0.15,0.28-0.81,0.72-1.07
						c0.16-0.1-0.11,1.6-0.1,1.77c0.02,0.43,0.14,1.3,0.53,1.47c0.6,0.26,0.71-0.63,0.43-1.13c-0.15-0.28-0.49-0.54-0.59-0.84
						c-0.11-0.33,0.2-0.29,0.32-0.19C186.34,155.08,185.64,152.95,184.91,152.97z"/>
					<path class="st2" d="M179.82,165.51C179.07,165.45,180.99,165.72,179.82,165.51L179.82,165.51z"/>
					<path class="st2" d="M180.07,164.6c0,0.33-0.71,0.07-0.89,0.29c-0.26,0.31,0.34,0.6,0.64,0.62c0.42,0.08,3.06,0.08,2.36-0.63
						c0.46-0.12,0.82-0.1,0.83,0.3c0.69-0.19-0.44-1.35-0.61-1.51c-0.65-0.59-1.55-0.93-2.68-0.61
						C177.72,163.64,180.09,163.79,180.07,164.6z"/>
					<path class="st2" d="M180.91,173.64c-0.3,0.08-0.33,0.11-0.26,0.33l0.08,0.24C180.94,174.04,181.04,173.83,180.91,173.64z"/>
					<path class="st2" d="M184.47,180.8c0.03,0,0.07,0,0.14,0.01c0.26,0.05,0.36,0.07,0.38,0.08c0.43,0.09,0.78,0.13,0.63-0.35
						c-0.1-0.31-1.38-0.03-1.54,0.18C184.05,180.76,184.3,180.78,184.47,180.8z"/>
					<path class="st2" d="M184.47,180.8c-0.2,0,0.58,0.11,0.52,0.09c-0.12-0.03-0.25-0.05-0.38-0.08
						C184.64,180.81,184.57,180.8,184.47,180.8z"/>
					<path class="st2" d="M186.67,180.35c0.1,0.31-0.17,0.62-0.06,0.97C187.5,181.65,186.73,180.57,186.67,180.35z"/>
					<path class="st2" d="M182.75,165.52c0.16,0.52-1.1,0.87-0.85,1.2c0.21,0.27,0.65,0.37,0.9,0.61c0,0,0.45,0.62,0.17,0.52
						c0.35,0.13,0.63,0.08,1.01-0.02c-0.69,0.19-1.13,0.4-1.74,0.73c0.53,0.19,1.94,0.41,1.72,1.04c-0.15,0.45-1.17,0.86-1.6,0.51
						c-0.08,0.02-0.42-0.17-0.34,0.09c-0.13,0.17,0.19,0.35,0.32,0.41c0.27,0.15,0.84,0.4,1.23,0.26c0.55-0.19,1.25-0.09,1.24,0.48
						c-0.01,0.37-1.21,0.53-1.47,0.88c-0.13,0.17,0.37,0.55,0.68,0.68c0.28-0.24,0.54-0.5,0.89-0.51c0.84-0.02,0.82,0.53,0.08,0.69
						c0.27-0.04,0.7,0.03,0.62,0.26c-0.09,0.27-0.72,0.47-1,0.57c-0.99,0.36-2.04,0.6-3.06,0.87c0.73-0.2,1.73,0.4,2.3,0.08
						c0.28-0.15,0.55-0.59,0.95-0.6c0.42-0.01-0.1,0.61-0.17,0.67c-0.43,0.38-1.85,0.79-1.42,1.34c0.24,0.3,1.46-1.01,1.56-1.11
						c1.01-1.04,0.79,0.23,0.91,0.61c0.11,0.34,0.76,0.69,0.51,1.1c-0.12,0.19-0.86,0.35-1.09,0.46c-0.32,0.14-1.72,0.72-1.66,1.08
						c0.04,0.24,1.86-0.61,1.86-0.47c0,0.06-0.4,0.29-0.11,0.4c0.18,0.06,0.74-0.3,1.04-0.31c1.16-0.03,0.07,0.74-0.46,0.88
						c0.52-0.14,1.5-0.12,0.68,0.37c-0.74,0.44-2.31,1.2-3.16,1.28c-0.03,0,0.63,0.41,0.65,0.42c0.49,0.22,0.98,0.29,1.55,0.37
						c1.12-0.79-0.22,1.05-0.23,1.02c0.01,0.03,1.35-0.91,1.01-0.09c-0.12,0.28,0.67,0.48,0.75,0.74c0.09,0.29-0.63,0.62-0.55,0.87
						c-0.1-0.32,2.28-0.77,1.65,0.14c-0.36,0.52-1.83,0.87-2.5,1.24c0.39,0.07,0.78,0.14,1.16,0.21c0.24,0.09,0.86,0.29,1.17,0.11
						c0.04-0.02-0.21-0.43-0.12-0.58c0.36-0.58,0.62,1.17,0.62,1.17c0.07,0.23,0.49,1.06-0.2,1.07c-2.21,0.02,1.09,1.28,0.7,1.96
						c-0.21,0.37-1.51,0.56-1.9,0.67c-0.76,0.2-1.91,0.63-2.51,0.15c-0.52-0.42-0.17-0.48,0.52-0.67c0.48-0.13,0.72-1.12,0.92-1.04
						c-0.56-0.21-1.34-0.04-1.97,0.01c0.32-0.09,2.98-0.92,2.12-1.01c-0.73-0.08-1.62,0.25-2.15-0.11c-0.4-0.27-1.14-1.3-0.14-1.47
						c-0.82,0.28-0.5-0.5-0.14-0.75c0.11-0.1,1.07-0.95,0.36-0.87c-0.58,0.07-1.32,0.14-1.07-0.52c0.27-0.74-0.19-0.34-0.38-0.95
						c0.71-0.9-0.61-2.43-0.79-3.28c-0.06-0.28-0.17-0.74,0.13-1.01c0.14-0.13,0.92-0.16,0.93-0.09c-0.07-0.21-0.94-0.35-1.16-0.52
						c-0.39-0.3-0.11-0.82,0.07-1.19c1-0.71-0.07-0.33-0.41-0.49c-0.18-0.09-0.28-0.4-0.27-0.56c0.01-0.25,0.5-0.09,0.56-0.12
						c0.07-0.04-0.92-0.5-0.9-0.7c0.05-0.59,0.87-1.25,1.21-1.78c0.55-0.85-0.99-0.06-1.38,0.02c-0.78,0.18,0.18-0.91-0.4-0.94
						c1.15-0.28-0.49-1.4-0.11-1.55c0.55-0.2,1.14-0.08,1.44-0.7l0.42-0.86c-0.5,0.27-1.06,0.51-1.53,0.8
						c-0.1,0.06-0.57,0.46-0.65,0.36c-0.18-0.2-0.05-0.31,0.23-0.38c-0.01-0.14-0.36-0.64-0.13-0.75c0.45-0.21,0.55-0.24,0.42-0.65
						c-0.18-0.15-0.62-0.36-0.15-0.49c-0.41-0.73-0.02-0.23-0.9-0.25c0.27,0.01-0.16-1.65,1.19-1.15c0.56-0.15,0.83-0.55,1.35-0.36
						l0.67-0.18C182.42,165.63,182.44,165.6,182.75,165.52z M182.52,172.95c-0.14,0.42,0.56,0.4,0.93,0.3
						c0.19-0.05,0.35-0.16,0.5-0.28C183.45,172.91,182.86,172.51,182.52,172.95z"/>
					<path class="st2" d="M187.2,194.07c-0.36,0.03-0.77,0.2-0.84,0.48C186.48,194.91,187.83,194.02,187.2,194.07z"/>
					<path class="st2" d="M185.54,192.58c0.3,0.18,0.7,0.05,1.05,0.33c0.64,0.52-0.2,0.29-0.6,0.43c-0.25,0.09-1.2,0.85-0.51,0.87
						c0.52,0.01,1.24-0.29,1.75-0.42c0.91-1.16,0.84,0.4,0.81,0.42c0.24-0.14,0.63-0.28,1.03-0.38c0.12,0.02,0.2,0.04,0.27,0.05
						c0.37,0.07,0.94,0.15,1.08-0.09c0.27-0.47-0.34-0.49-0.75-0.38c-0.11,0.03-1.44,0.24-1.04-0.17c0.31-0.32,1.02-0.23,1.33-0.58
						c0.3-0.33-0.06-0.61-0.26-0.82c-0.39-0.39-0.4-0.96-0.61-1.42c-0.32-0.68-1.86-0.16-2.49,0.12
						C185.76,190.91,184.56,192.01,185.54,192.58z"/>
					<path class="st2" d="M189.33,193.88c-0.12-0.02-0.22-0.04-0.27-0.05C188.76,193.9,189.93,194.01,189.33,193.88z"/>
					<path class="st2" d="M190.74,201.53c0.43,0.17,1.73-0.27,1.24-0.48C191.64,200.89,190.63,201.16,190.74,201.53z"/>
					<path class="st2" d="M190.53,203.17c0.62,0.5,1.91-0.44,1.57-0.82C191.78,202,189.74,202.88,190.53,203.17z"/>
					<path class="st2" d="M190.53,203.17C190.11,203.01,191.02,203.56,190.53,203.17L190.53,203.17z"/>
					<path class="st2" d="M197.05,227.47c0.85,0.32,1.41-0.58,0.5-0.59C197,226.87,196.37,227.22,197.05,227.47z"/>
					<path class="st2" d="M195.26,239.27l0.08,0.24C195.88,239.9,196.39,238.96,195.26,239.27z"/>
					<path class="st2" d="M185.63,195.26c0.24,0.19,1.26,0.91,0.31,0.91c-0.68,0.01-0.27,0.84-0.2,1.07
						c0.23,0.76,0.41,1.61,0.95,2.26c0.57,0.67-0.06,1.45,0.19,2.17c0.22,0.62,1.92,0.19,0.89,0.92c-0.7,0.19,0.31,1.36,0.12,1.39
						c-0.65,0.08,0.13,1.75,0.26,2.17c0.22,0.72-0.04,1.1,0.2,1.82c0.05-0.15,0.26-0.55,0.56-0.49c0.3,0.07,0.24,0.7,0.3,0.88
						c0.1,0.31,0.35-0.06,0.46,0.3c0.08,0.25-0.18,0.57-0.52,0.67l-0.15-0.49c-0.56,0.62-0.47,0.93-0.07,1.46
						c0.4,0.53-0.27,0.6-0.12,1.05c0.2,0.59,0.96,0.63,1.42,1.03c0.41,0.35-0.48,0.77-0.67,1.11c-0.48,0.86,0.76,1.47,0.72,2.37
						c-0.02,0.51-0.09,0.52,0.54,0.28c0.41-0.16,0.06,0.96,0.11,1.16c0.2,0.82,0.5,0.67-0.5,1.18c-0.33,0.17,0.59,0.64,0.76,0.67
						c0.75,0.11,0.96-0.28,1.17,0.38c-0.2,0.61,0.35,0.35,0.75,0.06c0.33-0.09,2.14-0.74,2.27-0.34c0.13,0.43-1.57,0.61-1.85,0.65
						c-0.22,0.03-1.35,0.22-1.43-0.03c-0.65,0.05-1.73,0.57-0.52,0.67c-0.23,0.43-0.59,0.43-0.45,0.91c0.49,0.18,0.61,0.72,0.71,1.1
						c0.16,0.66-0.17,1.11,0.4,1.69c0.19,0.2,0.43,0.4,0.74,0.4c-0.55,0.19-1.1,0.55-1.11,1c0,0.09,1.73-0.38,1.95-0.44
						c-0.77,0.21-1.6,0.52-1.48,1.21c0.08,0.44,0.15,1.37,0.83,1.34c-0.38,0.21-0.5,0.64-0.49,0.98c0.02,0.55,0.24,0.3,0.7,0.28
						c0.03,0-0.5,0.73-0.48,0.85c0.04,0.27,1.08,0.37,1.35,0.44c0.16,0.04,0.82,0.18,0.71-0.15c-0.1-0.31,0.21-0.49,0.16-0.67
						c0.15,0.48,0.22,0.87-0.17,1.36c-0.34,0.43-0.97,0.11-1.23,0.39c-0.34,0.36,0.96,0.41,1.12,0.47c0.33,0.12-0.38,0.74-0.48,0.88
						c-0.53,0.68-0.44,1.61,0.64,1.52c0.18-0.02,0.12,1.42-0.47,1.2c0.27,0.1,0.86-0.03,0.95,0.27c0.11,0.34-0.28,0.66-0.4,0.98
						c-0.19,0.48,1.02-0.13,1.26-0.19c-0.31,0.08-0.12,0.56-0.66,0.7c-0.15,0.04-1.07,0.28-0.94,0.53c0.1,0.1,0.24,0.14,0.42,0.14
						l0.15,0.49c-0.07,0.09,0.08,0.16,0.15,0.2c0.51,0.23,1.27,0.29,1.89,0.28c0.41-0.01,0.92-0.36,1.03,0.02
						c-0.55,0.15-1.14,0.26-1.67,0.46c-0.42,0.15-0.15,0.32-0.32,0.53c-0.17,0.22-0.81,0.15-0.82,0.44c0,0.11,0.05,0.57,0.26,0.56
						c0.32-0.03,0.85-0.67,1.18-0.57c0.36,0.13,0.01,0.54-0.19,0.69c-0.74,0.6-0.98,0.23-0.7,1.12c0.52,1.89,1.49,0.5,2.51-0.14
						c0.53-0.43,1.28-0.59,1.95-0.79c1.38-0.37-0.7-0.48-0.72-0.56c-0.02-0.06,1.06-0.32,1.17-0.35c-0.09-0.3-0.72-0.02-1-0.29
						c-0.43-0.42-0.43-1-0.8-1.46c-0.16-0.21-0.77-0.71-0.12-0.89c0.23-0.06,1-0.31,1.09-0.03c-0.18-0.59-0.23-1.36-0.68-1.85
						c-0.38-0.42-1.5,0.07-2.03,0.21c0.56-0.15,0.08-0.53,0.01-0.68c-0.07-0.15,0.77-0.32,0.77-0.32c0.39-0.1,1.91-0.92,0.89-1.13
						c-0.61-0.12-1.09,0.47-1.56,0.68c-0.38,0.17-0.97-0.47-0.66-0.62c0.06-0.03,0.71,0.09,0.72-0.16c0.01-0.23-0.5-0.4-0.16-0.73
						c0.23-0.22,0.43-0.32,0.76-0.41c-0.53,0.14-3.38,1.17-2.87-0.06c0.12-0.3,3.4-0.74,3.27-0.93c-0.29-0.43-1.71-0.02-2.08-0.15
						c0.19,0.07,1.21-0.81,1.29-0.96c0.37-0.76-1.13,0.53-0.92,0.45c-0.29,0.12-0.37-0.53-0.51-0.49c-0.47,0.12-0.34-0.08-0.45-0.41
						c0.28-0.2,1.65-0.82,1.42-0.12c0.56-0.08,1.36-0.96,0.63-1.11c-0.5-0.1-1.8,0.53-2.17,0.17c-0.03-0.03,1.6-0.22,1.56-0.57
						c-0.08-0.68-1.48-0.21-1.98-0.07c-0.13-0.42,0.56-0.24,0.51-0.67c-0.04-0.33-0.1-0.56,0.03-0.9c0.13-0.35,0.32-0.8,0.68-1.08
						c0.27-0.21,0.63-0.25,0.47-0.61c-0.1-0.22-0.45-0.42-0.27-0.72c0.2-0.05,0.26-0.12,0.18-0.21c-0.16-0.36-0.5-0.46-0.8-0.73
						c-0.2-0.18-0.95-0.66-0.72-0.95c0.08-0.1,0.81-0.18,0.81-0.18c-0.14-0.05-1.42-0.18-1.49-0.09c0.29-0.38-0.57-0.6-0.42-0.78
						c0.28-0.35,1.15-0.47,1.6-0.59c-0.34,0.09-0.49,0.09-0.78-0.02c0.58,0.21,0.65-1.26,0.65-1.4c-0.02-0.49,0.29-1.36-0.55-0.77
						c-1.11,0.3-0.48-0.28-1.58-0.37c-0.15-0.01-0.84-0.16-0.61-0.4c0.2-0.22,0.55,0.03,0.73-0.05c0.44-0.21-0.66-0.64-0.06-0.87
						c0.44-0.17,0.86-0.08,0.87-0.43c0.01-0.27,0.65-0.21,0.49-0.73c-0.32-0.26-0.51-0.37-0.23-0.73c-0.44,0.12-2.15,0.37-2.29,0.76
						c-0.19,0.56-1.64,0.84-1.08,0.14c1.2-0.85-0.76-0.15-0.79-0.79c-0.01-0.31,0.39-0.44,0.73-0.5c0.56-0.1,0.31,0.48,0.63,0.46
						c0.09-0.01,1.93-1.06,1.97-0.93c-0.05-0.16-1.48,0.04-1.06-0.32c0.24-0.2,0.45-0.33,0.6-0.58c-0.45,0.12-0.79-0.78-0.5-0.91
						c0.38-0.17,1.1-0.16,1.13-0.57c-0.54,0.15-0.26-0.39-0.59-0.36c-0.22,0.02-0.64,0.13-0.79,0.28c-0.01,0.11-0.04,0.22-0.12,0.32
						c-0.48,0.06-1.84-0.4-2.26-0.55c0.4-0.08,1.02-0.32,1.27-0.6c-0.16-0.51,0.52-0.51,0.51-0.74c-0.01-0.39-2.36,0.09-2.45-0.78
						c0.24,0.59,2.05-0.05,2.62-0.29c0.75-0.31,0.11-0.51-0.41-0.37c0.51-0.14,2.27-0.69,0.99-0.79c-1.98,0.05,0.27-0.34-0.36-0.76
						c-0.82-0.56-1.31,0.08-1.14,0.64c0.15,0.47-1.45,0.23-1.76,0.21c0.35-0.31,0.7-0.72,1.12-0.98c0.4-0.25,0.89-0.28,1.3-0.5
						c0.29-0.16,0.49-0.61,0.71-0.67l-1.28,0.34c0,0,0.95-0.55,1.02-0.61c0.33-0.31-0.23-0.51-0.52-0.57
						c0.22-0.06,0.34-1.36,0.39-1.36c-0.89-0.13-1.76,0.72-2.58,0.79c-0.26,0.02-0.34-0.39-0.33-0.52c0-0.14,0.42-0.16,0.53-0.3
						c0.46-0.58-0.86-0.41-1.05-0.51c-0.12-0.06-0.42-0.73-0.3-0.76c0.19-0.05,0.85,0.51,1.39,0.39c0.22-0.05,1.54-0.8,1.58-0.78
						c-0.26-0.09-2.07,0.02-2.38,0.1c-0.43-0.16-0.21-0.73,0.22-0.85c0.47-0.12,1.92-0.59,1.56-1.12c-0.16-0.23-0.49-0.38-0.38-0.7
						c0.06-0.19,0.45-0.07,0.48-0.14c0.15-0.37-1.41-0.62-1.67-0.77c-0.16-0.1,0.43-0.87,0.52-1.07c-0.07-0.21,0.65-0.79-0.26-0.69
						c-0.62,0.07-1.28,0.43-1.47-0.17c0.73-0.19,2.69-0.37,1.87-1.03c-0.19-0.6-2.34,0.54-2.9,0.26c-0.13-0.06,2.04-0.96,2.14-0.81
						c-0.22-0.34-2.21,0.18-2.7,0.09C186.37,194.81,184.76,194.57,185.63,195.26z"/>
					<path class="st2" d="M208.07,241.54c0.1-0.23,0.19-1.1-0.24-1.02C207.51,240.61,207.66,241.65,208.07,241.54z"/>
					<path class="st2" d="M213.02,244.88C212.85,245.29,213.43,244.4,213.02,244.88L213.02,244.88z"/>
					<path class="st2" d="M200.16,241.92c-0.06-0.15-1.43,0.51-1.43,0.74c0,0,0.54,0.88-0.2,0.92c-0.26-0.02-0.04-0.47-0.4-0.38
						c-0.66,0.11-1.31,1.01-1.39,1.99c-0.09,0.93,0.18,2.23,0.54,2.82c0.2-0.08,0.38-0.16,0.55-0.25c0.28-0.15,0.69-0.65,1.05-1.04
						c0.37-0.39,0.66-0.65,0.88-0.36c0.18,0.21-0.34,0.87-0.17,1.14c0.2,0.27,1.11-0.04,1.52-0.15c0.83-0.23,0.76-0.66,1.32-0.97
						c0.28-0.16,0.48-0.18,0.7-0.16c0.15,0.03,0.29,0.12,0.46,0.17c0.37,0.11,2.3,0.43,2.07-0.56c-0.04-0.15-0.26-1.38,0.1-1
						c0.33,0.35,0.26,0.83,0.5,1.2c-0.14-0.21,0.27-1.08,0.75-0.16c0.22,0.43,0.2-0.38,0.41-0.44c0.44-0.12,0.78,0.5,1.2,0.53
						c0.25,0.02,0.08-0.72,0.39-0.58c0.47,0.22,0.76,0.57,1.27,0.43c0.26-0.07,0.41-0.66,0.46-0.67c0.4-0.11,0.83,0.13,1.27,0.01
						c0.41-0.11,0.77,0.24,0.98-0.27c0.15-0.12,0.24-0.3,0.27-0.53c-0.01-0.05-0.37,0.24-0.54,0.07c-0.25-0.24-0.47-0.56-0.68-0.87
						c-0.36-0.52-0.89-1.2-1.09-1.85c-0.12-0.41-0.32-0.81-0.64-0.99c-0.28-0.16-0.19,0.81-0.22,0.96c-0.17,0.7-0.59-0.35-0.84-0.15
						c-0.08,0.06-0.14,0.49-0.04,0.57c-0.26-0.22-0.53-0.78-0.88-0.78c0,0-0.27,2.12-0.44,2.38c-0.65,0.95-0.35-0.74-0.58-0.68
						c-0.08,0.02-0.16,0.71-0.37,0.85c-0.19,0.13-0.34-0.22-0.44-0.41c-0.22-0.43-0.44-0.87-0.66-1.3c-0.07,0.16-0.59,1.57-0.68,1.5
						c-0.59-0.5,0.38-1.76,0.14-2.03c-0.29-0.34-1.34,1.43-1.62,0.26l0.35,1.49c-0.5,0.14-0.32-1.19-0.95-0.61
						c-0.31,0.29-0.41,0.4-0.28,0.95c-0.15,0.19-0.6,0.17-0.79,0.23c0.37-0.1,0.46-0.52,0.4-0.8c-0.07-0.28-0.17-0.45-0.42-0.02
						c-0.17,0.25-0.18-0.42-0.24-0.46c-0.19-0.08-0.45,0.37-0.73,0.46c-0.12,0.03,0.01-0.65-0.14-0.56
						c-0.03-0.02-0.11,0.06-0.28,0.28c-0.23,0.28-0.81,1.32-0.94,1.42c-0.16,0.08,0.13-0.83-0.19-0.5c-0.08,0.07-0.2,0.48-0.35,0.54
						c-0.08,0.03,0.11-0.55,0.38-1.05c0.26-0.52,0.6-0.96,0.73-1.05c0.06,0.13-0.51,1.36,0.48,0.16c0.03-0.07,0.12-0.66,0.1-0.69
						c-0.05-0.09-0.26-0.15,0.21-0.39c-0.05-0.05,0-0.08-0.24-0.07c-0.28,0-0.48,0.1-0.59,0.28
						C200.12,241.64,200.1,241.86,200.16,241.92z"/>
					<path class="st2" d="M228.89,237.96C228.97,238.3,229.14,237.89,228.89,237.96L228.89,237.96z"/>
					<path class="st2" d="M212.44,240.7c0.29-0.01,1.57,0.65,0.85,0.85c-0.59-0.5-0.46,1.9-0.74,1.23c-0.16-0.39-0.3-0.94-0.73-0.82
						c-0.11,0.03-0.37,0.11-0.31,0.36c0.25,1.07,1.38,0.81,1.83,1.3c0.31,0.34,0.28,1.37,0.75,1.31c0.33-0.04,0.68-0.15,0.98-0.3
						c0.31-0.15,0.68-0.77,1.08-0.51c0.26,0.17,0.32,0.28,0.54-0.26c-0.14,0.04,0.65-0.29,0.53,0c0.04-0.09,0.16-0.79,0.17-0.78
						c0.17,0.14-0.09,1,0.23,1.11c0.15,0.06,0.54-0.47,0.61-0.57c0.25-0.32,0.33-1.25-0.22-0.85c-0.17-0.73,0.4-0.06,0.48-0.45
						c0.05-0.21-0.47-1.18-0.41-1.2c0.5-0.14,0.55,1.37,0.81,1.69c0.25,0.31,0.57,0.56,0.87,0.73c0.19,0.11,1.8,0.24,1.78,0.28
						c0.02-0.05-0.42-0.99-0.44-1.19c0.53-0.15,0.52,0.8,0.91,0.82c0.47,0.03,0.66-0.47,0.88-0.89c0.22-0.42,0.4-0.34,0.33,0.21
						c0.1,0.45,0.63,0.19,0.81,0.14c0.19-0.05,0.87-0.1,0.91-0.46c0.02-0.16-0.02-0.97,0.24-0.63c0.72,0.93,0.92,0.79,0.57-0.47
						c0.43-0.12,0.29,0.77,0.48,0.95c0.25-0.07,0.83,0.36,1.02,0.23c0.2-0.14-0.65-1.68,0.31-1.21c0.5,0.25,0.32,0.89,0.96,0.71
						c0.41-0.11,0.11-0.78,0.5-1.22c0.04-0.1,0.25-1.13,0.08-1.18c-0.21-0.06-1.23-0.09-1.22-0.81c0-0.53,1.16-0.22,1.01-0.87
						c0.27-0.07,0.1-0.82-0.02-1.28c0.05,0.28,0.04,0.58-0.05,0.8c0.2-0.49-0.78-0.83-1.03-0.71c-0.47,0.22-0.85,0.81-1.1,1.36
						c-0.21,0.47-0.04,1.5-0.66,0.98c-0.45-0.68-0.8-0.24-0.71,0.37c-0.19-0.37-0.63-0.71-0.86-0.66c0.32-0.04,0.91-0.85,0.27-0.78
						c-0.34,0.03-0.72-0.18-1.05-0.08c-0.31,0.09,0.19,2.39-0.5,1.88c-0.62-0.46-0.22-2.55-1.36-1.67
						c-0.37,0.28,0.01,0.85,0.12,1.31c0.12,0.5-0.21,0.6,0,1.13c-0.36,0.1-0.5-1.02-0.56-1.29c0.05-0.43-0.06-0.88-0.25-1.25
						c-0.15-0.29-0.35,0.14-0.33,0.34c0.08,0.56,0.79,1.32,0.17,1.81c-0.24,0.19-0.53,0.04-0.74-0.22c0.3-0.08,0.52-1.25,0.15-1.27
						c-0.06,0-0.27,0.45-0.4,0.15c-0.16-0.37-0.2-0.2-0.55-0.1c-0.37,0.1-0.22-0.41-0.59-0.34c-0.21,0.04-2.3,1.19-1.99,1.46
						c-0.13-0.11-0.07-0.43-0.21-0.56c-0.19-0.18-0.56,0-0.72,0.05c-0.43,0.12-0.9-0.18-1.29,0.01c-0.23,0.11-0.17,1.22-0.43,0.88
						c-0.17-0.22-0.83-0.78-0.73-0.19c-0.28-0.6-1.37,0.14-1.74-0.05c-0.61-0.31-0.58,1.43-0.17,1.78
						C211.17,241.48,212.27,240.7,212.44,240.7z"/>
					<path class="st2" d="M228.79,236.36c0.02,0.06,0.05,0.18,0.08,0.32C228.85,236.57,228.82,236.46,228.79,236.36z"/>
					<path class="st2" d="M234.2,237.22l0.25-0.07c-0.16-0.22-0.38-0.33-0.57-0.2C233.95,237.25,233.98,237.28,234.2,237.22z"/>
					<path class="st2" d="M236.33,236.27l0.25-0.07C236.24,234.74,235.7,236.44,236.33,236.27z"/>
					<path class="st2" d="M230.14,241.93c0.45,0.01,0.8-0.01,1.2-0.26c0.15-0.09,0.58-0.78,0.71-0.25c0.06-0.33,0.77-0.68,0.78-0.48
						c0.01,0.17-0.27,0.43-0.36,0.39c0.53,0.21,1.35-0.1,1.86-0.2c0.61-0.12,1.6-0.1,1.6-1.02c0-0.17,0.36,0.31,0.37,0.5
						c0.41-1,1.47,0.05,1.97-0.19c0.34-0.16,0.09-2.16,0.09-3.02c-0.01,0.02-0.02-0.04,0.01-0.25c0.17-0.41,0.03-0.98-0.07-1.43
						c-0.27,0.07-0.17,0.72-0.36,0.94c-0.39,0.45-0.47-0.42-0.66-0.66c-0.17-0.21-0.59,0.93-0.68,1.05
						c-0.26,0.36-0.5,0.11-0.72,0.27c0.04-0.03,0.1,1.8-0.28,1.22c-0.15-0.22-0.49-1.58-0.16-1.67c0.14-1.29-0.1-1.78-1.01-1.26
						c-0.18,0.1-1.7,0.6-1.68,0.91c0.14,0.59,0.87,0.11,1.19,0.12c0.64,0.02,0.71,0.36,0.48,0.93c-0.15,0.36,0.98,0.61,0.8,1.03
						c-0.07,0.17-0.69-0.26-0.75-0.27c-0.29-0.09-0.47,0.23-0.65,0.22c-0.24-0.02-0.1-0.76-0.51-0.72c-0.27,0.03-0.23,0.3-0.51,0.17
						c-0.24-0.11-1.13-1.38-1.27-1.28c-0.05,0.04,0.09,0.74,0.07,0.83c-0.08,0.43-0.32,0.44-0.4,0.89
						c-0.06,0.31-0.07,1.27-0.19,1.45c-0.17,0.27-0.54-0.47-0.56-0.43c-0.02,0.06,0.33,1.01,0.35,1.22
						c0.03,0.32-0.09,0.58-0.03,0.87c-0.14-0.59-0.23-1.28-0.62-1.71c0,0-0.21-0.13-0.37-0.29c-0.16-0.17-0.27-0.38-0.04-0.53
						c0.19-0.13,0.38,0.2,0.62-0.11c0.2-0.25,0.32-0.61,0.4-0.96c0.03-0.13,0.06-1.79-0.21-1.72c-0.18,0.05-0.1,1.46-0.11,1.66
						c-0.19-0.23-0.94-1.37-1.18-1.3c-0.27,0.07,0.16,1.38,0.2,1.57c0.19-0.05-0.06,0.89-0.05,1.07
						C229.43,239.77,229.44,241.93,230.14,241.93z"/>
					<path class="st2" d="M238.36,237.16c-0.01,0.06-0.01,0.15-0.01,0.25C238.39,237.37,238.48,236.87,238.36,237.16z"/>
					<path class="st2" d="M238.51,238.55c0.72,0.12,0.48,0.32,0.72,1.21c0.15,0.58,0.65,0.24,0.94,0.15
						c0.74-0.25,2.23-0.51,1.77-1.93c0.54-0.15,0.12,0.73,0.48,0.95c0.54-0.15,0.22-1.45,0.05-1.9c-0.25-0.66-0.97-0.95-0.74,0.07
						c-0.08-0.34-1.37-2.73-1.56-2.25c0.23,0.99,0.77,3.04-0.27,3.33c-0.07-0.29-0.09-0.59-0.1-0.9c0.02,0,0.04,0.01,0.06,0.01
						c-0.01,0-0.03,0-0.06-0.02c-0.03-0.63,0-1.28-0.19-1.92c-0.28-0.97-0.29,1.3,0.06,1.83c-0.35-0.28-0.99-1-0.88-0.44
						c0.09,0.44,0.15,0.89-0.04,1.28C238.75,238.02,238.33,238.52,238.51,238.55z"/>
					<path class="st2" d="M243.2,234.37c-0.39-0.56-0.53-0.04-0.41,0.48l0.25-0.07C243.11,234.68,243.15,234.5,243.2,234.37z"/>
				</g>
			</g>
		</g>
		<g>
			<g>
				<g>
					<path class="st2" d="M252.38,278.51c-0.52,0.14-0.29,0.41,0.16,0.35l-0.05-0.12L252.38,278.51z"/>
					<path class="st2" d="M252.28,278.28c0.04-0.01,0.06,0,0.1,0C252.42,278.25,251.91,278.16,252.28,278.28z"/>
					<path class="st2" d="M252.37,278.27c-0.01,0-0.03,0.01-0.1,0c-0.73-0.22-1.01,0.57,0.27,0.05
						C252.55,278.28,252.48,278.27,252.37,278.27z"/>
					<path class="st2" d="M232.59,260.87C232.5,262.68,233.26,260.79,232.59,260.87L232.59,260.87z"/>
					<path class="st2" d="M225.26,262.11c-0.08,0.01-0.14,0.05-0.2,0.13c-0.03,0.23,0.36,0.34,0.4,0.33
						C225.55,262.54,225.36,262.07,225.26,262.11z"/>
					<path class="st2" d="M247.55,268.45c0.09-0.09,0.17-0.19,0.25-0.28C247.69,268.28,247.59,268.39,247.55,268.45z"/>
					<path class="st2" d="M256.7,278.13c0.34-0.28,0.09-0.37-0.26-0.45c-0.28-0.07,0.08-0.09,0.16-0.16
						c-0.05,0.03-1.74,0.24-1.32-0.01c0.46-0.28,1.1-0.41,1.68-0.58c0.45-0.13,1.02-0.59,0.49-0.65c-0.53,0.17-0.64,0.45-1.27,0.57
						c-0.15-0.36,0.92-0.52,0.82-0.76c-0.08-0.18-0.41-0.06-0.73,0.08c-0.16-0.3,0.81-0.5,0.74-0.77c-0.06-0.27-0.11-0.18,0.07-0.42
						c0.3-0.41-0.34-0.33-0.79-0.15c-0.51,0.19-0.64,0.19-0.76-0.03c0.43-0.18,0.84-0.32,1.25-0.48c0.57-0.22-0.3-0.24-0.44-0.21
						c-0.2-0.1-0.2-0.4-0.31-0.55c-0.05-0.06-0.66-0.16-0.65-0.1c-0.01-0.18,1.89-1.42,0.32-1.01c-0.43,0.23-0.23-0.11-0.18-0.27
						c0.26-0.36-0.04-0.47-0.37-0.53c-0.68-0.26-0.15-0.33,0.02-0.93c0.19-0.68-1.01,0.05-1.53,0.39c0.22-0.15,0.22-0.33,0.6-0.58
						c0.19-0.12,0.27-0.27,0.29-0.39c0.08-0.5-0.39-0.83-0.53-1.22c-0.14-0.34-0.25-0.95-0.62-1.11c-0.23-0.1-0.86,0.65-1.1,0.85
						c0.21-0.18,0.03-0.27,0.19-0.51c0.11-0.15,0.24-0.29,0.4-0.42c0.14-0.15-0.15-0.28-0.2-0.33c0.15,0.14-0.33,0.05-0.37,0.01
						c-0.2-0.19-0.16-0.59-0.44-0.7c-0.26-0.11-1.06,0.63-1.06,0.14c0-0.46,0.42-1.58-0.13-1.63c-0.23-0.02-1.31,0.7-0.51-0.24
						c-0.16,0.04-0.32,0.15-0.47,0.3c1.06-1.41-0.29-1.58-0.87-1.93c-0.13-0.12-1.07-0.8-1.38-0.33c-0.18-0.04-0.13-0.25-0.24-0.39
						c-0.19-0.23-0.47-0.34-0.73-0.47c-0.41-0.21-0.58-0.63-1.02-0.8c-0.11-0.04-0.4-0.27-0.61,0.14c-0.08,0.34-0.29,0.45-0.42,0.4
						c-0.15-0.06-0.25-0.28-0.17-0.62c-0.12-0.2-0.44-0.06-0.55-0.31c-0.03-0.08,0.05-0.89-0.2-0.32c-0.14,0.32-0.43,0.6-0.58,0.56
						c0.06-0.18,0.42-0.81,0.42-0.84c-0.02-0.32-0.97,0.23-1.14,0.25c-0.22,0.02-0.33-0.31-0.5-0.5c-0.16-0.18-0.41-0.89-0.74-0.23
						c-0.2,0.4-0.32,0.68-0.54,1.06c-0.04-0.36,0.01-1-0.07-1.29c-0.14-0.52-0.47,1.05-0.53,1.19c-0.38-0.06,0.23-1.54,0.16-1.95
						c-0.09-0.51-0.59,0.12-0.78,0.09c-0.19-0.04-0.65-0.53-0.75-0.11l-0.08,0.34c-0.12,0.01-0.24,0.12-0.35,0.33
						c-0.05,0.09-0.26,0.83-0.26,0.83c-0.16-0.01,0.21-1.87,0.01-2.16c-0.24-0.35-0.87-0.16-1.19-0.19c-0.38-0.06-1.3-0.68-1.54,0.4
						c-0.02-0.77-0.96-0.39-1.2-0.47c-0.06-0.02-0.45-0.59-0.47-0.3c-0.23,0.38,0.15,0.93,0.1,1.17c-0.19,0.94-0.82-1.34-1.03-1.16
						c0,0.01-0.04,0.58-0.08,1.12c-0.04,0.54-0.09,1.05-0.14,0.93c-0.12-0.28,0.13-2.84-0.47-2.1c-0.33,0.41-0.78-0.01-1.05,0.65
						c-0.2,0.21-0.68,0.78-0.9,0.5c-0.03-0.69-0.7-1.28-0.64-0.44c-0.13-1.88-1.32-0.87-1.01,0.76c-0.14-0.41-0.24-0.92-0.39-1.3
						c-0.21-0.52-0.45-0.29-0.69-0.22c-0.23,0.07-1-0.16-0.77,0.55c-0.25-0.35-0.58-0.35-0.84-0.28c-0.48,0.14-0.35,0.43-0.2,1.32
						c-0.26,0.08-0.48-1.03-0.73-1.23c0.07,0.35,0,0.74-0.15,0.79c-0.23-1.33-0.71-0.84-1.13-0.68c-0.27,0.1-0.18,1.64-0.14,2.09
						c0.04,0.48,0.26,1.05,0.29,1.48c0.03,0.39-0.2-0.06-0.25-0.22c-0.19-0.6-0.27-1.28-0.37-1.88c0.01,0.08-0.13-1.11-0.2-0.99
						c-0.05,0.08-0.14,0.25-0.28,0.26c-0.02-0.15-0.07-0.25-0.14-0.31c-0.09-0.01-0.34,0.03-0.3,0.29c0.04,0.17,0.81,2.3,0.74,2.25
						c-0.29-0.22-1.16-1.78-1.01-0.39c0.37,0.38,0.4,1.2,0.73,1.65c0.26,0.37,0.34-1.18,0.57-0.62c0.15,0.38,0.12,0.81,0.44,1.21
						c0.14,0.47,0.33-0.14,0.43-0.18c0.29-0.12,0.01-1.28-0.07-1.9c-0.05-0.37-0.13-0.88,0.02-1.04c0.06-0.06,0.4-0.27,0.47,0.02
						c0.06,0.25-0.23,0.76-0.25,0.98c-0.04,0.45,0.04,0.78,0.17,1.28c-0.21-0.81,0.24-0.59,0.32-1.1c0.27-0.11,0.21,0.19,0.44,0.41
						c0.19,0.19,0.38-0.02,0.55-0.04c0.17-0.03,0.16,0.35,0.29,0.62c0.18,0.38,0.42,0.3,0.6,0.37c0.1,0.04,0.84,0.43,0.71-0.1
						c-0.23-0.86-0.15-1.17,0.27-1.05c0.27,0.08,0.35,1.15,0.5,0.45c0.16-0.75,0.51,0.57,0.55,0.02c0.03-0.33-0.12-2.31-0.17-2.32
						c0.2,0.05,0.26,1.18,0.36,1.5c0.14,0.47,0.42,0.37,0.46,0.95c-0.11,0.02-0.01,0.35,0.03,0.35c0.15-0.03,0.05-0.3,0.11-0.38
						c-0.03-0.45,0.27-0.44,0.39-0.43c0-0.04-0.38-1.07-0.05-0.92c0.41,0.18,0.2,1.53,0.39,1.8c0.28,0.42,0.48-0.41,0.49-1
						c0.01-0.59,0.03-0.43,0.28-0.45c-0.04-0.05,0.37,0.31,0.34,0.01c-0.05-0.51-0.17-0.86,0.23-0.42c0.3,0.7-0.28,0.68-0.27,1.43
						c0.33-0.18,0.27,0.67,0.59,0.08c0.19-0.34,0.72,0.11,0.67-0.83c-0.03,0.46,0.16,0.62,0.31,0.27c0.15-0.36,0.17-0.79,0.27-1.2
						c0.21-0.79,0.28,0.48,0.28,0.75c0.02,0.38-0.03,1.59,0.24,1.34c0.16-0.14,0.64-0.69,0.46,0.28c0.11-0.67,0.32-2.64,0.7-1.82
						c0.2,0.43-0.17,2.01,0.3,1.44c0.07-0.09,0.46-0.92,0.52-0.72c0.08,0.25-0.04,0.78,0.02,1.02c0.05,0.23,0.25-0.23,0.41-0.22
						c0.22,0.01,0.19-0.7,0.34-0.92c0.24-0.33,0.45,0,0.73-0.49c0.05-0.1,0.54-0.92,0.39-0.23c0.1,0.46,0.32,0.75,0.6,0.76
						c0.23,0.01,0.42-0.33,0.66-0.42c0.28-0.11-0.57,1.62-0.46,2.02c0.09,0.36,0.46-0.77,0.52-0.9c0.09-0.19,0.4-0.46,0.3-0.11
						c0.05-0.16,0.28-1.32,0.34-1.28c0.24,0.17-0.4,2.01-0.54,2.51c0.26,0.04,0.37-0.99,0.71-0.94c-0.46,1.11,0.31,0.35,0.34,0.66
						c0.02,0.27-0.26,0.66-0.07,0.76c0.13,0.07,0.2-0.08,0.35-0.12c0.28-0.08,0.32,0.28,0.48,0.32l0.75,0.18
						c0-0.31,0.25-0.98,0.53-1.17c0.34-0.24,0.05,0.73,0.02,0.95c-0.22,0.51-0.02,0.88,0.24,0.71c0.3-0.19,0.16-0.79,0.18-1.01
						c0.03-0.32,0.99-0.41,0.67,0.27c-0.63,1.3,1.02-0.74,1.15-0.7c-0.14,0.26-0.59,1-0.42,1.1c0.05,0.03,0.96-0.05,0.46,0.38
						c0.09,0.12,0.79-0.24,0.54,0.2c-0.11,0.19-0.24,0.96-0.05,0.69c0.33-0.44,0.45-1.53,0.35-1.7c-0.03-0.05,0.44-0.4,0.5-0.38
						c0.18,0.04-0.09,0.67-0.19,0.91l-0.46,1.32c0.2-0.16,0.41-0.33,0.62-0.48c0.64-0.69,0.3-0.14,0.19,0.35
						c-0.29,1.19,1.47-0.08,0.83,1.16c-0.08,0.14,0.94-0.77,0.71-0.3c-0.04,0.1-0.85,1.26-0.37,0.92c0.26-0.18,0.65-0.9,0.86-0.78
						c0.08,0.05-0.06,0.63-0.13,0.67c0.01,0,0.11-0.6-0.2-0.15c-0.23,0.33-0.07,0.64,0.04,0.71c0.05,0.03,0.27,0.29,0.47-0.02
						c0.24-0.35,0.61-0.94,0.41-1.06c0.1-0.2,0.43-0.54,0.59-0.62c0.29-0.14,0.07,0.4,0.02,0.58c-0.13,0.48-0.43,1.11-0.88,1.66
						c0.21-0.23,0.48-0.47,0.56-0.42c0.08,0.06-0.33,0.6-0.39,0.77c-0.17,0.42,0.39,0.31,0.65,0.29c0.37-0.02,0.61-0.04,1.13-0.26
						c0.13-0.1,0.77-0.53,0.63-0.22c-0.09,0.21-1.27,1.16-1.32,1.16c0.18,0.02,0.93-0.53,1-0.47c-0.06-0.05-0.44,0.54-0.45,0.64
						c-0.02,0.16,0.14,0.42,0.5,0.1c0.21,0,0.76,0.27,1.06,0.03c0.62,0.19-0.14,0.53-0.37,1.11c-0.19,0.45,0.86-0.19,0.57-0.47
						c0.21,0.18,1.08,0.16,1.77-0.33c-0.44,0.32-0.84,0.45-1.3,0.83c-0.26,0.22-0.39,0.42-0.63,0.61c0.78-0.52,1-0.34,1.19,0.06
						c0.18,0.37-0.44,0.79-0.7,1.25c0.5-0.31,0.78,0.46,0.91,0.54c0.19,0.12,0.89-0.25,0.94-0.03c0.05,0.19-1.46,2.01-0.05,1.34
						c0.04,0.17-0.82,0.91-0.3,0.79c0.61-0.13,0.89-0.18,1.43-0.18c-0.61,0.15-1.16,0.29-1.75,0.42c0.65-0.03,1.3-0.04,1.97-0.03
						c-0.16,0.02-1.58,0.33-1.54,0.36c0.36,0.24,1.64-0.23,2.26-0.47c0.12,0.23-1.35,0.65-1.67,0.78c-0.65,0.25,0.12,0.16-0.13,0.44
						c-0.12,0.13-0.6,0.21-0.36,0.31c0.19,0.09,0.68,0.01,0.6,0.23c-0.05,0.14-0.06,0.33-0.16,0.48c-0.08,0.14-0.97,0.84-0.65,0.88
						c-0.05-0.01,1.06-0.17,1.1-0.18c0.88-0.11,1.08-0.13,0.93,0.24c-0.07,0.15,0.47,0.1,0.68,0.16
						C255.71,278.73,256.44,278.35,256.7,278.13z"/>
					<path class="st2" d="M251.21,271.53c-0.09,0.06-0.18,0.12-0.28,0.2C251.04,271.67,251.13,271.6,251.21,271.53z"/>
					<path class="st2" d="M220.13,262.86c-0.2-0.04-0.48-0.02-0.12,0.49c0.31,0.44,0.57,0.18,0.75,0.07l-0.51-0.52
						C220.16,262.85,220.13,262.85,220.13,262.86z"/>
					<path class="st2" d="M220.27,259.22c-0.51-0.44-0.2,0.51-0.62,0.1c-0.57-0.25-0.55,0.9-0.84,1.25
						c-0.28-0.65-0.49-0.65-0.65-0.31c-0.14,0.31,0.05,0.81,0.06,1.24c-0.02-0.83-1.66-1.9-0.62-0.59c0.48,0.4-0.07,0.54-0.36,0.21
						c-0.4-0.44-0.54-0.87-0.91-0.65c-0.68-0.19,0.65,1.41,0.76,1.58c0.21,0.31,0.83,2.31,1.21,2.37c0.23,0.04-0.09-0.71,0.31-0.42
						c0.19,0.13,0.68,0.81,0.64,0.38c-0.17-0.37-0.58-0.9-0.68-1.21c-0.08-0.24-0.09-0.38-0.15-0.56c0.27,0.48,0.75,1.21,0.66,0.58
						c-0.04-0.31-0.38-1.37-0.51-1.65l0.86,1.91c0.21-0.13-0.32-0.82-0.19-1.05c0.17-0.29,0.41-0.05,0.65-0.1
						c0.32-0.06,0.53-0.36,0.96,0.04c0.11,0.1,0.49,0.62,0.57,0.58c-0.07,0.04-0.45-0.94-0.5-1.11c0.27-0.14,0.52,0.6,0.68,1.06
						c-0.14-0.4-0.05-0.81,0.06-0.98c0.16-0.26,0.14-0.36-0.14-1C221.19,260.16,220.68,259.58,220.27,259.22z"/>
					<path class="st2" d="M216.32,260.46C216.59,260.28,215.89,260.32,216.32,260.46L216.32,260.46z"/>
					<path class="st2" d="M215.96,261.14c-0.68-0.48,0.24,1.08,0.42,1.41c-0.08-0.16-1.27-1.84-1.25-1.38
						c0.02,0.38,0.61,0.89,0.4,1.13c-0.13,0.15-0.3,0.36-0.51,0.35c-0.09,0-0.18-0.35-0.28-0.49c-0.39-0.52-0.67-0.21-0.34,0.33
						c-0.42-0.35,0.11,0.91-0.36,0.62c-0.29-0.17-0.46-0.79-0.46-1.03c-0.32,0.28,0.2,1.25,0.5,1.87c-0.41-0.45-0.74-0.79-1.1-1.33
						c0.19,0.47,0.83,2.04,0.63,2.22c-0.32-0.46-1.18-1.53-1.31-0.98c-0.07,0.32,1.1,0.6,1.04,1.15c-0.06,0.69-0.97-1.05-1.14-0.79
						c-0.08,0.12,0.39,0.88-0.08,0.56c0.02,0.01-0.37-0.36-0.38-0.38c0.06,0.22,0.22,0.49,0.4,0.71c-0.54-0.67-0.8-0.78-1.31-0.93
						c-0.25-0.07-0.05,0.24,0.15,0.5c-0.32-0.31-0.68-0.42-0.86-0.29c-0.2,0.13,0.05,0.53,0.07,0.82c0.02,0.26,0.03,0.58-0.1,0.71
						c-0.1,0.11-0.59-0.53-0.72-0.67c-0.05,0.23,0.06,0.56,0.18,0.88c0.09,0.13,0.15,0.19,0.18,0.23c0.72,0.9,1.28,1.11,2.1,1.94
						c0.83,0.85,0.62,0.14,0.92-0.03c0.22-0.13,0.95-0.03,0.72-0.62c-0.26-0.68-0.65-0.85-1.09-1.08c0.07-0.08-0.68-1.68-0.78-1.8
						c0.26,0.29,0.43,0.7,0.71,1.02c0.14,0.16,0.47,0.35,0.47,0.35c0.2,0.26,0.67,1.32,0.84,1.13c0.17-0.23,1.59,0,0.74-1.17
						c0.09,0.13,0.48-0.19,0.54-0.28c0.13-0.18,0.56,0.34,0.79,0.31c0.27-0.03,0.5-0.2,0.51-0.6c0.02-0.83,0.5,0.27,0.78,0.05
						c-0.42-0.64-0.64-0.52-0.91-1.34c-0.09-0.27-0.34-1.36,0.09-1.01c0.62,0.52,0.71,1.56,1.04,2.18c0.14-0.11,0.82-0.27,0.62-0.8
						c-0.17-0.47-0.98-1.6-0.93-1.96C216.96,262.05,216.51,261.53,215.96,261.14z"/>
					<path class="st2" d="M211.21,268.48c0.03,0.37,0.44,0.56,0.57,0.39C211.95,268.64,211.34,268.3,211.21,268.48z"/>
					<path class="st2" d="M208.67,267.24l-0.09,0.12C208.68,267.88,209.53,268.04,208.67,267.24z"/>
					<path class="st2" d="M209.77,268.67c-0.69-0.51-1.58-1.04-2.25-1.64c-0.09,0.23,0.09,0.98,0.44,1.38
						c0.47,0.53,0.3-0.42,0.42-0.27c0.26,0.33,0.22,0.84-0.21,0.66c-0.41-0.18-0.85-0.76-1.25-0.74c-1.37,0.11,1,0.93,0.97,1.2
						c-0.02,0.29-1.52-0.68-1.8-0.55c-0.47,0.21-0.6,0.23,0.23,0.83c-0.16,0.3-0.7-0.1-1.07,0.03c-0.25,0.08-0.51,0.48,0.13,0.85
						c-1.06-0.72-0.63,1.1-1.18,1.25c0,0.01-0.02,0.02-0.11,0.01c0.36,0.21,1.47,0.69,2.21,0.95c0.53,0.32,0.57,0.05,0.81,0.16
						c0.13,0.06,1.17,0.64,0.82,0.23c-0.2-0.24-0.53-0.27-0.44-0.44c0.05-0.1,0.1-0.2,0.14-0.31c0.04-0.22-0.71-0.68-0.9-1.01
						c-0.53-0.89,1.44,1.04,1.41,1.01c0.15,0.08-0.57-0.87-0.11-0.72c0.5,0.17,1.15,0.65,1.21,0.26c0.02-0.09-0.14-0.85-0.54-0.93
						c-0.09-0.02,0,0.52-0.12,0.39c-0.41-0.41-0.03-0.94,0.25-0.96c0.14-0.01,0.26,0.18,0.31,0.29c0.15,0.33,0.17,0.29,0.62,0.64
						c-0.2-0.38-0.57-0.82-0.86-1.24c0.18,0.15,1.35,1.15,1.23,0.83c-0.1-0.27-0.59-0.68-0.61-0.94c-0.01-0.09,0.35,0.12,0.44,0.13
						c0.52,0.04-1.23-1.36,0.33-0.31c0.72,0.36,1.03,0.42,0.67-0.32c-0.37-0.78,1.03,0.51,0.62-0.14c-0.45-0.72-1.26-1.77-1.89-2.46
						C208.27,265.28,209.49,268.16,209.77,268.67z"/>
					<path class="st2" d="M204.09,271.67c0.04,0,0.08,0,0.11-0.01C204.19,271.62,203.85,271.53,204.09,271.67z"/>
					<path class="st2" d="M204.07,280.48c-0.01,0.25,0.83,0.57,1.02,0.33C205.11,280.6,204.09,280.18,204.07,280.48z"/>
					<path class="st2" d="M204.44,282.97c0.31-0.36-0.37-0.6-0.34-0.11C204.17,282.93,204.29,282.97,204.44,282.97z"/>
					<path class="st2" d="M206.49,273.06c-0.18-0.09-0.51-0.4-0.65-0.42c-0.53-0.05,0.45,0.62-0.64-0.02
						c-0.37-0.23-1.4-0.36-1.03,0.05c0.25,0.27,0.72,0.59,1.04,0.86c-0.38-0.21-1.24-0.72-1.43-0.51c-0.14,0.15,0.18,0.91-0.6,0.53
						c0.47,0.23,1,0.5,0.97,0.81c-0.22-0.1-1.4-0.73-1.47-0.5c-0.02,0.06,0.78,0.77,0.88,0.92c0.6,0.89-0.92-0.24-1.09-0.07
						c-0.07,0.07,0.25,0.65,0.3,0.78c0.07,0.2,0.66,0.4,0.93,0.5c-0.08,0.28-1.04-0.32-1.23-0.37c-0.15-0.04-0.27,0.34-0.57,0.32
						c-0.5-0.03-0.4-0.04-0.14,0.35c0.17,0.25,0.08,0.43-0.19,0.52c-0.11,0.04-1.02,0.01-0.61,0.23c0.19,0.1,0.98,0.25,1.02,0.4
						c0.05,0.17-0.43,0.14-0.7,0.06c-1.09-0.3,0.22,0.54,0.42,0.5c-0.12,0.09-0.85-0.06-0.9,0.22c-0.06,0.33,0.44,0.12,0.7,0.28
						c0.27,0.15-0.97,0.36-1.03,0.39c-0.2,0.1,0.39,0.36,0.5,0.56c0.25,0.44,0.38,0.71,1,1.11c0.24,0.15,0.72,0.42,0.35,0.53
						c-0.37,0.1-1.4,0.09-1.39,0.29c0.01,0.32-0.49,0.21-0.83,0.34c-0.85,0.37,1.36,0.94-0.16,1.22c0.75-0.01,1.36,0.17,1.07,0.53
						c-0.25,0.3-1.35,0.42-1.33,0.63c0.04,0.26,1.95-0.4,2.13-0.4c1.02-0.06,1.4,0.31,2.24,0.43c0.34,0.05,0.44-0.11,0.46-0.29
						c0.03-0.18-0.02-0.39-0.03-0.44c-0.07-0.4-1.22,0.15-1.6-0.01c0.22,0.1,0.54,0.14,0.85,0.16c-0.44-0.01-0.93-0.03-1.23-0.16
						c-0.48-0.21,0.19-0.32,0.58-0.3c0.6-0.04,1.42-0.24,0.33-0.4c-0.37-0.06-1.53-0.15-1.29-0.47c0.19-0.25,1.57,0.13,1.94,0.14
						c0.53,0.02,0.33-0.42,0.32-0.55c-0.01-0.51,0.59-0.78-1.01-1.02c0.57-0.14-0.24-0.32-0.23-0.59c0-0.06,0.77,0.07,0.78-0.09
						c0.01-0.14-1.93-0.55-1.05-0.83c0.17-0.06,1.01-0.18,1.3,0.03c0.31,0.21-0.4,0.19-0.51,0.26c-0.19,0.11,0.09,0.28,0.44,0.36
						c0.52,0.11,0.38,0.16,0.33,0.35c0.67,0.13,1.03-0.33,0.37-0.48c0.01-0.26,0.57-0.23,0.52-0.54c-0.04-0.25-0.35-0.64-1.06-0.71
						c-0.33-0.03-0.76,0.04-0.99-0.07c-0.21-0.09-1.09-0.93-0.76-0.82c0.53,0.19,1.02,0.27,1.58,0.34c0.58,0.07,0.89,0.11,0.99-0.12
						c0.1-0.21,0.73-0.07,0.85-0.22c-0.18,0.23-4.76-1.95-0.73-0.45c0.7,0.26,1.02,0.13,0.68-0.24c-0.08-0.09-0.47-0.33-0.83-0.56
						c-0.18-0.11-0.36-0.22-0.49-0.3c-0.13-0.08-0.21-0.14-0.21-0.14c0.02-0.09,1.99,0.92,2.06,0.67c-0.51-0.22-2.22-0.76-2.19-1.15
						c0.03-0.41,1.55,0.55,1.91,0.53c0.18-0.01,0.13-0.23,0.18-0.31c0.09-0.14,0.39,0.09,0.52,0.03c0.09-0.05-0.09-0.36-0.29-0.67
						c-0.21-0.3-0.43-0.62-0.43-0.62c0.21,0.08,0.55,0.51,0.86,0.46c0.15-0.02,0.06-0.21-0.03-0.34c-0.12-0.16-1.1-1.06-0.96-1.14
						c0.24-0.13,1.21,0.51,1.56,0.55c0.49,0.07-0.02-0.44-0.39-0.66C206.68,273.01,206.92,273.28,206.49,273.06z"/>
					<path class="st2" d="M202.06,284.01c-0.55-0.01-1.38,0.24-1.02,0.48c-0.01,0.01,0.02,0.03,0.11,0.06l1.66-0.03
						c-0.29,0-0.55-0.04-0.77-0.13C202.35,284.51,203.49,284.02,202.06,284.01z"/>
					<path class="st2" d="M203.77,285.62c0.21,0.07,1.05,0.15,1.04-0.07C204.78,285.38,203.73,285.39,203.77,285.62z"/>
					<path class="st2" d="M199.21,284.94c-0.04,0.01,0.59,0.25,0.62,0.31c0.1,0.23-0.28,0.39-0.18,0.65
						c0.09,0.21,0.29,0.41,0.6,0.55c0.14,0.07,0.69,0.03,0.69,0.03c0.01,0.03-0.93,0.31-0.76,0.37c0.37,0.1,1.32-0.01,1.74-0.03
						l2.42-0.29c-0.06-0.2-1.77-0.13-1.65-0.29c0.13-0.15,1.92,0.05,1.84-0.28c-1.41,0.22-0.55-0.22-1.2-0.3
						c-0.61-0.09-1.77,0.36-1.69-0.22c0.06-0.43,0.89-0.05,1.25,0.02c0.48,0.1,1.42-0.36,1.82-0.45c-0.03-0.18-2.07-0.26-2.4-0.28
						c-0.67-0.04-2.2,0.03-2.27-0.43C200.12,284.73,199.98,284.79,199.21,284.94z"/>
					<path class="st2" d="M199.66,287.65c-0.03,0.28,0.14,0.65,0.58,0.78c0.41,0.12,1.13-0.07,1.43,0c0.23,0.04-1.64,0.78-1.69,0.92
						c-0.1,0.19,0.13,0.38,0.25,0.52c0.22,0.24,0.31,0.52,0.36,0.82c0.06,0.39-0.37,0.82,0.62,0.9c0.11,0.01,2.7-0.69,2.22-0.24
						c-0.06,0.06-0.82,0.15-1.01,0.23c-0.3,0.13-0.52,0.3-0.66,0.48c-0.46,0.57-0.33,1.14-0.1,1.57c0.09,0.17,0.17,0.64,0.57,0.61
						c0.58-0.03,0.18-0.41,0.16-0.43c-0.1-0.04,0.98-0.27,1.08-0.32c0.52-0.2,1.26-0.47,1.74-0.71c0.48-0.24-0.06-0.3,0.22-0.46
						c0.47-0.27,0.64-0.35,0.4-0.53c-0.33-0.24-0.57-0.37-1.51-0.03c-0.31,0.11-0.97,0.4-0.62,0.5c0.4,0-0.61,0.3-0.68,0.32
						c-0.15,0.04-1.22,0.14-1.02-0.08c0.07-0.07,0.74-0.15,0.86-0.19c0.44-0.15,0.86-0.4,1.15-0.63c0,0,0.16-0.28,0.37-0.51
						c0.21-0.23,0.47-0.42,0.67-0.29c0.07,0.04-0.21,0.31,0.07,0.32c0.24-0.01,0.43-1.08-0.69-0.44c-0.49,0.16-0.3-0.03-0.53-0.12
						c-0.35-0.13-0.22,0-0.62,0.1c0.14-0.04,1.04-0.78,1.14-0.85c0.41-0.36,0.14-0.6,0.02-0.87c0.47-0.69-1.34,0.23-1.99,0.33
						c-0.18,0.02-0.18-0.14-0.18-0.2c0.01-0.1,0.55-0.19,0.64-0.21c0.55-0.13,1.25-0.4,0.76-0.58c-0.44-0.17-1.26-0.11-1.77-0.29
						c-0.09-0.33-0.77-0.15-0.98-0.42c-0.08-0.1,1.57,0.05,1.73,0.03c0.43-0.02,1.29-0.13,1.51-0.35c0.33-0.33-0.54-0.38-1.07-0.22
						c-0.29,0.09-0.59,0.29-0.89,0.36c-0.34,0.07-0.27-0.12-0.15-0.19C201.9,286.77,199.71,287.15,199.66,287.65z"/>
					<path class="st2" d="M203.29,295.54C202.59,295.75,204.39,295.29,203.29,295.54L203.29,295.54z"/>
					<path class="st2" d="M203.45,294.87c0.02,0.21-0.65,0.26-0.81,0.47c-0.22,0.29,0.37,0.29,0.65,0.2
						c0.4-0.08,2.82-1.01,2.13-1.19c0.42-0.23,0.75-0.34,0.77-0.11c0.63-0.35-0.47-0.62-0.64-0.66c-0.63-0.13-1.51-0.08-2.57,0.43
						C201.14,294.93,203.41,294.37,203.45,294.87z"/>
					<path class="st2" d="M205.62,300.23c-0.24,0.21-0.25,0.24-0.14,0.35l0.12,0.11C205.74,300.47,205.78,300.28,205.62,300.23z"/>
					<path class="st2" d="M210.4,302.21c0.02-0.02,0.05-0.04,0.1-0.09c0.2-0.15,0.28-0.2,0.29-0.21c0.33-0.24,0.59-0.47,0.35-0.61
						c-0.16-0.09-1,0.91-1.05,1.14C210.08,302.48,210.27,302.32,210.4,302.21z"/>
					<path class="st2" d="M210.4,302.21c-0.14,0.13,0.45-0.33,0.4-0.31c-0.1,0.07-0.2,0.14-0.29,0.21
						C210.52,302.11,210.47,302.15,210.4,302.21z"/>
					<path class="st2" d="M211.83,300.5c0.15,0.09,0.05,0.43,0.23,0.53C212.76,300.57,211.94,300.56,211.83,300.5z"/>
					<path class="st2" d="M205.98,294.53c0.18,0.24-0.96,0.93-0.68,1.03c0.22,0.08,0.63-0.03,0.88,0c0,0,0.48,0.17,0.21,0.23
						c0.33-0.07,0.57-0.22,0.9-0.44c-0.6,0.4-0.96,0.7-1.46,1.16c0.5-0.1,1.76-0.61,1.64-0.16c-0.08,0.33-0.9,1.05-1.32,1.04
						c-0.07,0.05-0.39,0.09-0.28,0.21c-0.09,0.16,0.21,0.13,0.33,0.11c0.26-0.04,0.8-0.17,1.12-0.44c0.44-0.38,1.06-0.66,1.13-0.35
						c0.05,0.2-0.93,0.9-1.08,1.23c-0.07,0.16,0.41,0.12,0.69,0.03c0.19-0.29,0.36-0.57,0.65-0.75c0.69-0.46,0.76-0.15,0.18,0.33
						c0.22-0.17,0.57-0.36,0.55-0.2c-0.03,0.19-0.5,0.65-0.71,0.86c-0.74,0.75-1.54,1.47-2.31,2.19c0.54-0.5,1.51-0.73,1.9-1.24
						c0.19-0.24,0.31-0.63,0.64-0.86c0.34-0.25,0.05,0.38,0.01,0.45c-0.26,0.45-1.29,1.5-0.8,1.56c0.26,0.02,0.9-1.42,0.97-1.52
						c0.58-1.13,0.68-0.34,0.85-0.21c0.16,0.12,0.74-0.11,0.63,0.26c-0.05,0.17-0.57,0.72-0.72,0.92c-0.21,0.27-1.13,1.47-0.98,1.63
						c0.1,0.11,1.24-1.51,1.28-1.43c0.02,0.03-0.23,0.41,0.01,0.29c0.15-0.08,0.48-0.64,0.7-0.83c0.85-0.76,0.24,0.31-0.11,0.74
						c0.35-0.41,1.07-1.06,0.6-0.27c-0.43,0.71-1.33,2.16-1.92,2.77c-0.02,0.02,0.59-0.2,0.61-0.21c0.42-0.21,0.79-0.51,1.21-0.86
						c0.55-1.18,0.15,0.7,0.15,0.7s0.17-0.35,0.33-0.63c0.16-0.27,0.32-0.46,0.32-0.13c0,0.23,0.61-0.25,0.74-0.19
						c0.15,0.07-0.22,0.75-0.08,0.82c-0.17-0.08,1.25-2.04,1.12-1.16c-0.07,0.51-0.89,1.78-1.19,2.47c0.27-0.26,0.54-0.52,0.81-0.77
						c0.18-0.14,0.63-0.51,0.77-0.84c0.02-0.04-0.27-0.05-0.26-0.19c0.04-0.55,0.76,0.08,0.76,0.08c0.12,0.04,0.66,0.07,0.26,0.62
						c-1.29,1.76,1.1-0.3,1.1,0.3c0.02,0.33-0.62,1.48-0.79,1.84c-0.34,0.71-0.79,1.85-1.35,2.1c-0.48,0.21-0.31-0.1,0.01-0.74
						c0.22-0.45-0.05-1.1,0.1-1.22c-0.41,0.35-0.81,1.04-1.17,1.56c0.15-0.3,1.41-2.77,0.86-2.13c-0.47,0.54-0.89,1.38-1.37,1.62
						c-0.36,0.17-1.26,0.17-0.68-0.66c-0.42,0.75-0.53,0.11-0.39-0.28c0.03-0.14,0.35-1.27-0.09-0.71c-0.36,0.45-0.83,1.02-0.93,0.5
						c-0.1-0.58-0.27-0.03-0.62-0.25c0.18-0.99-1.28-0.96-1.73-1.33c-0.15-0.11-0.36-0.34-0.22-0.68c0.07-0.16,0.66-0.65,0.69-0.63
						c-0.11-0.08-0.82,0.37-1.04,0.4c-0.39,0.05-0.33-0.42-0.29-0.75c0.6-0.99-0.15-0.15-0.47-0.05c-0.17,0.05-0.34-0.08-0.38-0.18
						c-0.06-0.15,0.38-0.33,0.42-0.38c0.05-0.06-0.89,0.22-0.92,0.07c-0.1-0.4,0.43-1.25,0.61-1.74c0.29-0.79-0.85,0.46-1.16,0.72
						c-0.63,0.5-0.06-0.66-0.56-0.39c0.92-0.71-0.74-0.65-0.41-0.93c0.45-0.37,0.98-0.56,1.15-1.08l0.25-0.71
						c-0.4,0.38-0.86,0.77-1.23,1.16c-0.08,0.08-0.42,0.54-0.51,0.52c-0.19-0.06-0.09-0.18,0.14-0.35
						c-0.03-0.09-0.42-0.26-0.23-0.43c0.37-0.32,0.45-0.38,0.28-0.58c-0.19-0.02-0.62,0.01-0.21-0.25
						c-0.49-0.31-0.06-0.13-0.86,0.19c0.22-0.09-0.35-1.03,0.95-1.18c0.5-0.3,0.72-0.64,1.2-0.71l0.6-0.35
						C205.69,294.71,205.71,294.69,205.98,294.53z M206.82,298.98c-0.03,0.32,0.55-0.06,0.83-0.31c0.14-0.13,0.26-0.28,0.36-0.43
						C207.59,298.47,207.02,298.55,206.82,298.98z"/>
					<path class="st2" d="M217.22,306.43c-0.16,0.32-0.28,0.74-0.18,0.92C217.26,307.41,217.49,305.86,217.22,306.43z"/>
					<path class="st2" d="M215.69,307.2c0.24-0.18,0.39-0.56,0.69-0.74c0.56-0.32,0.03,0.29-0.1,0.69
						c-0.09,0.25-0.19,1.39,0.16,0.81c0.26-0.44,0.47-1.18,0.66-1.67c-0.07-1.26,0.58-0.55,0.57-0.52c0.05-0.26,0.18-0.66,0.32-1.04
						c0.07-0.09,0.11-0.16,0.15-0.21c0.2-0.29,0.49-0.75,0.46-0.97c-0.06-0.42-0.35,0.1-0.5,0.49c-0.04,0.11-0.59,1.34-0.57,0.82
						c0.02-0.4,0.4-0.96,0.41-1.38c0.01-0.39-0.27-0.19-0.45-0.1c-0.35,0.18-0.58-0.05-0.87-0.05c-0.42-0.04-1.07,1.45-1.29,2.1
						C215.03,306.28,214.9,307.76,215.69,307.2z"/>
					<path class="st2" d="M218.15,304.52c-0.07,0.09-0.12,0.17-0.15,0.21C217.89,305.02,218.48,304.06,218.15,304.52z"/>
					<path class="st2" d="M222.18,306c0.22-0.35,0.42-1.69,0.17-1.31C222.18,304.96,221.96,305.98,222.18,306z"/>
					<path class="st2" d="M222.92,306.74c0.43-0.41,0.34-1.93,0.07-1.73C222.73,305.19,222.53,307.37,222.92,306.74z"/>
					<path class="st2" d="M222.92,306.74C222.72,307.08,223.26,306.41,222.92,306.74L222.92,306.74z"/>
					<path class="st2" d="M236.66,304.72c0.02-0.81-0.58-1.39-0.42-0.51C236.33,304.74,236.64,305.36,236.66,304.72z"/>
					<path class="st2" d="M244.33,306.01l0.13-0.1C244.51,305.37,243.72,305.01,244.33,306.01z"/>
					<path class="st2" d="M217.03,308.29c0.21-0.11,1.04-0.74,0.61,0.1c-0.31,0.6,0.32,0.57,0.46,0.59c0.5,0.09,1.03,0.28,1.58,0.04
						c0.57-0.26,0.76,0.56,1.26,0.58c0.42,0.01,0.76-1.7,0.81-0.51c-0.13,0.72,0.85,0.18,0.8,0.36c-0.16,0.64,1.04,0.39,1.31,0.39
						c0.47,0,0.63,0.36,1.11,0.34c-0.08-0.09-0.26-0.41-0.15-0.68c0.11-0.27,0.46-0.02,0.58-0.03c0.2-0.02,0.04-0.35,0.27-0.37
						c0.16-0.02,0.29,0.31,0.28,0.67l-0.32,0.03c0.25,0.69,0.46,0.68,0.85,0.42c0.39-0.26,0.31,0.41,0.62,0.36
						c0.4-0.06,0.54-0.78,0.84-1.13c0.26-0.31,0.4,0.63,0.59,0.88c0.48,0.64,0.99-0.47,1.54-0.26c0.31,0.12,0.32,0.18,0.21-0.48
						c-0.07-0.43,0.59,0.12,0.72,0.11c0.51-0.08,0.43-0.41,0.72,0.66c0.1,0.35,0.42-0.5,0.43-0.66c0.07-0.72-0.16-0.99,0.24-1.1
						c0.37,0.27,0.21-0.29,0.03-0.73c-0.06-0.34-0.46-2.21-0.24-2.28c0.23-0.07,0.39,1.63,0.41,1.9c0.02,0.22,0.16,1.36,0,1.4
						c0.03,0.65,0.37,1.77,0.42,0.6c0.27,0.28,0.29,0.64,0.59,0.55c0.1-0.46,0.44-0.5,0.68-0.58c0.4-0.11,0.72,0.25,1.05-0.27
						c0.11-0.17,0.22-0.39,0.18-0.7c0.17,0.56,0.46,1.12,0.76,1.16c0.06,0.01-0.44-1.71-0.5-1.94c0.21,0.77,0.51,1.61,0.94,1.53
						c0.28-0.03,0.87-0.11,0.74-0.77c0.19,0.38,0.49,0.5,0.71,0.49c0.35-0.01,0.15-0.23,0.06-0.67c-0.01-0.03,0.56,0.5,0.64,0.48
						c0.17-0.04,0.03-1.04,0.02-1.29c0-0.16-0.06-0.78-0.24-0.69c-0.17,0.09-0.35-0.21-0.45-0.16c0.27-0.13,0.49-0.19,0.88,0.19
						c0.35,0.33,0.28,0.93,0.52,1.18c0.31,0.32,0.04-0.94,0.04-1.09c0-0.32,0.55,0.34,0.67,0.43c0.56,0.48,1.16,0.35,0.8-0.67
						c-0.06-0.17,0.87-0.17,0.91,0.39c-0.01-0.26-0.27-0.8-0.11-0.9c0.18-0.13,0.5,0.2,0.74,0.29c0.37,0.13-0.41-0.94-0.53-1.16
						c0.15,0.28,0.38,0.07,0.65,0.55c0.08,0.14,0.53,0.97,0.65,0.83c0.03-0.1,0.01-0.24-0.05-0.41l0.26-0.19
						c0.08,0.06,0.08-0.09,0.07-0.16c-0.04-0.5-0.27-1.19-0.52-1.75c-0.16-0.37-0.56-0.8-0.38-0.94c0.3,0.49,0.59,1.01,0.91,1.47
						c0.25,0.36,0.25,0.11,0.46,0.24c0.2,0.13,0.4,0.72,0.6,0.7c0.07-0.01,0.34-0.13,0.25-0.32c-0.15-0.28-0.75-0.67-0.82-0.98
						c-0.06-0.34,0.32-0.08,0.49,0.07c0.67,0.58,0.54,0.85,0.98,0.46c0.57-0.51-0.38-1.37-1.17-2.21c-0.46-0.43-0.9-1.05-1.3-1.62
						c-0.8-1.18,0.04,0.67,0,0.7c-0.02,0.02-0.62-0.91-0.69-1c-0.12,0.11,0.3,0.65,0.27,0.93c-0.05,0.45-0.39,0.48-0.51,0.84
						c-0.06,0.16-0.13,0.75-0.46,0.17c-0.12-0.2-0.54-0.89-0.42-0.99c-0.26,0.2-0.67,0.29-0.78,0.73c-0.1,0.38,0.54,1.39,0.8,1.87
						c-0.27-0.51-0.34-0.03-0.4,0.04c-0.07,0.07-0.43-0.71-0.43-0.71c-0.19-0.36-1.12-1.76-0.92-0.81c0.11,0.57,0.6,1.01,0.86,1.44
						c0.22,0.35,0,0.92-0.18,0.63c-0.03-0.06-0.15-0.67-0.3-0.67c-0.13,0-0.09,0.48-0.38,0.16c-0.19-0.21-0.31-0.4-0.45-0.72
						c0.22,0.51,1.62,3.17,0.72,2.73c-0.21-0.11-1.31-3.22-1.38-3.1c-0.16,0.28,0.43,1.63,0.44,1.99c-0.01-0.18-0.76-1.14-0.86-1.22
						c-0.53-0.38,0.57,1.1,0.48,0.88c0.14,0.29-0.23,0.35-0.18,0.48c0.18,0.45,0.03,0.33-0.15,0.42c-0.18-0.27-0.83-1.61-0.38-1.37
						c-0.17-0.54-0.84-1.34-0.77-0.64c0.04,0.47,0.67,1.75,0.53,2.09c0,0.01-0.03-0.09-0.08-0.23c-0.05-0.14-0.11-0.34-0.17-0.53
						c-0.13-0.39-0.29-0.78-0.39-0.76c-0.37,0.05,0.16,1.43,0.33,1.91c-0.23,0.11-0.25-0.55-0.49-0.51
						c-0.19,0.03-0.31,0.08-0.53-0.06c-0.22-0.13-0.51-0.35-0.72-0.72c-0.16-0.28-0.23-0.63-0.41-0.51
						c-0.11,0.08-0.18,0.4-0.37,0.19c-0.05-0.2-0.1-0.26-0.14-0.2c-0.18,0.12-0.2,0.45-0.32,0.72c-0.08,0.18-0.29,0.88-0.47,0.62
						c-0.06-0.08-0.17-0.81-0.17-0.81c-0.01,0.13,0.01,1.38,0.06,1.46c-0.23-0.32-0.31,0.51-0.43,0.34
						c-0.22-0.32-0.33-1.19-0.42-1.64c0.07,0.34,0.07,0.49,0.03,0.76c0.09-0.54-0.73-0.81-0.8-0.83c-0.27-0.05-0.74-0.48-0.41,0.43
						c0.17,1.14-0.15,0.43-0.2,1.5c-0.01,0.15-0.1,0.81-0.24,0.55c-0.12-0.23,0.03-0.54-0.02-0.73c-0.11-0.47-0.38,0.57-0.5-0.06
						c-0.08-0.46-0.02-0.86-0.21-0.93c-0.15-0.06-0.09-0.68-0.38-0.62c-0.15,0.26-0.22,0.43-0.4,0.09c0.04,0.45,0.07,2.18,0.29,2.39
						c0.31,0.29,0.4,1.76,0.01,1.09c-0.42-1.34-0.14,0.72-0.54,0.62c-0.19-0.05-0.23-0.47-0.23-0.81c-0.01-0.57,0.31-0.22,0.32-0.53
						c0-0.09-0.45-2.1-0.37-2.11c-0.09,0.02-0.1,1.47-0.26,0.98c-0.09-0.27-0.14-0.5-0.26-0.69c0.02,0.47-0.51,0.63-0.55,0.32
						c-0.05-0.41,0.04-1.11-0.17-1.23c0.01,0.56-0.23,0.16-0.26,0.48c-0.02,0.22-0.02,0.66,0.05,0.84c0.06,0.03,0.11,0.1,0.16,0.19
						c-0.02,0.48-0.47,1.69-0.63,2.06c0.01-0.41-0.03-1.07-0.15-1.38c-0.31,0.03-0.2-0.62-0.32-0.67c-0.21-0.08-0.35,2.31-0.87,2.19
						c0.39-0.09,0.35-2,0.34-2.61c-0.03-0.8-0.25-0.22-0.27,0.31c0.02-0.53,0.08-2.36-0.22-1.15c-0.37,1.93-0.12-0.34-0.46,0.14
						c-0.46,0.63-0.25,1.28,0.09,1.27c0.28-0.01-0.18,1.45-0.27,1.74c-0.1-0.42-0.24-0.88-0.28-1.35c-0.04-0.45,0.06-0.93,0.03-1.38
						c-0.02-0.33-0.19-0.65-0.17-0.87l-0.13,1.32c0-0.01-0.06-1.06-0.06-1.15c-0.07-0.4-0.3,0.07-0.41,0.33
						c0.02-0.23-0.57-0.71-0.56-0.75c-0.32,0.8-0.14,1.87-0.32,2.66c-0.06,0.25-0.3,0.21-0.37,0.17c-0.07-0.04,0.04-0.44,0-0.59
						c-0.16-0.62-0.47,0.66-0.58,0.81c-0.06,0.09-0.52,0.14-0.5,0.02c0.04-0.19,0.54-0.62,0.65-1.16c0.04-0.22,0.09-1.7,0.11-1.73
						c-0.12,0.21-0.65,1.93-0.71,2.24c-0.22,0.35-0.45-0.06-0.36-0.49c0.1-0.47,0.37-1.97,0-1.81c-0.16,0.07-0.35,0.33-0.46,0.12
						c-0.07-0.12,0.13-0.44,0.11-0.49c-0.11-0.24-0.8,1.06-0.98,1.23c-0.11,0.11-0.23-0.71-0.28-0.86
						c-0.12-0.02-0.08-0.87-0.41-0.02c-0.23,0.58-0.34,1.3-0.7,1.24c0.23-0.72,0.99-2.52,0.35-2.04c-0.34-0.05-0.8,2.27-1.18,2.65
						c-0.09,0.08,0.49-2.15,0.6-2.18c-0.24,0.06-0.93,1.99-1.2,2.38C217.17,307.46,216.27,308.73,217.03,308.29z"/>
					<path class="st2" d="M248.52,296.84c-0.11-0.19-0.66-0.84-0.8-0.67C247.63,296.31,248.4,297.04,248.52,296.84z"/>
					<path class="st2" d="M253.32,297.52C253.53,297.86,253.18,297.04,253.32,297.52L253.32,297.52z"/>
					<path class="st2" d="M244.13,301.15c-0.12,0.11,0.71,1.33,0.83,1.31c0,0,0.34-0.63,0.54,0.12c0.07,0.26-0.23,0.07-0.07,0.41
						c0.28,0.61,0.92,1.18,1.32,1.26c0.47,0.11,0.88-0.28,0.9-0.77c0.01-0.25-0.89-1.46-0.22-1.14c0.25,0.11,0.5,0.61,0.78,0.77
						c0.28,0.16,0.43-0.14,0.52-0.26c0.19-0.24-0.13-0.55-0.09-0.86c0.05-0.3,0.28-0.19,0.55-0.2c0.27-0.01,1.57-0.34,0.83-1.05
						c-0.11-0.11-0.99-0.99-0.56-0.8c0.4,0.17,0.65,0.56,1.02,0.78c-0.2-0.12-0.52-0.9,0.33-0.35c0.4,0.26-0.12-0.35-0.05-0.46
						c0.15-0.24,0.74,0.11,0.98-0.02c0.15-0.08-0.43-0.56-0.17-0.56c0.39,0,0.8,0.15,0.98-0.13c0.09-0.15-0.23-0.61-0.21-0.64
						c0.14-0.22,0.54-0.2,0.67-0.47c0.12-0.24,0.56-0.15,0.3-0.57c-0.02-0.14-0.1-0.29-0.25-0.46c-0.04-0.03,0,0.3-0.22,0.26
						c-0.3-0.06-0.64-0.2-0.96-0.33c-0.55-0.22-1.29-0.5-1.85-0.88c-0.35-0.24-0.73-0.45-1.01-0.48c-0.25-0.03,0.48,0.61,0.57,0.72
						c0.4,0.54-0.54-0.07-0.51,0.14c0.01,0.07,0.27,0.38,0.37,0.41c-0.28-0.08-0.79-0.4-0.95-0.3c0,0,1.3,1.61,1.37,1.86
						c0.3,0.91-0.66-0.45-0.74-0.33c-0.02,0.04,0.39,0.58,0.37,0.75c-0.02,0.15-0.33-0.07-0.49-0.18c-0.39-0.27-0.78-0.54-1.17-0.82
						c0.07,0.14,0.68,1.34,0.58,1.32c-0.61-0.24-0.89-1.44-1.19-1.59c-0.35-0.2,0.2,1.42-0.65,0.57l1.07,1.09
						c-0.18,0.23-0.88-0.86-0.85-0.25c0.01,0.3,0.02,0.41,0.41,0.83c0.05,0.2-0.26,0.3-0.34,0.4c0.32-0.35-0.72-1.44-0.56-0.59
						c0.04,0.24-0.44-0.22-0.54-0.2c-0.27,0.06-0.12,0.46-0.27,0.63c-0.07,0.08-1.14-0.53-0.65,0.21c0.16,0.24,0.73,0.79,0.77,0.94
						c0.06,0.18-0.45-0.03-0.25,0.3c0.05,0.08,0.27,0.16,0.32,0.33c0.06,0.2-1.22-0.67-1.38-0.89c0.14-0.13,0.94,0.31,0.18-0.66
						c-0.02-0.01-0.6,0.1-0.65,0.15c-0.12,0.11-0.15,0.37-0.45-0.05c-0.07,0.09-0.12,0.06-0.08,0.31
						C243.43,301.29,244.04,301.3,244.13,301.15z"/>
					<path class="st2" d="M253.83,287.04C254.17,287.11,253.84,286.91,253.83,287.04L253.83,287.04z"/>
					<path class="st2" d="M249.97,294.96c0.11-0.09,1.2-0.1,1.02,0.27c-0.64-0.13,1.2,1.4,0.56,1.06c-0.37-0.2-0.83-0.52-0.94-0.29
						c-0.03,0.06-0.09,0.2,0.12,0.35c0.89,0.64,1.24,0.05,1.83,0.21c0.41,0.11,1.15,0.79,1.35,0.56c0.14-0.16,0.23-0.37,0.27-0.59
						c0.05-0.22-0.25-0.76,0.13-0.77c0.25-0.01,0.37,0.03,0.05-0.39c-0.03,0.08,0.07-0.46,0.24-0.23c-0.03-0.03-0.17-0.17-0.3-0.29
						c-0.13-0.12-0.25-0.24-0.25-0.24c0.19,0.01,0.76,0.63,0.99,0.55c0.12-0.04-0.13-0.52-0.17-0.61c-0.14-0.29-0.86-0.85-0.79-0.39
						c-0.67-0.35,0.13-0.2-0.15-0.46c-0.15-0.14-1.17-0.47-1.16-0.5c0.1-0.27,1.36,0.54,1.74,0.6c0.36,0.06,0.72,0.06,1,0.01
						c0.16-0.03,0.95-0.76,0.98-0.73c-0.04-0.04-1.02-0.3-1.19-0.39c0.09-0.33,0.89,0.15,1.08-0.03c0.23-0.22-0.13-0.56-0.4-0.87
						c-0.27-0.31-0.13-0.35,0.32-0.07c0.43,0.16,0.43-0.23,0.44-0.35c0.02-0.12,0.23-0.51-0.08-0.69c-0.14-0.08-0.88-0.4-0.47-0.39
						c1.09,0.01,1.05-0.16-0.22-0.49c0.05-0.27,0.8,0.16,1.03,0.13c0.03-0.16,0.63-0.31,0.58-0.46c-0.05-0.16-1.77-0.29-0.99-0.62
						c0.39-0.18,0.92,0.15,0.96-0.28c0.02-0.27-0.69-0.34-0.99-0.69c-0.08-0.06-0.98-0.49-1.08-0.42c-0.12,0.09-0.44,0.6-1.12,0.35
						c-0.49-0.18,0.13-0.63-0.52-0.76c0.01-0.15-0.74-0.29-1.21-0.37c0.28,0.06,0.55,0.15,0.74,0.26c-0.4-0.23-1,0.1-0.96,0.24
						c0.07,0.27,0.54,0.64,0.95,0.95c0.36,0.26,1.36,0.57,0.67,0.66c-0.77-0.05-0.49,0.27,0.1,0.47c-0.4-0.06-0.85,0-0.89,0.12
						c0.07-0.16-0.46-0.73-0.62-0.43c-0.08,0.16-0.39,0.23-0.42,0.41c-0.02,0.16,2.19,0.95,1.51,1.04c-0.64,0.06-2.32-1.04-1.97-0.2
						c0.11,0.28,0.74,0.39,1.18,0.56c0.48,0.18,0.44,0.37,0.98,0.53c-0.06,0.21-1.08-0.28-1.33-0.38c-0.35-0.22-0.78-0.4-1.18-0.5
						c-0.3-0.08-0.01,0.2,0.17,0.29c0.51,0.25,1.44,0.32,1.62,0.82c0.07,0.19-0.17,0.25-0.47,0.2c0.05-0.17-0.87-0.83-1.03-0.7
						c-0.02,0.02,0.29,0.33-0.02,0.23c-0.37-0.12-0.24-0.02-0.29,0.16c-0.05,0.2-0.42-0.13-0.5,0.05c-0.04,0.09,0.04,1.46,0.38,1.51
						c-0.14-0.02-0.38-0.22-0.54-0.24c-0.22-0.04-0.23,0.2-0.26,0.28c-0.08,0.22-0.5,0.2-0.51,0.45c-0.02,0.14,0.87,0.8,0.48,0.67
						c-0.25-0.08-0.97-0.22-0.47,0.11c-0.58-0.29-0.5,0.52-0.8,0.51c-0.49-0.03,0.79,1.15,1.23,1.24
						C249.97,295.89,249.9,295.01,249.97,294.96z"/>
					<path class="st2" d="M252.3,286.62c0.06,0.01,0.18,0.03,0.32,0.06C252.51,286.65,252.4,286.63,252.3,286.62z"/>
					<path class="st2" d="M254.47,284.25l-0.01-0.14c-0.25,0.05-0.41,0.14-0.33,0.26C254.45,284.38,254.48,284.37,254.47,284.25z"/>
					<path class="st2" d="M253.97,283.03l-0.02-0.13C252.44,282.92,254.03,283.36,253.97,283.03z"/>
					<path class="st2" d="M257.94,287.61c0.14-0.26,0.24-0.47,0.13-0.77c-0.04-0.11-0.56-0.55-0.03-0.48
						c-0.31-0.12-0.47-0.62-0.28-0.58c0.17,0.04,0.35,0.27,0.29,0.31c0.33-0.27,0.23-0.84,0.26-1.17c0.03-0.39,0.3-1.01-0.62-1.15
						c-0.16-0.03,0.37-0.17,0.56-0.15c-0.91-0.39,0.31-0.9,0.15-1.26c-0.1-0.23-2.11-0.24-2.96-0.29c0.01,0.01-0.04,0.01-0.25-0.02
						c-0.37-0.12-0.96-0.07-1.42-0.04c0.03,0.14,0.68,0.13,0.87,0.25c0.38,0.24-0.49,0.22-0.76,0.3c-0.24,0.06,0.82,0.39,0.92,0.45
						c0.31,0.18,0.03,0.28,0.14,0.42c-0.02-0.03,1.79,0.18,1.15,0.32c-0.24,0.05-1.64,0.03-1.67-0.15
						c-1.25-0.24-1.74-0.17-1.44,0.33c0.06,0.1,0.19,0.91,0.5,0.96c0.6,0.05,0.31-0.4,0.39-0.56c0.16-0.31,0.51-0.3,1.01-0.09
						c0.31,0.14,0.82-0.42,1.19-0.27c0.15,0.07-0.41,0.34-0.44,0.37c-0.15,0.14,0.11,0.3,0.06,0.4c-0.07,0.12-0.76-0.09-0.81,0.13
						c-0.04,0.14,0.24,0.18,0.05,0.3c-0.17,0.11-1.6,0.27-1.53,0.35c0.02,0.03,0.74,0.13,0.82,0.16c0.39,0.14,0.35,0.27,0.76,0.42
						c0.28,0.11,1.19,0.36,1.32,0.48c0.2,0.17-0.61,0.16-0.58,0.18c0.05,0.03,1.06,0.11,1.25,0.15c0.31,0.07,0.52,0.22,0.82,0.27
						c-0.6-0.09-1.28-0.24-1.8-0.16c0,0-0.75,0.3-0.9-0.02c-0.07-0.13,0.3-0.14,0.08-0.35c-0.18-0.17-0.48-0.33-0.8-0.46
						c-0.12-0.05-1.69-0.48-1.69-0.34c0,0.09,1.36,0.42,1.54,0.47c-0.27,0.04-1.56,0.07-1.57,0.19c0,0.14,1.35,0.33,1.54,0.36
						c0.01-0.11,0.82,0.29,0.99,0.35C255.69,287.32,257.71,288.01,257.94,287.61z"/>
					<path class="st2" d="M255.19,282.02c0.06,0.01,0.15,0.01,0.25,0.02C255.41,282.02,254.93,281.94,255.19,282.02z"/>
					<path class="st2" d="M256.59,282.03c0.24-0.42,0.4-0.27,1.31-0.35c0.59-0.06,0.37-0.4,0.29-0.59
						c-0.17-0.48-0.28-1.44-1.72-1.12c-0.09-0.32,0.73-0.09,0.99-0.32c-0.09-0.34-1.41-0.09-1.87,0.03
						c-0.68,0.18-1.04,0.59-0.01,0.43c-0.34,0.07-2.85,0.81-2.4,0.89c1.01-0.12,3.1-0.44,3.27,0.19c-0.3,0.03-0.6,0.03-0.9,0.03
						c0.01-0.01,0.02-0.02,0.01-0.03c0,0.01-0.01,0.02-0.02,0.03c-0.63,0-1.27-0.02-1.93,0.07c-1,0.12,1.26,0.18,1.83,0
						c-0.3,0.19-1.14,0.51-0.57,0.47c0.45-0.03,0.91-0.04,1.25,0.09C256.1,281.85,256.53,282.13,256.59,282.03z"/>
					<path class="st2" d="M253.06,279.45c-0.59,0.25-0.1,0.28,0.42,0.18l-0.04-0.13C253.35,279.47,253.18,279.47,253.06,279.45z"/>
				</g>
			</g>
		</g>
	</g>
	<g>
		<g>
			<g>
				<path class="st2" d="M468,421.2c-1.16,1.26,0.52,2.81,0.5,1.63C468.5,422.47,468.64,421.19,468,421.2z"/>
				<path class="st2" d="M660.15,418.2C660.65,418.74,660.15,417.66,660.15,418.2L660.15,418.2z"/>
				<path class="st2" d="M659.18,417.67c0.01,0.6,0.86,2.29,1.16,1.03c-0.06-0.17-0.12-0.33-0.19-0.5
					C659.99,417.7,659.66,417.52,659.18,417.67z"/>
				<path class="st2" d="M553.11,417.94c0.27,0.49,0.53,0.5,0.98,0.53C554.08,417.39,553.68,417.22,553.11,417.94z"/>
				<path class="st2" d="M565.76,417.78c0.01,0.67,0.99,1.76,0.98,0.53C566.72,416.39,566.06,417.96,565.76,417.78z"/>
				<path class="st2" d="M613.44,417.17c-0.32,0-0.65,0.01-0.97,0.01c0.01,0.77,1.47,0.96,1.48,1.75
					C613.94,418.5,614.14,417.16,613.44,417.17z"/>
				<path class="st2" d="M622.67,416.51c-0.32,0.57-0.36,0.4-0.48,1.09c0.41,0.09,0.57-0.1,0.48-0.55
					C622.68,416.87,622.67,416.69,622.67,416.51z"/>
				<path class="st2" d="M637.28,417.41c-0.01-1.08-0.41-1.25-0.98-0.53C636.57,417.36,636.83,417.38,637.28,417.41z"/>
				<path class="st2" d="M653.82,417.74c0.71,0.78,0.97-0.68,0.96-1.1C654.43,416.86,654.03,417.42,653.82,417.74z"/>
				<path class="st2" d="M550.19,417.98c0-0.18,0-0.36-0.01-0.54C549.15,416.54,548.97,417.99,550.19,417.98z"/>
				<path class="st2" d="M598.84,416.81c0-0.18,0-0.36-0.01-0.54C596.73,416.29,598.85,418.2,598.84,416.81z"/>
				<path class="st2" d="M608.08,417.24c0-0.36-0.01-0.73-0.01-1.09c-0.3,0.21-1.25,1.1-1.16,1.49
					C607.03,418.1,608.09,417.85,608.08,417.24z"/>
				<path class="st2" d="M617.31,415.49c0.6,2.29-1.61,1.58-2.9,2.21c0.01,0.84,1.4,0.88,1.87,0.88c1.55,0,1.54-0.21,1.52-2.01
					C617.75,416.14,617.58,415.78,617.31,415.49z"/>
				<path class="st2" d="M678.15,415.25c-0.08,0-0.15,0-0.22,0C678,415.25,678.07,415.25,678.15,415.25z"/>
				<path class="st2" d="M679.01,415.24c-0.12,0-0.25,0-0.37,0C678.78,415.25,678.9,415.24,679.01,415.24z"/>
				<path class="st2" d="M679.1,415.24c0.09,0,0.14,0,0.19,0c-0.06,0-0.15,0-0.27,0C679.04,415.24,679.07,415.24,679.1,415.24z"/>
				<path class="st2" d="M679.29,415.24C679.37,415.24,679.38,415.24,679.29,415.24L679.29,415.24z"/>
				<path class="st2" d="M677.93,415.26c-0.1,0-0.19,0-0.29,0C677.63,415.26,677.75,415.26,677.93,415.26z"/>
				<path class="st2" d="M678.65,415.25c-0.15,0-0.3,0-0.44,0.01C678.35,415.25,678.5,415.25,678.65,415.25z"/>
				<path class="st2" d="M679.91,417.34c0.98,0.35,1.64,0.11,1.63-1.04c0-0.36-0.01-0.73-0.01-1.09
					C681.53,415.35,678.4,416.8,679.91,417.34z"/>
				<path class="st2" d="M510.62,417.66c0.39,0.56,1.14,0.38,1.13-0.28C511.74,416.24,510.21,417.06,510.62,417.66z"/>
				<path class="st2" d="M650.08,414.68c-0.18,0.53,1.3,1.6,1.28,0.37C651.14,414.85,650.28,414.12,650.08,414.68z"/>
				<path class="st2" d="M600.3,416.98C600.3,417.1,600.3,417.12,600.3,416.98L600.3,416.98z"/>
				<path class="st2" d="M600.28,415.16c0,0.37,0.01,0.67,0.01,0.92c0-0.16,0-0.3,0-0.38C600.28,415.52,600.28,415.34,600.28,415.16
					z"/>
				<path class="st2" d="M600.29,416.76c0,0.09,0,0.17,0,0.22C600.3,416.92,600.3,416.84,600.29,416.76z"/>
				<path class="st2" d="M600.29,416.3c0,0.13,0,0.24,0,0.33C600.29,416.52,600.29,416.41,600.29,416.3z"/>
				<path class="st2" d="M600.29,416.08c0,0.07,0,0.14,0,0.21C600.29,416.23,600.29,416.15,600.29,416.08z"/>
				<path class="st2" d="M600.29,416.63c0,0.04,0,0.09,0,0.13C600.29,416.71,600.29,416.68,600.29,416.63z"/>
				<path class="st2" d="M609.89,417.54c0.4,0.11-0.11,1.41,0.36,1.47c0.75,0.1,0.74-2.63,0.74-2.97c0,0.3-0.44,0.94-0.46,0.8
					c-0.01-0.24-0.02-0.48-0.03-0.72c0.08-0.51-0.02-0.94-0.32-1.29c-0.58-0.21-1.38,2.21-1.37,2.67
					C608.83,418.47,609.65,417.47,609.89,417.54z"/>
				<path class="st2" d="M648.45,415.09c0,0,0-0.05,0-0.1C648.45,415.02,648.45,415.04,648.45,415.09z"/>
				<path class="st2" d="M648.45,415.09C648.42,412.39,645.83,415.79,648.45,415.09L648.45,415.09z"/>
				<path class="st2" d="M648.44,414.87C648.44,414.84,648.44,414.85,648.44,414.87L648.44,414.87z"/>
				<path class="st2" d="M545.29,414.77c-1.19,0.02,0.54,4.85,0.5,1.63C545.79,416.06,545.87,414.77,545.29,414.77z"/>
				<path class="st2" d="M568.66,415.56c-0.02-1.67-2.56,0.58-0.49,1.13C568.6,416.52,568.76,416.14,568.66,415.56z"/>
				<path class="st2" d="M603.65,415.32c0.34-0.37,0.34-0.8,0.02-1.29C602.26,414.05,602.78,415.61,603.65,415.32z"/>
				<path class="st2" d="M579.83,413.79c-0.12-0.11-0.23-0.23-0.35-0.34c-0.04-0.02-0.35,1.73,0.02,1.93
					C580.43,415.89,580.19,414.18,579.83,413.79z"/>
				<path class="st2" d="M582.27,414.3c-0.05-0.17-0.1-0.34-0.16-0.52c-0.71-0.59-0.8,2.03-0.8,2.3c0-0.29,0.54-0.84,0.82-0.91
					c0.32-0.08-0.38,3.45,0.53,2.21C584.07,415.44,582.28,415.49,582.27,414.3z"/>
				<path class="st2" d="M638.21,413.04c0.01,0.67,0.99,1.76,0.98,0.53C639.17,411.65,638.51,413.22,638.21,413.04z"/>
				<path class="st2" d="M225.38,416.71c0.16,0.12,0.25,0.23-0.21-0.02c-0.94-1.02-1.24,0.89,0.65,0.52
					C225.84,416.92,225.69,416.76,225.38,416.71z"/>
				<path class="st2" d="M225.16,416.69c0.08,0,0.15,0.01,0.21,0.02C225.19,416.57,224.9,416.4,225.16,416.69z"/>
				<path class="st2" d="M681,410.87c0-0.18,0-0.36-0.01-0.54C678.89,410.35,681.02,412.26,681,410.87z"/>
				<path class="st2" d="M662.1,417.63c0.1-1.24,1.24-0.85,2.12-1.18c0.48-0.18,1.84-2,2.05-2c0.32,0,2.56,2,2.93,0.71
					c0.25-0.86-0.34-3.09-0.35-4.14c0-0.4-3.39,1.33-3.38,2.42c-0.01-0.79-1.93,1.69-1.95-0.18c-0.01-1.08-0.08-2.08-0.4-2.92
					C662.85,409.68,659.24,417.67,662.1,417.63z"/>
				<path class="st2" d="M678.21,412.73c0.02-0.02-0.03,1.21-0.09,1.43c0.48-0.01,1.52-0.71,1.43-1.29c0.1,0.65,0.4,0.9,0.52,1.26
					c1.34-0.77-0.97-3.8-1.98-3.78c-0.38,0-1.93,2.04-1.94,0.57c0-0.36-0.01-0.73-0.01-1.09
					C674.84,412.23,676.26,414.22,678.21,412.73z"/>
				<path class="st2" d="M580,412.63c0.25-0.27,0.35-0.61,0.29-1.02C580.26,408.27,578.38,413.26,580,412.63z"/>
				<path class="st2" d="M611.6,413.89c0.77,0.42,1.8-0.56,1.82,1.65c0,0.33,0.55,1.73,1.16,1.13c0.63-0.62-0.45-1.8-0.52-2.38
					c-0.12-0.93,1.27-1.86,1.28-0.82c-0.02-2.32-0.67-2.3-2.46-2.28c0-0.36-0.01-0.73-0.01-1.09
					C611.74,410.12,610.66,413.38,611.6,413.89z"/>
				<path class="st2" d="M617.78,413.85c-0.26-0.38-0.91-1.14-1.32-0.49c-0.71,1.15,0.96,1.57,1.49,2c1,0.82,1.05,3.15,1.35,4.45
					c0.3-1.01,0.83-2.27,0.82-3.34c0-0.23-1.43-2.33-0.77-2.34c-0.8,0.01-1.09-0.57-1.1-1.92c-0.02-1.85-2.47-3.22-2.44-1.06
					c0.2-0.09,1.09-0.26,1.08-0.26C616.32,410.91,617.78,413.44,617.78,413.85z"/>
				<path class="st2" d="M619.71,412.19c1.4-0.02,1.37,2.16,2.46,2.35c0.69,0.12,1.7-1.88,1.13-2.05c-1.4-0.43-1.14,1.71-1.17-1.42
					c-0.01-1.07-2.33-0.43-2.76-0.11C618.57,411.58,619.71,412.28,619.71,412.19z"/>
				<path class="st2" d="M625.87,410.3c0.01,0.03,0.01,0.07,0.02,0.1C625.9,410.37,625.9,410.33,625.87,410.3z"/>
				<path class="st2" d="M624.58,412.67c0,0.44,0.64,3.26,1.01,3.25c0.73-0.01,0.23-2.41,1.25-2.8c0.51-0.2,0.75-0.37,0.84-0.53
					c0.27,0.76,0.6,1.46,0.81,1.66c0.92-0.01,2.61,1.26,3.38,1c0.96-0.32-0.96-2.62-0.97-2.8c0,0.29-0.04,0.91,0.01,1.22
					c-0.94,0.01-2.94-2.19-2.95-3.23c-0.94-0.74-0.82,0.43-0.44,1.67c-0.45-0.38-1.5-0.7-1.5-1.11c-0.04-0.21-0.09-0.42-0.13-0.63
					c-0.13,0.44-3.45,0.67-3.76,0.68C622.14,411.88,625.72,411.37,624.58,412.67z"/>
				<path class="st2" d="M633.48,410.71c-0.01,0-2.13,1.62-1.65,2.32c0.57,0.84,2,1.75,1.94,2.97c-0.04,0.88-2.19,1.25-1.71,2.3
					c0.2,0.42,2.29-0.45,2.63-0.71c0.81-0.62,1.06,0.01,1.77-1.61c0.44-1-1.75-0.59-1.76-1.72c-0.01-1.05,1.82-0.14,1.81-1.52
					c-0.01-0.57-1.5-1.82-0.75-1.83c0.27-0.31,0.08-0.27-0.05-0.17c-0.6-0.37-4.65-0.31-5.31-0.3
					C630.42,412.87,632.57,410.55,633.48,410.71z"/>
				<path class="st2" d="M638.68,411.41c0.75-0.01,1.31,1.28,1.62,1.27c0.65-0.01,0.81-1.45,0.8-1.85c-0.02-2.37-1.51,1.38-2.5-0.78
					C638.28,409.36,636.79,411.43,638.68,411.41z"/>
				<path class="st2" d="M644.17,417.36c0.03,0.06,0.06,0.12,0.08,0.19C644.23,417.48,644.2,417.42,644.17,417.36z"/>
				<path class="st2" d="M644.17,417.36c-0.32-0.71-1.51-0.85-1.74-1.59c-0.31-1.01,1.78-0.37,2.01-0.16
					c0.87,0.8,1.62,4.13,1.58,0.05c0.04-0.36,0.15-4.41,1.1-3.61c1.07,0.91,2.77,1.63,2.75-0.59c0,0.19,0.31,2.31,0.33,2.35
					c0.52,1.14,5.04-0.1,5.07,2.82c0.93,2.03,2.47,0.4,3.89-0.05c-0.62-0.31-1.28-0.49-1.95-0.52c1.54-0.02-1.08-4.34,0.93-4.36
					c-0.18,0.96-0.04,2.18,1,2.16c0.27,0.96-0.75,2.73,1,2.71c-0.37-1.37-0.7-3.48-1.39-4.73c-0.62-1.14-0.92-0.45-1.61-0.13
					c-0.91,0.41-1.35-0.52-2.1-0.51c0.47-0.01,0.67,0.09,0.66-0.55c-0.01-0.93-2.43-0.53-2.86-0.49c-1.17,0.1-0.43,0.93-0.55,1.8
					c0.05-0.34-1.24-1.67-1.59-1.95c-0.73-0.59-1.93,0.35-2.63,0.55c-0.86,0.25-3.39-0.32-4.62-0.3c-0.98,0.01-1.8,3.8-1.97,4.82
					C641.15,417.1,643.67,416.54,644.17,417.36z"/>
				<path class="st2" d="M661.53,410.03c0,0.37-1.63-0.34-2.13-0.17C658.64,410.11,661.56,413.35,661.53,410.03z"/>
				<path class="st2" d="M666.41,411.05c0-0.18,0-0.36-0.01-0.54c-0.09-0.55-0.32-0.79-0.69-0.72
					C665.61,410.51,666.18,410.71,666.41,411.05z"/>
				<path class="st2" d="M675.2,414.95c0.03,2.68,1.22,0.5,2.45,1.94c0,0.48-1.14,0.84-0.96,1.1c0.36,0.78,1.34,0.13,1.71-0.18
					c2.06-1.68-3.63-3.81-4.68-4.68c2.51-0.03-0.02-2.28-0.02-2.18c-0.02-1.56-1.45-0.47-2.28-0.54c-0.79-0.06-0.45-1.06-1.15-1.05
					c-0.63,2.46-0.43,5.09-0.41,7.62C671.96,415.83,675.24,418.45,675.2,414.95z"/>
				<path class="st2" d="M584.55,413.39c-0.29,0.17,1.66,4.18,2.13,4.12c1.16-0.01-0.04-1.74,0.22-2.04
					c0.55-0.62,2.17,0.54,2.37,0.2c0.19-0.33-0.71-0.9,0.3-0.91c-0.31,1.53,0.46,1.5,1.48,1.61c0,0.43,0.57,0.8,0.83,0.35
					c0.38-0.65,0-1.64,0.26-2.36c0.59-1.64,1.59,0.02,1.8-2.06c0.05-0.52,0.77-0.4,0.89,0.01c0.21,0.69,0.1,1.65,0.09,2.38
					c2.83-0.04,1.45-0.54,1.43-2.8c0.01,1.21,1.17,1.45,2.12,1.08c0.78-0.3-3.6-2.88-3.59-2.63c-0.08-0.09-0.13-0.12-0.16-0.14
					c-1.46-1.18-3.96,1.81-4.43,2.62c-2.04,3.57-1.35-1.88-2.09-2.07c-0.89-0.24-6.42-1.05-6.87,0.32
					C580.62,413.24,583.23,414.14,584.55,413.39z"/>
				<path class="st2" d="M599.41,413.34c1.28-0.59,3.37,0.95,4.36,0.2c0.48-0.37,0.65-2.76,0.05-2.98
					c-0.35-0.13-1.11,1.54-1.12,1.49c-0.01-0.24-0.02-0.48-0.03-0.72c-0.02-1.87-2.07-0.93-2.68-0.58
					c-0.47,0.27-1.27-0.04-1.39,0.81C598.58,411.73,598.94,413.55,599.41,413.34z"/>
				<path class="st2" d="M605.62,414.55c0.47-0.98,0.14,0.03,0.93-0.74c0.77-0.76-0.47-2.24-0.48-3.08
					c-0.01-0.25-0.08-0.43-0.19-0.56c-0.03-0.07-0.04-0.06-0.03-0.03c-0.09-0.09-0.2-0.15-0.34-0.16
					C604.92,410.4,604.73,414.56,605.62,414.55z"/>
				<path class="st2" d="M607.79,412.28c0.99,0.54,1.22-1.25,0.81-1.98c0-0.02-0.03-0.06-0.1-0.14c-0.31-0.17-0.37-0.18-0.33-0.13
					C607.02,409.76,606.84,411.76,607.79,412.28z"/>
				<path class="st2" d="M427.52,411.93c0-0.18,0-0.36-0.01-0.54C425.41,411.41,427.53,413.32,427.52,411.93z"/>
				<path class="st2" d="M519.39,415.65c0.01,1.26-1.23,0.02-1.4,0.02c-1.13,0.01-0.21,1.57,0.29,1.95
					c0.76,0.58,1.03-0.17,1.59-0.02c0.23,0.06,0.16,1.06,0.3,1.27c0.52,0.79,0.87-0.38,1.31-0.38c0.73-0.01,2.46,2.81,2.43-0.51
					c0.03,3.4,3.12-2.96,0.94-2.94c0.76-0.28,0.22-0.4,1.13-0.58c-1.65,0.33-1.3-1.84-0.68-2.69c1.02-0.01,2.01,6.3,2.02,7.21
					c-0.02-2.19,2.91-2.25,2.38-5.09c0.37,1.19,0.81,4.3,2.14,4.46c1.05,0.13,3.19-1.84,3.76,0.77c-0.13-1.4,0.8-1.26,1.63-1.58
					c0.71-0.27,0.18-1.57,1.26-1.58c-0.83,3.2,1.95,0.5,1.97,2.29c-0.02-1.9,0.05-1.21-1.06-1.64c-1.05-0.4,0.54-2.83,0.51-3.03
					c0.34,2.12,0.37,1.05,1.7,1.95c0.51,0.35,0.48,1.46-0.18,1.47c-0.8,0.01,0.63,2.45,1.41,1.55c-0.1,0.12,0.62-1.23,0.84-1.35
					c-0.29-0.17-0.52-0.42-0.67-0.76c0.28-0.38,0.51-0.79,0.69-1.24c0.17-0.63-0.17-1.54-0.06-1.99c0.35-1.44,3.11,1.48,3.13,2.64
					c0.01,1.11,0.47,2.44,1.79,2.42c-0.18,0,0.79-1.79,1.32-1.99c0.83-0.32-0.5-1.69-0.71-2.14c-0.54-1.17-1.35-4.26-3.11-2.91
					c-0.1,0.08-1.26,1.75-1.27,0.29c-0.02-1.55-1.67,0.02-2.43,0.03c-0.94-2.04-1.19,0.74-1.59,1.29c-0.25,0.34-1.57-1.55-1.82-1.79
					c-0.38,0.48-0.54,1.08-0.48,1.71c-0.15-0.94-1.66-2.56-2.44-1.68c-0.27,0.31-1.05,2.73-0.42,2.93c0.24-0.06,0.43-0.19,0.59-0.37
					c-0.69,0.96-0.17,3.6-1.56,3.43c-1.11-0.14-0.34-3.7-0.35-4.43c-0.06-2.51-0.92-1.02-2.15-0.96c-0.01-1.28-3.4,0.24-3.42-1.04
					c-3.28,0.04-8.69-1.26-10.09,2.56C518.09,414.64,519.38,414.63,519.39,415.65z"/>
				<path class="st2" d="M543.67,417.19c0.02,0.01,0.04,0.04,0.06,0.05C543.74,417.18,543.71,417.17,543.67,417.19z"/>
				<path class="st2" d="M575.61,411.61c0.05,0.08,0.1,0.16,0.12,0.26C575.71,411.75,575.66,411.67,575.61,411.61z"/>
				<path class="st2" d="M577.85,410.55C578.83,411.63,577.35,409.47,577.85,410.55L577.85,410.55z"/>
				<path class="st2" d="M549.96,412.52c-1.39,0.8-0.1,1.44,0.4,2.33c0.23,0.4,0.13,1.79,0.61,1.96c1.96,0.7,0.42-1.82,1.6-2.17
					c0.33-0.1,1.09,3.25,1.83,2.41c0.8-0.92-0.74-2.58,0.12-4.02c0.36,0.4,1.73,0.86,1.9,1.4c0.03,0.41,0.07,0.82,0.13,1.22
					c0.6,0.65,0.16,1,0.61,2.16c0.4,1.02,1.25,0.37,1.79,0.05c1.28-0.02,0.54-1.06,1.1-1.83c0.44-0.6,2.13,3.35,2.78,0.28
					c0.48,2.72,2.85-0.41,2.23-0.41c0.9-0.01,1.22,0.95,2.31,0.74c-1.58,0.31-0.93-2.77,1.47-2.13c1.18,0.31-0.38,3.04-0.38,3.61
					c0.01,0.9,1.12-0.32,1.19-0.4c1-1.14,0.97-0.35,2.09-0.37c0.58-0.01,0.3-3.69,0.3-4.36c0.01,1.41,0.63,1.96,1.97,1.95
					c0.26,0.59-0.22,1.47-0.18,2.02c0.27,3.4,2.58-1.2,1.54-1.19c1.24-0.02,0.8-1.4,2.04-1.42c0.14,0.97-0.93,2.73,0.51,2.71
					c-0.03-2.45,1.37-4.96-0.07-6.53c-0.88-1.91-1.42,2.05-1.45,2.42c-0.11,1.12-1.07-0.75-1.52-0.54c0.34-0.16-0.88,2.18-0.9,0.35
					c0.14-0.32,1.2-1.7,1.63-1.17c-1.06-1.87-7.5-1.14-7.48,0.29c-0.03-3.07-1.94-0.15-2.42,0.98c-0.35-0.8-0.69-1.95-1.47-2.31
					c-1.18-0.55-1.68,0.59-2.69,0.6c-1.65,0.02-2.33-1.08-1.15,1.49c0.79,1.72-1.83,1.4-2.47,1.41c-1.05-1.15,1.96-1.43,1.99-1.44
					c0.09-0.04-1.41-1.61-1.63-1.74c-0.8-0.48-1.77-0.55-2.66-0.58c-1.69-0.06-3.57-0.07-5.18,0.6c-0.24,0.1-1.53,1.11-1.61,1.07
					C549.01,412.08,550.02,412.48,549.96,412.52z"/>
				<path class="st2" d="M470.54,419.15c-0.05-0.05-0.09-0.11-0.13-0.18C470.45,419.03,470.49,419.09,470.54,419.15z"/>
				<path class="st2" d="M470.74,419.33c-0.08-0.06-0.13-0.12-0.19-0.19C470.6,419.22,470.67,419.28,470.74,419.33z"/>
				<path class="st2" d="M312.26,417.21c1.87,0.42,2.26,1.16,4.09,0.11c0.36-0.21,1.52,0.38,2.24,0.35
					c-0.01-1.19,2.64-0.4,3.08-0.19c2.14,1,0.81,0.3,1.08-1.67c0,0,1.55,2.24,1.88,2.47c1.03,0.71,2.72,0.38,3.84,0.35
					c1.25-0.02,2.52,0.05,1.78-1.65c0.96-0.01,0.57,1.28,1.29,1c0.33-0.25,0.66-0.49,1-0.71c1.31,0.35-0.67,2.94,1.81,1.25
					c1.49-1.01,1.87,0.01,3.22-0.01c-0.08-0.22-0.23-1.21-0.23-1.21c0,0.3,1.19-0.11,1.18-1.32c0,0.13,0.72,3.39,0.41,3.28
					c0.85,0.31,0.38-3.7,0.55-3.78c0.89-0.43,1.01,4.18,2.11,3.81c0.83-0.28-0.08-2.1,0.49-2.43c0.26-0.15,1.49,0.14,0.82-0.59
					c0-0.04,0.11-2.61,0.81-1.46c0.46,0.75-0.09,1.62-0.03,2.36c0.06,0.65,3.59,2.45,3.95,1.96c0.59-0.79,0.07-1.81,1.51-1.55
					c0.77,0.14,1.07,0.57,1.08,1.37c-0.02-1.62,1.75-2.96,1.92-0.99c0.08,0.95-0.49,1.46,0.52,1.44c0.76-0.01,0.92-0.19,0.96-0.96
					c0.24,1.09,2.29,0.92,2.93,0.91c-0.01-1.21,1.58-0.12,2.14-0.44c0.95-0.53,0.33-2.62,1.1-3.07c0.1-0.06-0.08,2.9,1.13,2.91
					c0-0.37,0.76-2.13,1.3-1.31c0.34,0.53-0.14,1.63,0.23,2.03c0.1,0.1,0.77-2.11,1.24-1.49c0.69,0.91,1.12,2.28,2.63,1.21
					c1.36-0.95,0.94-0.66,2.41-0.19c1.53,0.49,1.74-1.71,2.63-1.93c1.1-0.27,1.46,1.52,1.88,2.11c0.71,0.97,0.55-2.5,1.67-1.89
					c1.33,0.72-0.23,2.66,1.38,2.56c0.31-0.02,2.16-0.18,2.15-0.79c1.04-1.18,1.66,1.65,2.49,0.69c0.02-0.03-0.59-4.72-0.48-4.58
					c0.14,0.19,3.04,6.68,3.83,3.95c0.3-1.03-0.99-1.26-1-2.3c0.8-0.91,1.38-0.46,1.9,0.5c1.3,2.37,1.63,1.77,3.77,1.74
					c0.47-0.01,1.17,0.97,1.15-0.15c0.87-0.16,1.71,0.25,2.43-0.57c0.94-1.08,1.45-0.84,1.47,0.66c-0.01-0.77,3.54-0.92,4.12-1.42
					c1.23-1.06,2.33-1.99,2.7,0.29c-0.43-2.67,4.03,1.19,4.21,1.14c1.33-0.36,2.62-0.25,4-0.36c1.34-0.11,0.63-0.77,0.83-1.58
					c0.15-0.62,2.86,0.36,3.29,0.39c1.33,0.12,1.76-0.44,1.78,1.13c0.01,1.24,0.92,0,0.95-0.6c0.04-0.91-0.12-1.6-0.03-2.41
					c0.26,1.16,2.52,5.56,2.49,2.42c0.97-1.11,1.22,0.39,1.88-0.36c0.66-0.76,0.17-2.93,1.49-2.94c-0.22,1.9,1.48,1.8,1.49,3.24
					c-2.73-0.08-2.91,1.13,0.01,1.09c1.22-0.02,2.28-1.68,1.91-3.29c0.88-0.01,0.52,1.84,1.96,1.61c-2.04,1.17,1.29,1.64,1.19,1.98
					c0.21-0.73-0.85-1.84,0.32-2.58c0.49-0.31,1.14,0,1.37-0.37c-0.03,1.66,0.05,3.12,2,2.55c2.14-0.03,0.77-2.19,2.41-2.21
					c0,3.46,0.08,2.17,2.45,2.14c1.37-1.57,2.83,0.03,3.85-2.19c0.04,0.34,1.99,2.93,1.98,1.03c0.92-2.11,1.6,1.61,2.94,1.59
					c-0.04-0.36,0.02-0.73-0.01-1.09c0.87-0.01,3.2-0.59,3.42,0.79c-0.08-0.52,0.75-2.38,0.93-3.02c0.16,1.06,0.68,2.11,1.49,2.7
					c-0.02-0.44-0.21-1.63,0.47-1.64c-0.23,1.29,0.68,2.89,1.97,2.15c0.95-0.01-0.24-2.03-0.33-2.37c-0.04-0.14,1.49,0.57,1.73,0.02
					c0.29-0.66,0.03-1.85,0.13-2.61c0.26-1.93,0.99-0.19,1.26,1.01c-0.1-0.11-0.24-0.19-0.46-0.23c-0.62,0.14,0.76,3.61,1.2,3.8
					c0.29-0.02,0.41-0.16,0.36-0.41c0.03,3.09,3.34-2.68,3.96-0.91c0.27,0.76-0.48,1.6,0.85,1.64c0.84,0.02,1.47-0.61,2.49-0.62
					c0.9-0.01,2.59-0.51,3.18-1.11c1.63-1.66,1.54,0.5,2.19,1.56c-0.74-1.36,3.19-3.39,2.72-4c0.72,0.94-0.81,2.34-0.79,3.46
					c0.42,1.36,1.28,2.06,2.07,0.25c-0.08,0.19-0.16-3.65,0.68-2.28c0.15,0.25,0.23,3.79,0.79,3.28c1.18-1.08,2.32-0.9,3.67-1.83
					c1.22-0.84,0.94-2.59,1.5-3.88c0.83-0.01,0.52,3.41,0.53,3.8c0.46-0.01,3.4-0.73,3.4-0.25c0.01,1.38,1.68-0.09,2.05-0.16
					c0.73-0.15,1.56,3.09,2.51,2c0.52-0.6-0.72-1.63-0.98-2.04c0.05,0.08,1.78,1.29,1.77,0.75c0.01,0.79,0.19,1.22,0.99,1.21
					c-0.07-0.53,0.1-2.58,0.7-2.59c0.19,0.45,0.51,0.72,0.98,0.8c0.49-0.32,1-0.57,1.53-0.77c0.95-0.19,0.72,1.92,0.67,2.51
					c1.25-0.02,0.85-2.21,1.78-2.64c0.33-0.15-1.49,2.34-0.3,2.32c1.18-0.02,1.32,0.29,2.42,0.27c0.62-0.22-0.7-1.62,0.96-1.64
					c1.15,1.26,1.87,1.61,3.49,1.59c-0.02,0,1.21,1.87,1.4-0.32c0.04-0.4,1.1-2.3,1.13-2.07c0.09,0.56-0.65,1.28,0.3,1.27
					c0.29-1.4,1.34,0.1,2.31-0.02c0.74-0.09,3.44-3.37,3.61-3.22c0.51,0.45,1.07,2.74,2.07,3.53c1.03,0.82,2.55-2.36,2.86-3.1
					c0.27-0.64,1.46-3.79,0.96-3.85c-1.11-0.14-2.02,0.05-3.19-0.13c-2.88-0.45-6.16-0.42-9.03,0.05c-0.42,0.07-1.59,0.19-1.59,0.78
					c-0.28,0.47-0.44,4.36-1.45,1.11c-0.01-0.68-1.8-2.54-2.1-2.45c-3.33,1.01,1.01,2.23-0.72,2.89c-1.69,0.64-1.1-2.7-2.2-3
					c-1.15-0.32-3.94,0.6-2.76,2.53c0.42,0.69,2.64,0.43,2.12,1.62c-0.44,1.01-0.99,0.66-1.57,0.2c-0.9-0.72-1.05-2.06-1.82-2.73
					c-0.65-0.57-1.81-0.64-2.59-0.84c-0.86-0.21-3.43,2.16-3.45,0.35c-0.01-1.08-2.53,0.52-2.4,1.3c-0.2-1.22-1.44-2.41-2.46-1.24
					c-0.96,1.1-1.57-1.37-2.43,0.57c-0.37-0.81-1.53-1.19-2.28-1.1c-0.91,0.11-0.36,0.75-0.78,1.32c-0.53,0.73-0.93-1.94-1.6-1.43
					c-0.13,0.1-1.18,1.68-1.3,1.63c-0.46-0.2-0.65-1.33-0.86-1.42c-0.78-0.33-2.17,0.04-3.02,0.03c-1.49-0.02-2.37-0.72-3.79,0.06
					c-1.04,0.01-1.98,1.85-2.4,2.75c-0.05-0.37-0.43-2.03-0.93-2.03c0.14,0-0.57,0.93-1.08,0.96c-0.75,0.03-1.29-0.06-1.9-0.51
					c1.99-2.27-3.71,0.22-3.24,0.38c-0.64-0.23-0.07-0.89-1.14-0.87c-0.47-0.18-0.24,0.01-0.66-0.33c-0.99-0.79-3.16-0.16-4.21,0.19
					c-1.32,0.45-1.31-0.02-2.31-0.01c-0.45,0.01,0.65,1.94,0.69,2.07c-0.05-0.18-1.41-0.59-1.77-0.18c0.59-4.58-7.85,0.99-6.84-3.18
					c-0.95,0.01-1.12,2.99-1.42,3.83c-0.17-0.9-0.69-2.59-1.55-2.9c-0.14-0.05,0.04,1.12,0.07,1.29c-0.49,0.15-0.81-0.03-0.98-0.53
					c-0.01,0.22,0.46,2.98,0.66,3.09c-0.29,0.22-2.26-0.73-2.58-0.89c0.96-0.55,0.94-2.19-0.03-2.72c-0.65-0.71-1.8,0.9-2.42,1.12
					c-0.02-1.6-1.95-0.53-1.96-1.61c-0.93,0.81-1.01,2.05-0.94,3.28c-0.35-0.75-0.92-2.19-1.92-1.86c-0.54,0.18-1.88,1.63-2.1,0.2
					c-0.02-0.12,0.39-1.89-0.38-1.01c-0.77,0.01-0.92,0.47-0.96,1.1c-1.35,0.02-0.59-1.62-1.48-1.61c-0.1,0.33-0.12,2.04-0.04,2.04
					c-1.27,0.02-1.21-2.57-1.91-2.56c-2.08,0.03,0.23,2.19-2.36,1.14c-1.59-0.64-1.84,0.3-2.97,0.6c-0.47,0.12-1.56,2.38-2,1.8
					c-0.38-0.5,0.92-1.82-0.43-1.81c-0.93,0.01-1.26-0.63-2.08-0.9c-1.68-0.56-3.43,0.51-5.15,0.27c-1.76-0.25-5.09-0.95-4.43,1.87
					c-0.85,0.01-1.99-3.81-1.96-1.06c0.46,0.5,0.16,1.66-0.66,0.76c-0.38-0.41-0.15-2.38-0.81-2.37c-0.19,0.82-1.44,1.74-1.44,2.19
					c-0.92,1.05-1.37-0.95-2.12-1.22c-0.63-0.23-1.44-0.71-2.11-0.19c-0.44,0.33-0.06,1.64-1.02,1.12
					c-0.62-0.34-0.49-1.29-1.11-0.67c-0.1,0.1-0.88,1.3-0.94,1.26c-0.19-0.1-0.77-2.48-1.12-2c-0.11,0.15-0.75,2.02-1.17,1.47
					c-0.26-0.33-1.63-2.83-1.61-0.16c0.02,1.7-0.94-0.83-1-1.26c0.1,0.6-0.78,2.16-1.43,0.74c-0.98-2.14-1.21,0.22-1.6,0.75
					c-0.2,0.28-1.82-2.06-1.8-0.16c-0.25,0.2-0.37,1.3-0.47,1.64c-0.23-0.42-0.68-2.34-0.92-2.42c-0.32-0.11-0.31,2.74-0.68,2.66
					c-0.73-0.15-1.54-2.76-2.08-2.42c-0.4,0.25-0.26,1.89-0.21,2.23c-0.01-1.07-2.77-1.6-3.42-1.59c-1.7-0.27-1.33-0.02-3.16,0.52
					c-1.06,0.31-7.97-3-8.1-0.23c-0.45-1.02-2.43-1.2-3.35-1.18c-2.33-0.62-1.41,0.16-1.44,2.19c-0.21-0.61-0.56-0.85-1.05-0.71
					c-0.22,0.3,0.45,1.15-0.2,1.25c-0.65,0.1-1.66-0.03-1.67-1.05c-0.01-1.19-1.04-1.41-1.91-1.5c-1.88-0.19-7.98-1.24-8.33,1.27
					c0.14-0.98-1.97-1.55-2.62-1.07c-0.49,0.35,0.02,1.47-0.76,1.48c-0.12-1.28-2.82-1.77-3.78-1.42c-1.15,0.41-1.69,0.4-2.62,0.42
					c-0.37,0-1.7-0.7-1.53-0.75c-1.09,0.32-0.75,2.24-2.77,1.89c0.45-0.18,0.61-0.55,0.48-1.09c-1.51,0.28-0.96,2.18-2.43,0.57
					c-1.05-1.14-1.29-1.11-1.48,0.2c0.34-2.43-2.93,0.12-2.76,0.2c-1.07-0.46-0.59-2.03-2.09-0.32c-0.49,0.01-1.94,0.49-1.93,1.25
					c-0.01-1.35-1.76-2.25-2.92-2.27c-1.36-0.02-4.99,1.42-5.87-0.48c-1.14,0.01-0.5,5.12-0.22,6.23
					C309.89,419.9,312.27,417.67,312.26,417.21z"/>
				<path class="st2" d="M119.07,414.24c1.63,0.59,3.6,0.5,5.29,0.61c2.98,0.19,5.97,0.3,8.95,0.29c2,0,3.73,0.7,5.53,0.7
					c3.64,0,6.52-1.29,10.06-0.21c2.47,0.76,4.68-0.29,6.98,0.49c0.81,0.28,1.78,0.2,2.6,0.04c0.74-0.15,1.54-1.22,2.19-1.23
					c0.9-0.01,1.95,0.93,3.17,0.91c1-0.58,2.39-0.6,3.41-0.04c1.3-0.02,3.58-2.09,3.41,0.5c0.88-0.01,0.19-0.7,0.62-1.28
					c0.37-0.51,1.15,1.31,1.33,1.43c0.74,0.54,0.82-1.14,1.45-1.15c0.55-0.01,1.78,1.03,2.56,1.1c1.2,0.12,1.1-0.64,1.98-0.73
					c1.22-0.13,1.04,0.29,1.97,0.43c1.48,0.22,12.97,1.14,12.95-0.64c0.54,0.35,5.42,2.08,5.56,1.4c-0.12-0.29-0.29-0.54-0.51-0.74
					c1.17,1.91,8.9,0.17,8.53-1.02c0.35,1.12,0.78,2.91,1.9,1.47c-0.06,0.16-0.09,0.33-0.1,0.52c-0.07-0.54,4.13-0.8,4.57-0.8
					c0.76-0.01,2.59,0.29,3.28-0.32c0.38-0.33,0.37-1.15,1.08-1.03c1.16,0.2,0.63,2.09,1.5,2.32c0.81,0.22,1.41-0.55,2.27-0.35
					c0.76,0.17,1.26,0.9,1.91-0.14c0.38-0.61-0.11-1.69,0.2-2.04c-0.04,0.04,1.62,1.29,1.92,1.41c-0.03-3.04,1.94,1.3,1.36,1.31
					c0.75-0.01,0.58-1.9,0.57-2.42c0.41-0.01,2.95,3.22,2.93,1.05c-0.02-1.8,3.93,0.83,4.39,1.03c-0.01-0.51-0.01-1.09-0.62-1.08
					c1.65-0.02,1.13,0.46,3.16-0.44c0.25-0.11,1.91-1.28,2.01-0.39c0.06,0.52-0.4,0.99-0.09,1.53c1.11,1.94,6.55-1.06,8.18,0.22
					c-0.02-1.98,2.76-0.04,3.23,0.22c1.07,0.6,3.1-0.25,4.2-0.37c0.43-0.05,3.26-1.12,3.27,0.01c0.77,0.84,2.44-1.77,2.6-0.9
					c0.01,0.06,0,0.11,0,0.17c0.72-0.88,2.25-1.47,2.73-0.42c0.25,1.04-1.63,1.74-1.56,2.08c0.09,0.41,3.92,0.1,4.44-0.08
					c0.89-0.3,0.51-2.32,1.86-2.1c0.87,0.14,1.69,1.77,2.34,2.12c1.17,0.64,0.44-0.87,1.08-1.24c0.15-0.09,1.12,1.64,1.63,0.33
					c0.16-0.4-0.45-1.78,0.42-1.79c0.24,0,2.1,3.02,2.17,2.75c0.34-1.17,0-4.06,1.71-1.96c1.46,1.79,0.67,3.42,3.44,1.83
					c1.07-0.61,1.57-0.44,2.38,0.45c-0.19-0.2,1.1-0.3,1.07-0.31c1.8,0.35,2.11,0.42,3.34-0.99c-0.32,0.37,2.04-0.66,2.14-0.69
					c0.21-0.07-0.58,1.79-0.65,1.98c1.39,1.52,2.56-2.75,3.38-2.76c-0.23,1.45,1.47,1.41,1.48,1.68c0,0.2,1.57,1.41,1.72,1.41
					c0.62-0.01,0.26-1.47,1.21-0.42c0.64,0.35,1.19,0.2,1.36-0.63c0.13-0.61,0.16-2.86,1.1-2.87c0.97-0.01-1.58,5.57,2.69,3.59
					c0.89-0.41,2.64,0.62,2.62-0.74c-0.01-1.07,2.16-0.61,2.16,0.09c-0.01-0.6-1.62,0.99-0.21,0.97c1.18-0.02,0.85-2.22,1.45-2.98
					c1.46-1.87-1.02-2.56-1.02-2.46c-0.94,1.08-1.51-1.49-2.89-0.57c-1.21,0.79-1.31,0.74-2.34,1.91c-0.12,0.14-1.78-1.22-2.52-0.93
					c-0.38,0.15-4.77,0.04-6.66-0.15c-0.04-0.05-0.14-0.08-0.28-0.1c0.03,0.03,0.07,0.05,0.1,0.08c-0.31-0.03-0.53-0.07-0.63-0.11
					c-1.23-0.01-3.43,0.27-3.91,0.21c-2.06-0.26-2.24-0.95-3.71,0.73c0.62-0.71-3.44-1.33-3.44-1.27c-0.22-0.24-3.51-0.64-4.11-0.33
					c-1.13,0.58-3.23-1.43-5-1.13c-1.17,0.19-2.91,3.2-2.51,4.39c-0.33-0.99-0.09-2.01-0.79-2.97c-0.6-0.82-0.53,0.85-1.23,0.18
					c-2.18-2.08-1.68-0.29-3.38,1.17c1.9-2.98-1.97-2.57-1.96-1.61c0.02,1.52-1.45,1.42-1.46,0.02c-0.02-1.79-2.13,1.27-2.54,0.1
					c-1.16-3.35-0.8,2.29-2.17,1.55c-1.19-0.65,1.15-2.15-1.14-2.12c-1.5,0.02-1.95-0.03-1.93,1.72c-0.01-0.98-1.49-2.88-1.47-1.13
					c0.01,1.16-1.94,0.53-1.95-0.52c-1.14,2.81-2.94-1.75-2.91,1.33c0-0.29-2.37-1.76-2.67-1.98c-0.46-0.33-1.22,1.82-2.59,0.85
					c-1.65-1.17-2.12,0.97-3.5,1.04c-0.95-1.03-2.32-0.15-3.41-0.5c-0.02-1.48-2.02-1.14-2.65-0.49c-0.86,0.88-1.4-0.01-2.66-0.28
					c-1.41-0.3-1.22,1.4-2.46,1.42c0.49-2.33-1.51-1.32-2.54-1.21c0.1-0.01-3.46-0.16-2.86,0.17c-0.46-0.25-1.41-1.16-1.92-0.7
					c-0.58,0.52-1.04,2.29-1.93,1.31c-0.93-1.02-1.81,0.71-2.92-0.51c-0.5-0.54-1.02-0.53-1.65-0.52c0.3,0,0.66,0.28,0.87,0.51
					c-0.84-0.91-1.15,1.8-1.15,2.01c-0.01-1.33-1.42-0.41-1.89-0.93c-0.61-0.67,0.24-1.46-1.1-1.53c-1.14-0.06-2.38,0-3.38,0.71
					c-1.07,0.77-0.89,0.11-1.73-0.44c-0.61-0.4-4.58-1.05-4.57,0.38c0.01,0.57-3.9-0.92-3.9-0.49c-0.12-0.13-0.18-0.16-0.2-0.15
					c-0.87-0.59-2.25,0.36-3.33,0.03c-0.65-0.2-1.28-0.99-1.97-0.56c-0.43,0.27-1.29,2.01-1.78,1.9c-0.89-0.21-2.32-3.31-3.3-0.8
					c-0.38,0.99-0.13,2.13,0.41,2.98c-1.61-1.4-1.95-1.55-2.53-3.22c-0.62-1.78-4.71,0.05-5.29,0.05c-1.08-1.18-2.14,0.18-3.38-0.19
					c-1.37-0.42-0.92-0.53-2.57,0.11c-0.96,0.37-3.79-1.01-3.77,1.43c-0.03-3.26-8.48-0.56-8.78-0.89c-0.1-0.11-0.64-1.17-0.54-1.17
					c-0.61,0.01-0.38,1.52-0.77,1.3c-0.56-0.31-0.06-1.43-1.11-1.42c-0.86,0.01-0.36,1.13-0.17,1.45c-1.09-1.79-8.61-1.83-9.06,0.16
					c-0.46-1.49-5.02-0.89-6.28-0.91c-4.07-0.04-8.14,0.04-12.21,0.17c-3.18,0.1-6.38,0.18-9.55,0.49
					C119.09,413.01,117.63,414.25,119.07,414.24z"/>
				<path class="st2" d="M292.07,412.99c0,0.02,0.02,0.03,0.06,0.05c0.21,0,0.39,0.01,0.53,0.03
					C292.43,412.88,292.16,412.68,292.07,412.99z"/>
				<path class="st2" d="M260.86,416.08c-0.24,0.29-0.39,0.62-0.39,0.93C260.74,416.79,260.87,416.48,260.86,416.08z"/>
			</g>
		</g>
	</g>
</g>
</svg>
