<?xml version="1.0" encoding="utf-8"?>
<!-- Generator: Adobe Illustrator 24.2.1, SVG Export Plug-In . SVG Version: 6.00 Build 0)  -->
<svg version="1.1" xmlns="http://www.w3.org/2000/svg" xmlns:xlink="http://www.w3.org/1999/xlink" x="0px" y="0px"
	 viewBox="0 0 458 458" style="enable-background:new 0 0 458 458;" xml:space="preserve">
<style type="text/css">
	.st0{fill:#B8CEA7;}
	.st1{fill:#95BF65;}
	.st2{fill:#462E53;}
	.st3{fill:#908F98;}
	.st4{fill:#756865;}
	.st5{fill:#9BA1A7;}
	.st6{fill:#71B2C8;}
	.st7{fill:#5BC7D6;stroke:#5BC7D6;stroke-width:0.7791;stroke-linejoin:round;stroke-miterlimit:10;}
	.st8{opacity:0.31;fill:#B6BF65;}
	.st9{fill:#B6BF65;}
	.st10{fill:none;stroke:#CAA07D;stroke-width:25.9069;stroke-miterlimit:10;}
	.st11{fill:#9D93C8;}
	.st12{fill:#73B668;}
	.st13{fill:none;stroke:#F8F5EE;stroke-width:15;stroke-miterlimit:10;}
	.st14{fill:#F8F5EE;}
	.st15{fill:#609762;}
	.st16{fill:none;stroke:#785A5D;stroke-width:25.9069;stroke-linejoin:bevel;stroke-miterlimit:10;}
	.st17{opacity:0.25;fill:#3F5250;}
	.st18{fill:#5BC7D6;}
	.st19{fill:#A6DDE6;}
	.st20{fill:#785A5D;}
	.st21{fill:#AF8A6B;}
	.st22{fill:#9283B4;}
	.st23{fill:#7088AE;}
	.st24{fill:#3F5250;}
	.st25{fill:#746765;}
	.st26{fill:#8F8F97;}
	.st27{fill:#FEDAC0;}
	.st28{fill:#CAA07D;}
	.st29{fill:#8D5B5B;}
	.st30{fill:#F9B7AF;}
	.st31{fill:#EDC86E;}
	.st32{fill:none;stroke:#746765;stroke-width:5;stroke-miterlimit:10;}
	.st33{clip-path:url(#SVGID_2_);fill:#8D5B5B;}
	.st34{clip-path:url(#SVGID_2_);fill:#FEDAC0;}
	.st35{clip-path:url(#SVGID_2_);fill:#FEBA91;}
	.st36{clip-path:url(#SVGID_2_);fill:none;stroke:#746765;stroke-width:5.3457;stroke-miterlimit:10;}
	.st37{clip-path:url(#SVGID_2_);fill:#A6DDE6;}
	.st38{clip-path:url(#SVGID_2_);fill:#746765;stroke:#FEDAC0;stroke-width:1.1953;stroke-miterlimit:10;}
	.st39{opacity:0.82;clip-path:url(#SVGID_2_);fill:#F9B7AF;}
	.st40{clip-path:url(#SVGID_2_);fill:none;stroke:#D07E77;stroke-width:5.3457;stroke-miterlimit:10;}
	.st41{opacity:0.12;clip-path:url(#SVGID_2_);fill:#F8F5EE;}
	.st42{opacity:0.84;clip-path:url(#SVGID_2_);fill:#FFECDB;}
	.st43{clip-path:url(#SVGID_2_);fill:#EDC86E;}
	.st44{clip-path:url(#SVGID_2_);fill:none;stroke:#FFFFFF;stroke-width:5.3457;stroke-miterlimit:10;}
	.st45{clip-path:url(#SVGID_4_);fill:#462E53;}
	.st46{clip-path:url(#SVGID_4_);fill:#AF8A6B;}
	.st47{clip-path:url(#SVGID_4_);fill:#784B2D;}
	.st48{clip-path:url(#SVGID_4_);fill:none;stroke:#462E53;stroke-width:6;stroke-miterlimit:10;}
	.st49{opacity:0.82;clip-path:url(#SVGID_4_);fill:#D07E77;}
	.st50{clip-path:url(#SVGID_4_);fill:none;stroke:#8D5B5B;stroke-width:5.3457;stroke-miterlimit:10;}
	.st51{opacity:0.84;clip-path:url(#SVGID_4_);fill:#CCAE8D;}
	.st52{clip-path:url(#SVGID_6_);fill:#462E53;}
	.st53{clip-path:url(#SVGID_6_);fill:#8D5B5B;}
	.st54{clip-path:url(#SVGID_6_);fill:#4F2020;}
	.st55{opacity:0.82;clip-path:url(#SVGID_6_);fill:#A36A74;}
	.st56{clip-path:url(#SVGID_6_);fill:none;stroke:#584259;stroke-width:5.3457;stroke-miterlimit:10;}
	.st57{opacity:0.84;clip-path:url(#SVGID_6_);fill:#B17D7D;}
	.st58{clip-path:url(#SVGID_6_);fill:none;stroke:#462E53;stroke-width:6;stroke-miterlimit:10;}
	.st59{clip-path:url(#SVGID_6_);fill:#71B2C8;}
	.st60{clip-path:url(#SVGID_6_);fill:#7088AE;}
	.st61{clip-path:url(#SVGID_8_);fill:#2D1416;}
	.st62{clip-path:url(#SVGID_8_);}
	.st63{fill:none;stroke:#2D1416;stroke-width:21;stroke-linecap:round;stroke-miterlimit:10;}
	.st64{fill:none;stroke:#2D1416;stroke-width:21;stroke-linecap:round;stroke-miterlimit:10;stroke-dasharray:9.953,14.9295;}
	.st65{fill:none;stroke:#2D1416;stroke-width:21;stroke-linecap:round;stroke-miterlimit:10;stroke-dasharray:10.1351,15.2026;}
	.st66{fill:none;stroke:#2D1416;stroke-width:21;stroke-linecap:round;stroke-miterlimit:10;stroke-dasharray:10.0261,15.0391;}
	.st67{clip-path:url(#SVGID_8_);fill:#6F484C;}
	.st68{opacity:0.6;clip-path:url(#SVGID_8_);fill:#2D1416;}
	.st69{opacity:0.82;clip-path:url(#SVGID_8_);fill:#63403F;}
	.st70{clip-path:url(#SVGID_8_);fill:none;stroke:#3B2F2D;stroke-width:5.3457;stroke-miterlimit:10;}
	.st71{opacity:0.84;clip-path:url(#SVGID_8_);fill:#A47478;}
	.st72{clip-path:url(#SVGID_8_);fill:#2C1D23;}
	.st73{clip-path:url(#SVGID_8_);fill:none;stroke:#2C1D23;stroke-width:6;stroke-miterlimit:10;}
	.st74{fill:none;stroke:#2D1416;stroke-width:21;stroke-linecap:round;stroke-miterlimit:10;stroke-dasharray:10.1147,15.172;}
	.st75{fill:none;stroke:#2D1416;stroke-width:21;stroke-linecap:round;stroke-miterlimit:10;stroke-dasharray:9.674,14.5111;}
	.st76{fill:none;stroke:#2D1416;stroke-width:21;stroke-linecap:round;stroke-miterlimit:10;stroke-dasharray:10.0857,15.1285;}
	.st77{fill:none;stroke:#2D1416;stroke-width:21;stroke-linecap:round;stroke-miterlimit:10;stroke-dasharray:10.1379,15.2068;}
	.st78{fill:#D07E77;}
	.st79{fill:none;stroke:#785A5D;stroke-width:21.1853;stroke-linejoin:bevel;stroke-miterlimit:10;}
	.st80{fill:none;stroke:#A36A74;stroke-width:21.1853;stroke-miterlimit:10;}
	.st81{fill:#472F54;}
	.st82{fill:#FAE7A8;}
	.st83{fill:#FFECDB;}
	.st84{fill:#FEBA91;}
	.st85{fill:#CCAE8D;}
	.st86{fill:#784B2D;}
	.st87{fill:#B17D7D;}
	.st88{fill:#4F2020;}
	.st89{fill:none;stroke:#8D5B5B;stroke-width:25.9069;stroke-miterlimit:10;}
	.st90{fill:none;}
	.st91{fill:none;stroke:#F8F5EE;stroke-width:6.037;stroke-miterlimit:10;}
	.st92{fill:none;stroke:#785A5D;stroke-width:10.4266;stroke-linejoin:bevel;stroke-miterlimit:10;}
	.st93{fill:#D5D1D4;}
	.st94{fill:#CBC6C5;}
	.st95{fill:#FFFFFF;stroke:#000000;stroke-miterlimit:10;}
	.st96{fill:none;stroke:#483C40;stroke-miterlimit:10;}
	.st97{clip-path:url(#SVGID_10_);fill:#FFEAD4;}
	.st98{clip-path:url(#SVGID_10_);fill:#FEDAC0;}
	.st99{opacity:0.82;clip-path:url(#SVGID_10_);fill:#FEDAC0;}
	.st100{clip-path:url(#SVGID_10_);fill:none;stroke:#F9B7AF;stroke-width:5.3457;stroke-miterlimit:10;}
	.st101{clip-path:url(#SVGID_10_);fill:none;stroke:#746765;stroke-width:5.3457;stroke-miterlimit:10;}
	.st102{opacity:0.84;clip-path:url(#SVGID_10_);fill:#FFEAD4;}
	.st103{clip-path:url(#SVGID_10_);fill:#D98959;}
	.st104{clip-path:url(#SVGID_10_);fill:none;stroke:#746765;stroke-width:6;stroke-miterlimit:10;}
	.st105{clip-path:url(#SVGID_12_);}
	.st106{clip-path:url(#SVGID_12_);fill:#95BF65;}
	.st107{clip-path:url(#SVGID_12_);fill:none;stroke:#A36A74;stroke-width:21.1853;stroke-miterlimit:10;}
	.st108{clip-path:url(#SVGID_14_);}
	.st109{clip-path:url(#SVGID_14_);fill:#2C1D23;}
	.st110{clip-path:url(#SVGID_14_);fill:#6F484C;}
	.st111{clip-path:url(#SVGID_14_);fill:#F8F5EE;}
	.st112{clip-path:url(#SVGID_14_);fill:#D5D1D4;}
	.st113{clip-path:url(#SVGID_14_);fill:none;stroke:#462E53;stroke-width:20;stroke-miterlimit:10;}
	.st114{clip-path:url(#SVGID_14_);fill:#8D5B5B;}
	.st115{clip-path:url(#SVGID_16_);}
	.st116{clip-path:url(#SVGID_16_);fill:none;stroke:#EDC86E;stroke-width:30;stroke-miterlimit:10;}
	.st117{clip-path:url(#SVGID_16_);fill:#FAE7A8;}
</style>
<g id="Layer_3">
</g>
<g id="Layer_2">
	<g>
		<circle class="st30" cx="229" cy="229" r="187"/>
		<g>
			<defs>
				<circle id="SVGID_9_" cx="229" cy="229" r="187"/>
			</defs>
			<clipPath id="SVGID_2_">
				<use xlink:href="#SVGID_9_"  style="overflow:visible;"/>
			</clipPath>
			<polygon style="clip-path:url(#SVGID_2_);fill:#FFEAD4;" points="315.7,449.34 183.13,449.34 198.09,229.1 317.84,229.1 			"/>
			<path class="st34" d="M317.57,256.58c-2.79,7.87-26.96,75.59-35.01,82.64c-8.55,7.48-87.67,25.66-87.67,25.66
				c19.22,27.36,83.44,37.84,121.23,41.7L317.57,256.58z"/>
			<path style="clip-path:url(#SVGID_2_);fill:#FFEAD4;" d="M141.43,201.3c0,19.24-14.97,34.21-14.97,54.53
				c0,90.88,76.98,120.81,103.71,120.81s87.67-32.07,87.67-120.81c0-85.53-22.45-128.3-87.67-128.3
				C176.71,127.53,141.43,161.74,141.43,201.3z"/>
			<ellipse style="opacity:0.82;clip-path:url(#SVGID_2_);fill:#FEDAC0;" cx="265.98" cy="252.09" rx="24.06" ry="14.43"/>
			<path style="clip-path:url(#SVGID_2_);fill:none;stroke:#F9B7AF;stroke-width:5.3457;stroke-miterlimit:10;" d="M238.63,184.24
				c0,0,16.67-8.06,32.7,0.49"/>
			<path class="st36" d="M184.2,302.87c0,0,6.41,8.55,23.52,8.55s27.8-8.55,27.8-8.55"/>
			<path style="clip-path:url(#SVGID_2_);fill:none;stroke:#F9B7AF;stroke-width:5.3457;stroke-miterlimit:10;" d="M215.2,264.38
				c-6.41,1.07-17.11-3.21-18.59-11.49c-1.49-8.28,15.39-22.72,15.39-39.83c0-16.04-11.76-29.94-36.35-29.94
				c-14.76,0-22.99,4.81-22.99,4.81"/>
			<path style="clip-path:url(#SVGID_2_);fill:#FFEAD4;" d="M300.73,205.58c0,0,10.52-9.78,21.38-9.62
				c6.52,0.09,18.18,9.72,18.18,18.18c0,20.31-7.48,33.14-17.11,34.21c-9.62,1.07-17.11-6.41-17.11-6.41L300.73,205.58z"/>
			<path style="opacity:0.82;clip-path:url(#SVGID_2_);fill:#FEDAC0;" d="M129.8,238.45c-1.94,5.48-3.33,11.18-3.33,17.38
				c0,3.11,0.1,6.14,0.27,9.11c3.29,1.01,7.01,1.58,10.95,1.58c13.29,0,24.06-6.46,24.06-14.43c0-7.97-10.77-14.43-24.06-14.43
				C134.92,237.65,132.27,237.94,129.8,238.45z"/>
			<path style="opacity:0.84;clip-path:url(#SVGID_2_);fill:#FFEAD4;" d="M135.01,255.83c0-20.31,14.97-35.28,14.97-54.53
				c0-38.56,33.54-72.03,84.75-73.69c-1.5-0.05-3.01-0.08-4.56-0.08c-53.46,0-88.74,34.21-88.74,73.77
				c0,19.24-14.97,34.21-14.97,54.53c0,90.88,76.98,120.81,103.71,120.81c1.31,0,2.69-0.08,4.15-0.23
				C204.44,373.47,135.01,342.13,135.01,255.83z"/>
			<path style="clip-path:url(#SVGID_2_);fill:#D98959;" d="M311.45,190.41l-17.34-17.87l-6.06,93.54l-161.27-0.13
				c0,74.39,31.22,114.69,84.29,114.69c83.82,0,106.68-50.55,106.68-130.36C317.75,191.43,311.45,190.41,311.45,190.41z
				 M212.12,328.09c-28.56,0-39.58-23.82-43.59-37.84h90.06C252.35,305.66,238.69,328.09,212.12,328.09z"/>
			<path style="clip-path:url(#SVGID_2_);fill:#D98959;" d="M294.11,172.54c-15.26-6.2-112.72-12.03-145.06-3.95
				c-13.51,3.38,1.6-42.8,82.22-42.8c63.6,0,82,46.51,84.03,78.76s-11.95-8.37-11.95-8.37L294.11,172.54z"/>
			<path style="clip-path:url(#SVGID_2_);fill:none;stroke:#746765;stroke-width:6;stroke-miterlimit:10;" d="M268.12,228.73
				c0-10.63-5.12-25.24-16.04-25.24c-12.09,0-16.04,14.62-16.04,25.24"/>
			<path style="clip-path:url(#SVGID_2_);fill:none;stroke:#746765;stroke-width:6;stroke-miterlimit:10;" d="M186.12,228.73
				c0-10.63-5.12-25.24-16.04-25.24c-12.09,0-16.04,14.62-16.04,25.24"/>
		</g>
	</g>
</g>
</svg>
