<?xml version="1.0" encoding="utf-8"?>
<!-- Generator: Adobe Illustrator 24.2.1, SVG Export Plug-In . SVG Version: 6.00 Build 0)  -->
<svg version="1.1" id="Layer_1" xmlns="http://www.w3.org/2000/svg" xmlns:xlink="http://www.w3.org/1999/xlink" x="0px" y="0px"
	 viewBox="0 0 750 825" style="enable-background:new 0 0 750 825;" xml:space="preserve">
<style type="text/css">
	.st0{fill:#F9B7AF;}
	.st1{fill:#D07E77;}
	.st2{fill:#9BA1A7;}
	.st3{fill:#8F8F97;}
	.st4{fill:#FAE7A8;}
	.st5{fill:#A6DDE6;}
</style>
<g id="Layer_3">
</g>
<g id="Layer_2_1_">
	<g>
		<rect x="292.41" y="331.11" class="st0" width="168.07" height="83.53"/>
		<polygon class="st1" points="447.38,364.12 301.64,364.12 157.85,125.99 303.59,125.99 		"/>
		<path class="st2" d="M456.73,322.43H293.3c-10.11,0-18.3,8.2-18.3,18.3v46.79c0,10.11,8.2,18.3,18.3,18.3h14.28
			c-3.19,0-5.78-2.59-5.78-5.78v-45.03c0-3.19,2.59-5.78,5.78-5.78h134.86c3.19,0,5.78,2.59,5.78,5.78v45.03
			c0,3.19-2.59,5.78-5.78,5.78h14.28c10.11,0,18.3-8.2,18.3-18.3v-46.79C475.03,330.62,466.84,322.43,456.73,322.43z"/>
		<polygon class="st0" points="302.54,364.12 448.27,364.12 592.06,125.99 446.32,125.99 		"/>
	</g>
	<ellipse class="st2" cx="375.02" cy="540.88" rx="170.02" ry="173.5"/>
	<path class="st3" d="M393.43,638.93c-62.26,0-112.74-51.51-112.74-115.05c0-15.21,2.9-29.72,8.16-43.01c1.9-4.8-4.74-8.21-7.57-3.9
		c-12,18.28-19,40.25-19,63.91c0,63.54,50.47,115.05,112.74,115.05c19.42,0,37.68-5.01,53.62-13.84c4.47-2.47,1.61-9.33-3.27-7.85
		C415.24,637.29,404.52,638.93,393.43,638.93z"/>
	<path class="st4" d="M615.31,575.3l-58.66-8.56c-16.11-2.35-28.79-14.95-31.24-31.03l-8.34-54.63c-0.53-3.5-3.54-6.08-7.08-6.08
		h-0.16c-3.54,0-6.54,2.58-7.08,6.08l-8.59,56.25c-2.34,15.31-13.95,27.54-29.12,30.66l-34.14,7.03c-3.33,0.69-5.71,3.61-5.71,7.01
		v0.79c0,3.4,2.39,6.32,5.71,7.01l33.79,6.96c15.33,3.16,27.02,15.62,29.19,31.13l8.93,63.96c0.49,3.54,3.52,6.17,7.09,6.17l0,0
		c3.57,0,6.59-2.63,7.09-6.17l8.7-62.33c2.28-16.29,15.03-29.13,31.31-31.5l58.3-8.5c3.52-0.51,6.12-3.53,6.12-7.08v-0.08
		C621.43,578.83,618.83,575.81,615.31,575.3z"/>
	<path class="st0" d="M233.95,342.28l-18.16-3.93c-5.12-1.11-9.09-5.15-10.1-10.29l-4.13-20.86c-0.33-1.65-1.77-2.84-3.45-2.84
		h-0.12c-1.68,0-3.13,1.19-3.45,2.84l-4.11,20.77c-1.03,5.18-5.06,9.25-10.23,10.32l-19.53,4.02c-1.64,0.34-2.81,1.78-2.81,3.45
		v0.17c0,1.67,1.17,3.11,2.81,3.45l19.33,3.98c5.27,1.09,9.35,5.28,10.28,10.58l4.3,24.36c0.3,1.68,1.76,2.91,3.47,2.91l0,0
		c1.71,0,3.17-1.23,3.47-2.91l4.31-24.46c0.93-5.25,4.94-9.42,10.15-10.55l17.97-3.89c1.62-0.35,2.78-1.78,2.78-3.44v-0.23
		C236.72,344.06,235.57,342.63,233.95,342.28z"/>
	<circle class="st5" cx="148.64" cy="382.3" r="14.93"/>
	
		<ellipse transform="matrix(0.9239 -0.3827 0.3827 0.9239 -167.1738 207.3611)" class="st4" cx="437.65" cy="523.9" rx="6.79" ry="6.79"/>
	<circle class="st4" cx="260.52" cy="723.07" r="6.79"/>
	<path class="st5" d="M341.59,694.94l-19.34-4.19c-5.45-1.18-9.68-5.49-10.76-10.96l-4.39-22.23c-0.35-1.76-1.89-3.02-3.68-3.02
		h-0.13c-1.79,0-3.33,1.27-3.68,3.02l-4.38,22.13c-1.09,5.52-5.39,9.85-10.9,10.99l-20.8,4.28c-1.74,0.36-2.99,1.89-2.99,3.67v0.18
		c0,1.78,1.25,3.32,2.99,3.67l20.6,4.24c5.62,1.16,9.96,5.62,10.96,11.27l4.58,25.95c0.32,1.79,1.87,3.1,3.69,3.1
		s3.38-1.31,3.69-3.1l4.6-26.06c0.99-5.6,5.26-10.04,10.82-11.24l19.14-4.15c1.73-0.37,2.96-1.9,2.96-3.67v-0.24
		C344.55,696.84,343.32,695.31,341.59,694.94z"/>
</g>
</svg>
