[
  {
    "type": "CulturePlaces",
    "building": "ArtMuseum",
    "file": "CulturePlaces_ArtMuseum.png"
  },
  {
    "type": "CulturePlaces",
    "building": "ArtistResidency",
    "file": "CulturePlaces_ArtistResidency.png"
  },
  {
    "type": "CulturePlaces",
    "building": "GalleryDistrict",
    "file": "CulturePlaces_GalleryDistrict.png"
  },
  {
    "type": "CulturePlaces",
    "building": "GraffitiWall",
    "file": "CulturePlaces_GraffitiWall.png"
  },
  {
    "type": "CulturePlaces",
    "building": "SculpturePark",
    "file": "CulturePlaces_SculpturePark.png"
  },
  {
    "type": "CulturePlaces",
    "building": "Workshop",
    "file": "CulturePlaces_Workshop.png"
  },
  {
    "type": "Education",
    "building": "BookHouse",
    "file": "Education_BookHouse_Education.png"
  },
  {
    "type": "Education",
    "building": "CampusUniversity",
    "file": "Education_CampusUniversity.png"
  },
  {
    "type": "Education",
    "building": "Daycare",
    "file": "Education_Daycare.png"
  },
  {
    "type": "Education",
    "building": "HighSchool",
    "file": "Education_HighSchool.png"
  },
  {
    "type": "Education",
    "building": "PrimarySchool",
    "file": "Education_PrimarySchool.png"
  },
  {
    "type": "Education",
    "building": "SmallUniversity",
    "file": "Education_SmallUniversity.png"
  },
  {
    "type": "ElectricalFacilities",
    "building": "IndividualGenerator",
    "file": "ElectricalFacilities_IndividualGenerator.png"
  },
  {
    "type": "ElectricalFacilities",
    "building": "OverheadPower",
    "file": "ElectricalFacilities_OverheadPower.png"
  },
  {
    "type": "ElectricalFacilities",
    "building": "SharedGenerator",
    "file": "ElectricalFacilities_SharedGenerator.png"
  },
  {
    "type": "ElectricalFacilities",
    "building": "UndergroundPower",
    "file": "ElectricalFacilities_UndergroundPower.png"
  },
  {
    "type": "EntertainmentFacilities",
    "building": "CommunityCenter",
    "file": "EntertainmentFacilities_CommunityCenter.png"
  },
  {
    "type": "EntertainmentFacilities",
    "building": "Gazebo",
    "file": "EntertainmentFacilities_Gazebo.png"
  },
  {
    "type": "EntertainmentFacilities",
    "building": "OpenAirTheater",
    "file": "EntertainmentFacilities_OpenAirTheater.png"
  },
  {
    "type": "EntertainmentFacilities",
    "building": "OperaBuilding",
    "file": "EntertainmentFacilities_OperaBuilding.png"
  },
  {
    "type": "EntertainmentFacilities",
    "building": "Theater",
    "file": "EntertainmentFacilities_Theater.png"
  },
  {
    "type": "EntertainmentFacilities",
    "building": "TownHall",
    "file": "EntertainmentFacilities_TownHall.png"
  },
  {
    "type": "Firefighting",
    "building": "FireExtinguishers",
    "file": "Firefighting_FireExtinguishers.png"
  },
  {
    "type": "Firefighting",
    "building": "FireHydrant",
    "file": "Firefighting_FireHydrant.png"
  },
  {
    "type": "Firefighting",
    "building": "LadderTruck",
    "file": "Firefighting_LadderTruck.png"
  },
  {
    "type": "Firefighting",
    "building": "PickupTruck",
    "file": "Firefighting_PickupTruck.png"
  },
  {
    "type": "Healthcare",
    "building": "Clinic",
    "file": "Healthcare_Clinic.png"
  },
  {
    "type": "Healthcare",
    "building": "DoctorVisit",
    "file": "Healthcare_DoctorVisit.png"
  },
  {
    "type": "Healthcare",
    "building": "FirstAidKit",
    "file": "Healthcare_FirstAidKit.png"
  },
  {
    "type": "Healthcare",
    "building": "Hospital",
    "file": "Healthcare_Hospital.png"
  },
  {
    "type": "Healthcare",
    "building": "MedicalUniversity",
    "file": "Healthcare_MedicalUniversity.png"
  },
  {
    "type": "Healthcare",
    "building": "NurseVisit",
    "file": "Healthcare_NurseVisit.png"
  },
  {
    "type": "InternetInfrastructure",
    "building": "FiberUplink",
    "file": "InternetInfrastructure_FiberUplink.png"
  },
  {
    "type": "InternetInfrastructure",
    "building": "InternetExchange",
    "file": "InternetInfrastructure_InternetExchange.png"
  },
  {
    "type": "InternetInfrastructure",
    "building": "Microwave",
    "file": "InternetInfrastructure_Microwave.png"
  },
  {
    "type": "InternetInfrastructure",
    "building": "SharedHotspot",
    "file": "InternetInfrastructure_SharedHotspot.png"
  },
  {
    "type": "InternetInfrastructure",
    "building": "Starlink",
    "file": "InternetInfrastructure_Starlink.png"
  },
  {
    "type": "LawEnforcement",
    "building": "Courthouse",
    "file": "LawEnforcement_Courthouse.png"
  },
  {
    "type": "LawEnforcement",
    "building": "DepartmentOffice",
    "file": "LawEnforcement_DepartmentOffice.png"
  },
  {
    "type": "LawEnforcement",
    "building": "Gate",
    "file": "LawEnforcement_Gate.png"
  },
  {
    "type": "LawEnforcement",
    "building": "Guards",
    "file": "LawEnforcement_Guards.png"
  },
  {
    "type": "LawEnforcement",
    "building": "NeighborhoodWatch",
    "file": "LawEnforcement_NeighborhoodWatch.png"
  },
  {
    "type": "LawEnforcement",
    "building": "PoliceStation",
    "file": "LawEnforcement_PoliceStation.png"
  },
  {
    "type": "OutdoorFacilities",
    "building": "CentralPark",
    "file": "OutdoorFacilities_CentralPark.png"
  },
  {
    "type": "OutdoorFacilities",
    "building": "DogPark",
    "file": "OutdoorFacilities_DogPark.png"
  },
  {
    "type": "OutdoorFacilities",
    "building": "FlowerBed",
    "file": "OutdoorFacilities_FlowerBed.png"
  },
  {
    "type": "OutdoorFacilities",
    "building": "Garden",
    "file": "OutdoorFacilities_Garden.png"
  },
  {
    "type": "OutdoorFacilities",
    "building": "Playground",
    "file": "OutdoorFacilities_Playground.png"
  },
  {
    "type": "OutdoorFacilities",
    "building": "SmallParks",
    "file": "OutdoorFacilities_SmallParks.png"
  },
  {
    "type": "TransportInfrastructure",
    "building": "GravelRoads",
    "file": "TransportInfrastructure_GravelRoads.png"
  },
  {
    "type": "TransportInfrastructure",
    "building": "Metro",
    "file": "TransportInfrastructure_Metro.png"
  },
  {
    "type": "TransportInfrastructure",
    "building": "TarmacRoads",
    "file": "TransportInfrastructure_TarmacRoads.png"
  },
  {
    "type": "TransportInfrastructure",
    "building": "TrafficLights",
    "file": "TransportInfrastructure_TrafficLights.png"
  },
  {
    "type": "TransportInfrastructure",
    "building": "Tram",
    "file": "TransportInfrastructure_Tram.png"
  },
  {
    "type": "TransportInfrastructure",
    "building": "UnpavedRoads",
    "file": "TransportInfrastructure_UnpavedRoads.png"
  },
  {
    "type": "WaterSystem",
    "building": "DrinkingFountain",
    "file": "WaterSystem_DrinkingFountain.png"
  },
  {
    "type": "WaterSystem",
    "building": "IndoorPlumbing",
    "file": "WaterSystem_IndoorPlumbing.png"
  },
  {
    "type": "WaterSystem",
    "building": "Sewage",
    "file": "WaterSystem_Sewage.png"
  },
  {
    "type": "WaterSystem",
    "building": "Wells",
    "file": "WaterSystem_Wells.png"
  }
]
