[
  {
    "message": "[cityName] is getting crowded! Let's make room for more residents.",
    "condition": "crowded"
  },
  {
    "message": "Woah, [cityName] is growing like crazy.",
    "condition": "normal"
  },
  {
    "message": "The time to move to [cityName] is now! Everybody wants to move there.",
    "condition": "normal"
  },
  {
    "message": "[cityName] is crowded, should we expand?",
    "condition": "crowded"
  },
  {
    "message": "[cityName] is empty, maybe we shouldn't expand?",
    "condition": "empty"
  },
  {
    "message": "[cityName] has a mix of full and empty plots! Expand?",
    "condition": "normal"
  },
  {
    "message": "Woah, [cityName] is a ghost town!",
    "condition": "empty"
  },
  {
    "message": "WOW, [cityName] is packed!",
    "condition": "crowded"
  },
  {
    "message": "[cityName] seems like a ghost town! Don't know if we should expand...",
    "condition": "empty"
  },
  {
    "message": "We're so popular, [cityName] is bustling!",
    "condition": "normal"
  },
  {
    "message": "There's almost no plots left, [cityName] is almost full!",
    "condition": "crowded"
  },
  {
    "message": "I can't believe [cityName] has so many empty plots!",
    "condition": "empty"
  },
  {
    "message": "A new city is being built. Let's hope new plots will be available soon.",
    "condition": "new"
  }
]