<svg width="25" height="25" viewBox="0 0 25 25" fill="none" xmlns="http://www.w3.org/2000/svg">
<path d="M12.5 25C19.4036 25 25 19.4036 25 12.5C25 5.59644 19.4036 0 12.5 0C5.59644 0 0 5.59644 0 12.5C0 19.4036 5.59644 25 12.5 25Z" fill="#68889F"/>
<path d="M6.24562 6.4736C6.10531 6.76517 6.02639 7.08961 6.02639 7.43379C6.02639 8.66362 7.02385 9.66108 8.25368 9.66108C9.45282 9.66108 10.4284 8.71185 10.4766 7.52367L6.24562 6.4736Z" fill="#A6DDE6"/>
<path d="M18.7544 6.4736C18.8947 6.76517 18.9736 7.08961 18.9736 7.43379C18.9736 8.66362 17.9761 9.66108 16.7463 9.66108C15.5472 9.66108 14.5716 8.71185 14.5234 7.52367L18.7544 6.4736Z" fill="#A6DDE6"/>
<path d="M6.0242 18.4343C6.0242 18.4343 7.98185 14.0082 12.3882 14.0082C16.7945 14.0082 18.9736 18.4343 18.9736 18.4343" stroke="#A6DDE6" stroke-width="2.19221" stroke-miterlimit="10"/>
</svg>
